<?xml version="1.0" encoding="utf-8" standalone="no"?>
<!DOCTYPE svg PUBLIC "-//W3C//DTD SVG 1.1//EN"
  "http://www.w3.org/Graphics/SVG/1.1/DTD/svg11.dtd">
<svg xmlns:xlink="http://www.w3.org/1999/xlink" width="1224pt" height="720pt" viewBox="0 0 1224 720" xmlns="http://www.w3.org/2000/svg" version="1.1">
 <metadata>
  <rdf:RDF xmlns:dc="http://purl.org/dc/elements/1.1/" xmlns:cc="http://creativecommons.org/ns#" xmlns:rdf="http://www.w3.org/1999/02/22-rdf-syntax-ns#">
   <cc:Work>
    <dc:type rdf:resource="http://purl.org/dc/dcmitype/StillImage"/>
    <dc:date>2023-05-12T13:47:32.726861</dc:date>
    <dc:format>image/svg+xml</dc:format>
    <dc:creator>
     <cc:Agent>
      <dc:title>Matplotlib v3.7.1, https://matplotlib.org/</dc:title>
     </cc:Agent>
    </dc:creator>
   </cc:Work>
  </rdf:RDF>
 </metadata>
 <defs>
  <style type="text/css">*{stroke-linejoin: round; stroke-linecap: butt}</style>
 </defs>
 <g id="figure_1">
  <g id="patch_1">
   <path d="M 0 720 
L 1224 720 
L 1224 0 
L 0 0 
z
" style="fill: #ffffff"/>
  </g>
  <g id="axes_1">
   <g id="patch_2">
    <path d="M 153 327.443478 
L 1101.6 327.443478 
L 1101.6 86.4 
L 153 86.4 
z
" style="fill: #eaeaf2"/>
   </g>
   <g id="matplotlib.axis_1">
    <g id="xtick_1">
     <g id="line2d_1">
      <path d="M 196.118182 327.443478 
L 196.118182 86.4 
" clip-path="url(#p6557ce96cb)" style="fill: none; stroke: #ffffff; stroke-linecap: round"/>
     </g>
     <g id="text_1">
      <!-- 0-1 -->
      <g style="fill: #262626" transform="translate(188.169822 344.817072) scale(0.11 -0.11)">
       <defs>
        <path id="ArialMT-30" d="M 266 2259 
Q 266 3072 433 3567 
Q 600 4063 929 4331 
Q 1259 4600 1759 4600 
Q 2128 4600 2406 4451 
Q 2684 4303 2865 4023 
Q 3047 3744 3150 3342 
Q 3253 2941 3253 2259 
Q 3253 1453 3087 958 
Q 2922 463 2592 192 
Q 2263 -78 1759 -78 
Q 1097 -78 719 397 
Q 266 969 266 2259 
z
M 844 2259 
Q 844 1131 1108 757 
Q 1372 384 1759 384 
Q 2147 384 2411 759 
Q 2675 1134 2675 2259 
Q 2675 3391 2411 3762 
Q 2147 4134 1753 4134 
Q 1366 4134 1134 3806 
Q 844 3388 844 2259 
z
" transform="scale(0.015625)"/>
        <path id="ArialMT-2d" d="M 203 1375 
L 203 1941 
L 1931 1941 
L 1931 1375 
L 203 1375 
z
" transform="scale(0.015625)"/>
        <path id="ArialMT-31" d="M 2384 0 
L 1822 0 
L 1822 3584 
Q 1619 3391 1289 3197 
Q 959 3003 697 2906 
L 697 3450 
Q 1169 3672 1522 3987 
Q 1875 4303 2022 4600 
L 2384 4600 
L 2384 0 
z
" transform="scale(0.015625)"/>
       </defs>
       <use xlink:href="#ArialMT-30"/>
       <use xlink:href="#ArialMT-2d" x="55.615234"/>
       <use xlink:href="#ArialMT-31" x="88.916016"/>
      </g>
     </g>
    </g>
    <g id="xtick_2">
     <g id="line2d_2">
      <path d="M 233.612253 327.443478 
L 233.612253 86.4 
" clip-path="url(#p6557ce96cb)" style="fill: none; stroke: #ffffff; stroke-linecap: round"/>
     </g>
     <g id="text_2">
      <!-- 1-2 -->
      <g style="fill: #262626" transform="translate(225.663894 344.817072) scale(0.11 -0.11)">
       <defs>
        <path id="ArialMT-32" d="M 3222 541 
L 3222 0 
L 194 0 
Q 188 203 259 391 
Q 375 700 629 1000 
Q 884 1300 1366 1694 
Q 2113 2306 2375 2664 
Q 2638 3022 2638 3341 
Q 2638 3675 2398 3904 
Q 2159 4134 1775 4134 
Q 1369 4134 1125 3890 
Q 881 3647 878 3216 
L 300 3275 
Q 359 3922 746 4261 
Q 1134 4600 1788 4600 
Q 2447 4600 2831 4234 
Q 3216 3869 3216 3328 
Q 3216 3053 3103 2787 
Q 2991 2522 2730 2228 
Q 2469 1934 1863 1422 
Q 1356 997 1212 845 
Q 1069 694 975 541 
L 3222 541 
z
" transform="scale(0.015625)"/>
       </defs>
       <use xlink:href="#ArialMT-31"/>
       <use xlink:href="#ArialMT-2d" x="55.615234"/>
       <use xlink:href="#ArialMT-32" x="88.916016"/>
      </g>
     </g>
    </g>
    <g id="xtick_3">
     <g id="line2d_3">
      <path d="M 271.106324 327.443478 
L 271.106324 86.4 
" clip-path="url(#p6557ce96cb)" style="fill: none; stroke: #ffffff; stroke-linecap: round"/>
     </g>
     <g id="text_3">
      <!-- 2-3 -->
      <g style="fill: #262626" transform="translate(263.157965 344.817072) scale(0.11 -0.11)">
       <defs>
        <path id="ArialMT-33" d="M 269 1209 
L 831 1284 
Q 928 806 1161 595 
Q 1394 384 1728 384 
Q 2125 384 2398 659 
Q 2672 934 2672 1341 
Q 2672 1728 2419 1979 
Q 2166 2231 1775 2231 
Q 1616 2231 1378 2169 
L 1441 2663 
Q 1497 2656 1531 2656 
Q 1891 2656 2178 2843 
Q 2466 3031 2466 3422 
Q 2466 3731 2256 3934 
Q 2047 4138 1716 4138 
Q 1388 4138 1169 3931 
Q 950 3725 888 3313 
L 325 3413 
Q 428 3978 793 4289 
Q 1159 4600 1703 4600 
Q 2078 4600 2393 4439 
Q 2709 4278 2876 4000 
Q 3044 3722 3044 3409 
Q 3044 3113 2884 2869 
Q 2725 2625 2413 2481 
Q 2819 2388 3044 2092 
Q 3269 1797 3269 1353 
Q 3269 753 2831 336 
Q 2394 -81 1725 -81 
Q 1122 -81 723 278 
Q 325 638 269 1209 
z
" transform="scale(0.015625)"/>
       </defs>
       <use xlink:href="#ArialMT-32"/>
       <use xlink:href="#ArialMT-2d" x="55.615234"/>
       <use xlink:href="#ArialMT-33" x="88.916016"/>
      </g>
     </g>
    </g>
    <g id="xtick_4">
     <g id="line2d_4">
      <path d="M 308.600395 327.443478 
L 308.600395 86.4 
" clip-path="url(#p6557ce96cb)" style="fill: none; stroke: #ffffff; stroke-linecap: round"/>
     </g>
     <g id="text_4">
      <!-- 3-4 -->
      <g style="fill: #262626" transform="translate(300.652036 344.817072) scale(0.11 -0.11)">
       <defs>
        <path id="ArialMT-34" d="M 2069 0 
L 2069 1097 
L 81 1097 
L 81 1613 
L 2172 4581 
L 2631 4581 
L 2631 1613 
L 3250 1613 
L 3250 1097 
L 2631 1097 
L 2631 0 
L 2069 0 
z
M 2069 1613 
L 2069 3678 
L 634 1613 
L 2069 1613 
z
" transform="scale(0.015625)"/>
       </defs>
       <use xlink:href="#ArialMT-33"/>
       <use xlink:href="#ArialMT-2d" x="55.615234"/>
       <use xlink:href="#ArialMT-34" x="88.916016"/>
      </g>
     </g>
    </g>
    <g id="xtick_5">
     <g id="line2d_5">
      <path d="M 346.094466 327.443478 
L 346.094466 86.4 
" clip-path="url(#p6557ce96cb)" style="fill: none; stroke: #ffffff; stroke-linecap: round"/>
     </g>
     <g id="text_5">
      <!-- 4-5 -->
      <g style="fill: #262626" transform="translate(338.146107 344.817072) scale(0.11 -0.11)">
       <defs>
        <path id="ArialMT-35" d="M 266 1200 
L 856 1250 
Q 922 819 1161 601 
Q 1400 384 1738 384 
Q 2144 384 2425 690 
Q 2706 997 2706 1503 
Q 2706 1984 2436 2262 
Q 2166 2541 1728 2541 
Q 1456 2541 1237 2417 
Q 1019 2294 894 2097 
L 366 2166 
L 809 4519 
L 3088 4519 
L 3088 3981 
L 1259 3981 
L 1013 2750 
Q 1425 3038 1878 3038 
Q 2478 3038 2890 2622 
Q 3303 2206 3303 1553 
Q 3303 931 2941 478 
Q 2500 -78 1738 -78 
Q 1113 -78 717 272 
Q 322 622 266 1200 
z
" transform="scale(0.015625)"/>
       </defs>
       <use xlink:href="#ArialMT-34"/>
       <use xlink:href="#ArialMT-2d" x="55.615234"/>
       <use xlink:href="#ArialMT-35" x="88.916016"/>
      </g>
     </g>
    </g>
    <g id="xtick_6">
     <g id="line2d_6">
      <path d="M 383.588538 327.443478 
L 383.588538 86.4 
" clip-path="url(#p6557ce96cb)" style="fill: none; stroke: #ffffff; stroke-linecap: round"/>
     </g>
     <g id="text_6">
      <!-- 5-6 -->
      <g style="fill: #262626" transform="translate(375.640178 344.817072) scale(0.11 -0.11)">
       <defs>
        <path id="ArialMT-36" d="M 3184 3459 
L 2625 3416 
Q 2550 3747 2413 3897 
Q 2184 4138 1850 4138 
Q 1581 4138 1378 3988 
Q 1113 3794 959 3422 
Q 806 3050 800 2363 
Q 1003 2672 1297 2822 
Q 1591 2972 1913 2972 
Q 2475 2972 2870 2558 
Q 3266 2144 3266 1488 
Q 3266 1056 3080 686 
Q 2894 316 2569 119 
Q 2244 -78 1831 -78 
Q 1128 -78 684 439 
Q 241 956 241 2144 
Q 241 3472 731 4075 
Q 1159 4600 1884 4600 
Q 2425 4600 2770 4297 
Q 3116 3994 3184 3459 
z
M 888 1484 
Q 888 1194 1011 928 
Q 1134 663 1356 523 
Q 1578 384 1822 384 
Q 2178 384 2434 671 
Q 2691 959 2691 1453 
Q 2691 1928 2437 2201 
Q 2184 2475 1800 2475 
Q 1419 2475 1153 2201 
Q 888 1928 888 1484 
z
" transform="scale(0.015625)"/>
       </defs>
       <use xlink:href="#ArialMT-35"/>
       <use xlink:href="#ArialMT-2d" x="55.615234"/>
       <use xlink:href="#ArialMT-36" x="88.916016"/>
      </g>
     </g>
    </g>
    <g id="xtick_7">
     <g id="line2d_7">
      <path d="M 421.082609 327.443478 
L 421.082609 86.4 
" clip-path="url(#p6557ce96cb)" style="fill: none; stroke: #ffffff; stroke-linecap: round"/>
     </g>
     <g id="text_7">
      <!-- 6-7 -->
      <g style="fill: #262626" transform="translate(413.134249 344.817072) scale(0.11 -0.11)">
       <defs>
        <path id="ArialMT-37" d="M 303 3981 
L 303 4522 
L 3269 4522 
L 3269 4084 
Q 2831 3619 2401 2847 
Q 1972 2075 1738 1259 
Q 1569 684 1522 0 
L 944 0 
Q 953 541 1156 1306 
Q 1359 2072 1739 2783 
Q 2119 3494 2547 3981 
L 303 3981 
z
" transform="scale(0.015625)"/>
       </defs>
       <use xlink:href="#ArialMT-36"/>
       <use xlink:href="#ArialMT-2d" x="55.615234"/>
       <use xlink:href="#ArialMT-37" x="88.916016"/>
      </g>
     </g>
    </g>
    <g id="xtick_8">
     <g id="line2d_8">
      <path d="M 458.57668 327.443478 
L 458.57668 86.4 
" clip-path="url(#p6557ce96cb)" style="fill: none; stroke: #ffffff; stroke-linecap: round"/>
     </g>
     <g id="text_8">
      <!-- 7-8 -->
      <g style="fill: #262626" transform="translate(450.62832 344.817072) scale(0.11 -0.11)">
       <defs>
        <path id="ArialMT-38" d="M 1131 2484 
Q 781 2613 612 2850 
Q 444 3088 444 3419 
Q 444 3919 803 4259 
Q 1163 4600 1759 4600 
Q 2359 4600 2725 4251 
Q 3091 3903 3091 3403 
Q 3091 3084 2923 2848 
Q 2756 2613 2416 2484 
Q 2838 2347 3058 2040 
Q 3278 1734 3278 1309 
Q 3278 722 2862 322 
Q 2447 -78 1769 -78 
Q 1091 -78 675 323 
Q 259 725 259 1325 
Q 259 1772 486 2073 
Q 713 2375 1131 2484 
z
M 1019 3438 
Q 1019 3113 1228 2906 
Q 1438 2700 1772 2700 
Q 2097 2700 2305 2904 
Q 2513 3109 2513 3406 
Q 2513 3716 2298 3927 
Q 2084 4138 1766 4138 
Q 1444 4138 1231 3931 
Q 1019 3725 1019 3438 
z
M 838 1322 
Q 838 1081 952 856 
Q 1066 631 1291 507 
Q 1516 384 1775 384 
Q 2178 384 2440 643 
Q 2703 903 2703 1303 
Q 2703 1709 2433 1975 
Q 2163 2241 1756 2241 
Q 1359 2241 1098 1978 
Q 838 1716 838 1322 
z
" transform="scale(0.015625)"/>
       </defs>
       <use xlink:href="#ArialMT-37"/>
       <use xlink:href="#ArialMT-2d" x="55.615234"/>
       <use xlink:href="#ArialMT-38" x="88.916016"/>
      </g>
     </g>
    </g>
    <g id="xtick_9">
     <g id="line2d_9">
      <path d="M 496.070751 327.443478 
L 496.070751 86.4 
" clip-path="url(#p6557ce96cb)" style="fill: none; stroke: #ffffff; stroke-linecap: round"/>
     </g>
     <g id="text_9">
      <!-- 8-9 -->
      <g style="fill: #262626" transform="translate(488.122392 344.817072) scale(0.11 -0.11)">
       <defs>
        <path id="ArialMT-39" d="M 350 1059 
L 891 1109 
Q 959 728 1153 556 
Q 1347 384 1650 384 
Q 1909 384 2104 503 
Q 2300 622 2425 820 
Q 2550 1019 2634 1356 
Q 2719 1694 2719 2044 
Q 2719 2081 2716 2156 
Q 2547 1888 2255 1720 
Q 1963 1553 1622 1553 
Q 1053 1553 659 1965 
Q 266 2378 266 3053 
Q 266 3750 677 4175 
Q 1088 4600 1706 4600 
Q 2153 4600 2523 4359 
Q 2894 4119 3086 3673 
Q 3278 3228 3278 2384 
Q 3278 1506 3087 986 
Q 2897 466 2520 194 
Q 2144 -78 1638 -78 
Q 1100 -78 759 220 
Q 419 519 350 1059 
z
M 2653 3081 
Q 2653 3566 2395 3850 
Q 2138 4134 1775 4134 
Q 1400 4134 1122 3828 
Q 844 3522 844 3034 
Q 844 2597 1108 2323 
Q 1372 2050 1759 2050 
Q 2150 2050 2401 2323 
Q 2653 2597 2653 3081 
z
" transform="scale(0.015625)"/>
       </defs>
       <use xlink:href="#ArialMT-38"/>
       <use xlink:href="#ArialMT-2d" x="55.615234"/>
       <use xlink:href="#ArialMT-39" x="88.916016"/>
      </g>
     </g>
    </g>
    <g id="xtick_10">
     <g id="line2d_10">
      <path d="M 533.564822 327.443478 
L 533.564822 86.4 
" clip-path="url(#p6557ce96cb)" style="fill: none; stroke: #ffffff; stroke-linecap: round"/>
     </g>
     <g id="text_10">
      <!-- 9-10 -->
      <g style="fill: #262626" transform="translate(522.557947 344.817072) scale(0.11 -0.11)">
       <use xlink:href="#ArialMT-39"/>
       <use xlink:href="#ArialMT-2d" x="55.615234"/>
       <use xlink:href="#ArialMT-31" x="88.916016"/>
       <use xlink:href="#ArialMT-30" x="144.53125"/>
      </g>
     </g>
    </g>
    <g id="xtick_11">
     <g id="line2d_11">
      <path d="M 571.058893 327.443478 
L 571.058893 86.4 
" clip-path="url(#p6557ce96cb)" style="fill: none; stroke: #ffffff; stroke-linecap: round"/>
     </g>
     <g id="text_11">
      <!-- 10-11 -->
      <g style="fill: #262626" transform="translate(557.399128 344.817072) scale(0.11 -0.11)">
       <use xlink:href="#ArialMT-31"/>
       <use xlink:href="#ArialMT-30" x="55.615234"/>
       <use xlink:href="#ArialMT-2d" x="111.230469"/>
       <use xlink:href="#ArialMT-31" x="144.53125"/>
       <use xlink:href="#ArialMT-31" x="192.771484"/>
      </g>
     </g>
    </g>
    <g id="xtick_12">
     <g id="line2d_12">
      <path d="M 608.552964 327.443478 
L 608.552964 86.4 
" clip-path="url(#p6557ce96cb)" style="fill: none; stroke: #ffffff; stroke-linecap: round"/>
     </g>
     <g id="text_12">
      <!-- 11-12 -->
      <g style="fill: #262626" transform="translate(594.893199 344.817072) scale(0.11 -0.11)">
       <use xlink:href="#ArialMT-31"/>
       <use xlink:href="#ArialMT-31" x="48.240234"/>
       <use xlink:href="#ArialMT-2d" x="103.855469"/>
       <use xlink:href="#ArialMT-31" x="137.15625"/>
       <use xlink:href="#ArialMT-32" x="192.771484"/>
      </g>
     </g>
    </g>
    <g id="xtick_13">
     <g id="line2d_13">
      <path d="M 646.047036 327.443478 
L 646.047036 86.4 
" clip-path="url(#p6557ce96cb)" style="fill: none; stroke: #ffffff; stroke-linecap: round"/>
     </g>
     <g id="text_13">
      <!-- 12-13 -->
      <g style="fill: #262626" transform="translate(631.981645 344.817072) scale(0.11 -0.11)">
       <use xlink:href="#ArialMT-31"/>
       <use xlink:href="#ArialMT-32" x="55.615234"/>
       <use xlink:href="#ArialMT-2d" x="111.230469"/>
       <use xlink:href="#ArialMT-31" x="144.53125"/>
       <use xlink:href="#ArialMT-33" x="200.146484"/>
      </g>
     </g>
    </g>
    <g id="xtick_14">
     <g id="line2d_14">
      <path d="M 683.541107 327.443478 
L 683.541107 86.4 
" clip-path="url(#p6557ce96cb)" style="fill: none; stroke: #ffffff; stroke-linecap: round"/>
     </g>
     <g id="text_14">
      <!-- 13-14 -->
      <g style="fill: #262626" transform="translate(669.475716 344.817072) scale(0.11 -0.11)">
       <use xlink:href="#ArialMT-31"/>
       <use xlink:href="#ArialMT-33" x="55.615234"/>
       <use xlink:href="#ArialMT-2d" x="111.230469"/>
       <use xlink:href="#ArialMT-31" x="144.53125"/>
       <use xlink:href="#ArialMT-34" x="200.146484"/>
      </g>
     </g>
    </g>
    <g id="xtick_15">
     <g id="line2d_15">
      <path d="M 721.035178 327.443478 
L 721.035178 86.4 
" clip-path="url(#p6557ce96cb)" style="fill: none; stroke: #ffffff; stroke-linecap: round"/>
     </g>
     <g id="text_15">
      <!-- 14-15 -->
      <g style="fill: #262626" transform="translate(706.969787 344.817072) scale(0.11 -0.11)">
       <use xlink:href="#ArialMT-31"/>
       <use xlink:href="#ArialMT-34" x="55.615234"/>
       <use xlink:href="#ArialMT-2d" x="111.230469"/>
       <use xlink:href="#ArialMT-31" x="144.53125"/>
       <use xlink:href="#ArialMT-35" x="200.146484"/>
      </g>
     </g>
    </g>
    <g id="xtick_16">
     <g id="line2d_16">
      <path d="M 758.529249 327.443478 
L 758.529249 86.4 
" clip-path="url(#p6557ce96cb)" style="fill: none; stroke: #ffffff; stroke-linecap: round"/>
     </g>
     <g id="text_16">
      <!-- 15-16 -->
      <g style="fill: #262626" transform="translate(744.463858 344.817072) scale(0.11 -0.11)">
       <use xlink:href="#ArialMT-31"/>
       <use xlink:href="#ArialMT-35" x="55.615234"/>
       <use xlink:href="#ArialMT-2d" x="111.230469"/>
       <use xlink:href="#ArialMT-31" x="144.53125"/>
       <use xlink:href="#ArialMT-36" x="200.146484"/>
      </g>
     </g>
    </g>
    <g id="xtick_17">
     <g id="line2d_17">
      <path d="M 796.02332 327.443478 
L 796.02332 86.4 
" clip-path="url(#p6557ce96cb)" style="fill: none; stroke: #ffffff; stroke-linecap: round"/>
     </g>
     <g id="text_17">
      <!-- 16-17 -->
      <g style="fill: #262626" transform="translate(781.95793 344.817072) scale(0.11 -0.11)">
       <use xlink:href="#ArialMT-31"/>
       <use xlink:href="#ArialMT-36" x="55.615234"/>
       <use xlink:href="#ArialMT-2d" x="111.230469"/>
       <use xlink:href="#ArialMT-31" x="144.53125"/>
       <use xlink:href="#ArialMT-37" x="200.146484"/>
      </g>
     </g>
    </g>
    <g id="xtick_18">
     <g id="line2d_18">
      <path d="M 833.517391 327.443478 
L 833.517391 86.4 
" clip-path="url(#p6557ce96cb)" style="fill: none; stroke: #ffffff; stroke-linecap: round"/>
     </g>
     <g id="text_18">
      <!-- 17-18 -->
      <g style="fill: #262626" transform="translate(819.452001 344.817072) scale(0.11 -0.11)">
       <use xlink:href="#ArialMT-31"/>
       <use xlink:href="#ArialMT-37" x="55.615234"/>
       <use xlink:href="#ArialMT-2d" x="111.230469"/>
       <use xlink:href="#ArialMT-31" x="144.53125"/>
       <use xlink:href="#ArialMT-38" x="200.146484"/>
      </g>
     </g>
    </g>
    <g id="xtick_19">
     <g id="line2d_19">
      <path d="M 871.011462 327.443478 
L 871.011462 86.4 
" clip-path="url(#p6557ce96cb)" style="fill: none; stroke: #ffffff; stroke-linecap: round"/>
     </g>
     <g id="text_19">
      <!-- 18-19 -->
      <g style="fill: #262626" transform="translate(856.946072 344.817072) scale(0.11 -0.11)">
       <use xlink:href="#ArialMT-31"/>
       <use xlink:href="#ArialMT-38" x="55.615234"/>
       <use xlink:href="#ArialMT-2d" x="111.230469"/>
       <use xlink:href="#ArialMT-31" x="144.53125"/>
       <use xlink:href="#ArialMT-39" x="200.146484"/>
      </g>
     </g>
    </g>
    <g id="xtick_20">
     <g id="line2d_20">
      <path d="M 908.505534 327.443478 
L 908.505534 86.4 
" clip-path="url(#p6557ce96cb)" style="fill: none; stroke: #ffffff; stroke-linecap: round"/>
     </g>
     <g id="text_20">
      <!-- 19-20 -->
      <g style="fill: #262626" transform="translate(894.440143 344.817072) scale(0.11 -0.11)">
       <use xlink:href="#ArialMT-31"/>
       <use xlink:href="#ArialMT-39" x="55.615234"/>
       <use xlink:href="#ArialMT-2d" x="111.230469"/>
       <use xlink:href="#ArialMT-32" x="144.53125"/>
       <use xlink:href="#ArialMT-30" x="200.146484"/>
      </g>
     </g>
    </g>
    <g id="xtick_21">
     <g id="line2d_21">
      <path d="M 945.999605 327.443478 
L 945.999605 86.4 
" clip-path="url(#p6557ce96cb)" style="fill: none; stroke: #ffffff; stroke-linecap: round"/>
     </g>
     <g id="text_21">
      <!-- 20-21 -->
      <g style="fill: #262626" transform="translate(931.934214 344.817072) scale(0.11 -0.11)">
       <use xlink:href="#ArialMT-32"/>
       <use xlink:href="#ArialMT-30" x="55.615234"/>
       <use xlink:href="#ArialMT-2d" x="111.230469"/>
       <use xlink:href="#ArialMT-32" x="144.53125"/>
       <use xlink:href="#ArialMT-31" x="200.146484"/>
      </g>
     </g>
    </g>
    <g id="xtick_22">
     <g id="line2d_22">
      <path d="M 983.493676 327.443478 
L 983.493676 86.4 
" clip-path="url(#p6557ce96cb)" style="fill: none; stroke: #ffffff; stroke-linecap: round"/>
     </g>
     <g id="text_22">
      <!-- 21-22 -->
      <g style="fill: #262626" transform="translate(969.428285 344.817072) scale(0.11 -0.11)">
       <use xlink:href="#ArialMT-32"/>
       <use xlink:href="#ArialMT-31" x="55.615234"/>
       <use xlink:href="#ArialMT-2d" x="111.230469"/>
       <use xlink:href="#ArialMT-32" x="144.53125"/>
       <use xlink:href="#ArialMT-32" x="200.146484"/>
      </g>
     </g>
    </g>
    <g id="xtick_23">
     <g id="line2d_23">
      <path d="M 1020.987747 327.443478 
L 1020.987747 86.4 
" clip-path="url(#p6557ce96cb)" style="fill: none; stroke: #ffffff; stroke-linecap: round"/>
     </g>
     <g id="text_23">
      <!-- 22-23 -->
      <g style="fill: #262626" transform="translate(1006.922356 344.817072) scale(0.11 -0.11)">
       <use xlink:href="#ArialMT-32"/>
       <use xlink:href="#ArialMT-32" x="55.615234"/>
       <use xlink:href="#ArialMT-2d" x="111.230469"/>
       <use xlink:href="#ArialMT-32" x="144.53125"/>
       <use xlink:href="#ArialMT-33" x="200.146484"/>
      </g>
     </g>
    </g>
    <g id="xtick_24">
     <g id="line2d_24">
      <path d="M 1058.481818 327.443478 
L 1058.481818 86.4 
" clip-path="url(#p6557ce96cb)" style="fill: none; stroke: #ffffff; stroke-linecap: round"/>
     </g>
     <g id="text_24">
      <!-- 23-24 -->
      <g style="fill: #262626" transform="translate(1044.416428 344.817072) scale(0.11 -0.11)">
       <use xlink:href="#ArialMT-32"/>
       <use xlink:href="#ArialMT-33" x="55.615234"/>
       <use xlink:href="#ArialMT-2d" x="111.230469"/>
       <use xlink:href="#ArialMT-32" x="144.53125"/>
       <use xlink:href="#ArialMT-34" x="200.146484"/>
      </g>
     </g>
    </g>
    <g id="text_25">
     <!-- the hour of the day -->
     <g style="fill: #262626" transform="translate(568.805078 360.466916) scale(0.13 -0.13)">
      <defs>
       <path id="Arial-BoldMT-74" d="M 1981 3319 
L 1981 2619 
L 1381 2619 
L 1381 1281 
Q 1381 875 1398 808 
Q 1416 741 1477 697 
Q 1538 653 1625 653 
Q 1747 653 1978 738 
L 2053 56 
Q 1747 -75 1359 -75 
Q 1122 -75 931 4 
Q 741 84 652 211 
Q 563 338 528 553 
Q 500 706 500 1172 
L 500 2619 
L 97 2619 
L 97 3319 
L 500 3319 
L 500 3978 
L 1381 4491 
L 1381 3319 
L 1981 3319 
z
" transform="scale(0.015625)"/>
       <path id="Arial-BoldMT-68" d="M 1334 4581 
L 1334 2897 
Q 1759 3394 2350 3394 
Q 2653 3394 2897 3281 
Q 3141 3169 3264 2994 
Q 3388 2819 3433 2606 
Q 3478 2394 3478 1947 
L 3478 0 
L 2600 0 
L 2600 1753 
Q 2600 2275 2550 2415 
Q 2500 2556 2373 2639 
Q 2247 2722 2056 2722 
Q 1838 2722 1666 2615 
Q 1494 2509 1414 2295 
Q 1334 2081 1334 1663 
L 1334 0 
L 456 0 
L 456 4581 
L 1334 4581 
z
" transform="scale(0.015625)"/>
       <path id="Arial-BoldMT-65" d="M 2381 1056 
L 3256 909 
Q 3088 428 2723 176 
Q 2359 -75 1813 -75 
Q 947 -75 531 491 
Q 203 944 203 1634 
Q 203 2459 634 2926 
Q 1066 3394 1725 3394 
Q 2466 3394 2894 2905 
Q 3322 2416 3303 1406 
L 1103 1406 
Q 1113 1016 1316 798 
Q 1519 581 1822 581 
Q 2028 581 2168 693 
Q 2309 806 2381 1056 
z
M 2431 1944 
Q 2422 2325 2234 2523 
Q 2047 2722 1778 2722 
Q 1491 2722 1303 2513 
Q 1116 2303 1119 1944 
L 2431 1944 
z
" transform="scale(0.015625)"/>
       <path id="Arial-BoldMT-20" transform="scale(0.015625)"/>
       <path id="Arial-BoldMT-6f" d="M 256 1706 
Q 256 2144 472 2553 
Q 688 2963 1083 3178 
Q 1478 3394 1966 3394 
Q 2719 3394 3200 2905 
Q 3681 2416 3681 1669 
Q 3681 916 3195 420 
Q 2709 -75 1972 -75 
Q 1516 -75 1102 131 
Q 688 338 472 736 
Q 256 1134 256 1706 
z
M 1156 1659 
Q 1156 1166 1390 903 
Q 1625 641 1969 641 
Q 2313 641 2545 903 
Q 2778 1166 2778 1666 
Q 2778 2153 2545 2415 
Q 2313 2678 1969 2678 
Q 1625 2678 1390 2415 
Q 1156 2153 1156 1659 
z
" transform="scale(0.015625)"/>
       <path id="Arial-BoldMT-75" d="M 2644 0 
L 2644 497 
Q 2463 231 2167 78 
Q 1872 -75 1544 -75 
Q 1209 -75 943 72 
Q 678 219 559 484 
Q 441 750 441 1219 
L 441 3319 
L 1319 3319 
L 1319 1794 
Q 1319 1094 1367 936 
Q 1416 778 1544 686 
Q 1672 594 1869 594 
Q 2094 594 2272 717 
Q 2450 841 2515 1023 
Q 2581 1206 2581 1919 
L 2581 3319 
L 3459 3319 
L 3459 0 
L 2644 0 
z
" transform="scale(0.015625)"/>
       <path id="Arial-BoldMT-72" d="M 1300 0 
L 422 0 
L 422 3319 
L 1238 3319 
L 1238 2847 
Q 1447 3181 1614 3287 
Q 1781 3394 1994 3394 
Q 2294 3394 2572 3228 
L 2300 2463 
Q 2078 2606 1888 2606 
Q 1703 2606 1575 2504 
Q 1447 2403 1373 2137 
Q 1300 1872 1300 1025 
L 1300 0 
z
" transform="scale(0.015625)"/>
       <path id="Arial-BoldMT-66" d="M 75 3319 
L 563 3319 
L 563 3569 
Q 563 3988 652 4194 
Q 741 4400 980 4529 
Q 1219 4659 1584 4659 
Q 1959 4659 2319 4547 
L 2200 3934 
Q 1991 3984 1797 3984 
Q 1606 3984 1523 3895 
Q 1441 3806 1441 3553 
L 1441 3319 
L 2097 3319 
L 2097 2628 
L 1441 2628 
L 1441 0 
L 563 0 
L 563 2628 
L 75 2628 
L 75 3319 
z
" transform="scale(0.015625)"/>
       <path id="Arial-BoldMT-64" d="M 3503 0 
L 2688 0 
L 2688 488 
Q 2484 203 2207 64 
Q 1931 -75 1650 -75 
Q 1078 -75 670 386 
Q 263 847 263 1672 
Q 263 2516 659 2955 
Q 1056 3394 1663 3394 
Q 2219 3394 2625 2931 
L 2625 4581 
L 3503 4581 
L 3503 0 
z
M 1159 1731 
Q 1159 1200 1306 963 
Q 1519 619 1900 619 
Q 2203 619 2415 876 
Q 2628 1134 2628 1647 
Q 2628 2219 2422 2470 
Q 2216 2722 1894 2722 
Q 1581 2722 1370 2473 
Q 1159 2225 1159 1731 
z
" transform="scale(0.015625)"/>
       <path id="Arial-BoldMT-61" d="M 1116 2306 
L 319 2450 
Q 453 2931 781 3162 
Q 1109 3394 1756 3394 
Q 2344 3394 2631 3255 
Q 2919 3116 3036 2902 
Q 3153 2688 3153 2116 
L 3144 1091 
Q 3144 653 3186 445 
Q 3228 238 3344 0 
L 2475 0 
Q 2441 88 2391 259 
Q 2369 338 2359 363 
Q 2134 144 1878 34 
Q 1622 -75 1331 -75 
Q 819 -75 523 203 
Q 228 481 228 906 
Q 228 1188 362 1408 
Q 497 1628 739 1745 
Q 981 1863 1438 1950 
Q 2053 2066 2291 2166 
L 2291 2253 
Q 2291 2506 2166 2614 
Q 2041 2722 1694 2722 
Q 1459 2722 1328 2630 
Q 1197 2538 1116 2306 
z
M 2291 1594 
Q 2122 1538 1756 1459 
Q 1391 1381 1278 1306 
Q 1106 1184 1106 997 
Q 1106 813 1243 678 
Q 1381 544 1594 544 
Q 1831 544 2047 700 
Q 2206 819 2256 991 
Q 2291 1103 2291 1419 
L 2291 1594 
z
" transform="scale(0.015625)"/>
       <path id="Arial-BoldMT-79" d="M 44 3319 
L 978 3319 
L 1772 963 
L 2547 3319 
L 3456 3319 
L 2284 125 
L 2075 -453 
Q 1959 -744 1854 -897 
Q 1750 -1050 1614 -1145 
Q 1478 -1241 1279 -1294 
Q 1081 -1347 831 -1347 
Q 578 -1347 334 -1294 
L 256 -606 
Q 463 -647 628 -647 
Q 934 -647 1081 -467 
Q 1228 -288 1306 -9 
L 44 3319 
z
" transform="scale(0.015625)"/>
      </defs>
      <use xlink:href="#Arial-BoldMT-74"/>
      <use xlink:href="#Arial-BoldMT-68" x="33.300781"/>
      <use xlink:href="#Arial-BoldMT-65" x="94.384766"/>
      <use xlink:href="#Arial-BoldMT-20" x="150"/>
      <use xlink:href="#Arial-BoldMT-68" x="177.783203"/>
      <use xlink:href="#Arial-BoldMT-6f" x="238.867188"/>
      <use xlink:href="#Arial-BoldMT-75" x="299.951172"/>
      <use xlink:href="#Arial-BoldMT-72" x="361.035156"/>
      <use xlink:href="#Arial-BoldMT-20" x="399.951172"/>
      <use xlink:href="#Arial-BoldMT-6f" x="427.734375"/>
      <use xlink:href="#Arial-BoldMT-66" x="488.818359"/>
      <use xlink:href="#Arial-BoldMT-20" x="522.119141"/>
      <use xlink:href="#Arial-BoldMT-74" x="549.902344"/>
      <use xlink:href="#Arial-BoldMT-68" x="583.203125"/>
      <use xlink:href="#Arial-BoldMT-65" x="644.287109"/>
      <use xlink:href="#Arial-BoldMT-20" x="699.902344"/>
      <use xlink:href="#Arial-BoldMT-64" x="727.685547"/>
      <use xlink:href="#Arial-BoldMT-61" x="788.769531"/>
      <use xlink:href="#Arial-BoldMT-79" x="844.384766"/>
     </g>
    </g>
   </g>
   <g id="matplotlib.axis_2">
    <g id="ytick_1">
     <g id="line2d_25">
      <path d="M 153 303.26891 
L 1101.6 303.26891 
" clip-path="url(#p6557ce96cb)" style="fill: none; stroke: #ffffff; stroke-linecap: round"/>
     </g>
     <g id="text_26">
      <!-- 2000 -->
      <g style="fill: #262626" transform="translate(119.031875 307.205706) scale(0.11 -0.11)">
       <use xlink:href="#ArialMT-32"/>
       <use xlink:href="#ArialMT-30" x="55.615234"/>
       <use xlink:href="#ArialMT-30" x="111.230469"/>
       <use xlink:href="#ArialMT-30" x="166.845703"/>
      </g>
     </g>
    </g>
    <g id="ytick_2">
     <g id="line2d_26">
      <path d="M 153 268.846912 
L 1101.6 268.846912 
" clip-path="url(#p6557ce96cb)" style="fill: none; stroke: #ffffff; stroke-linecap: round"/>
     </g>
     <g id="text_27">
      <!-- 3000 -->
      <g style="fill: #262626" transform="translate(119.031875 272.783709) scale(0.11 -0.11)">
       <use xlink:href="#ArialMT-33"/>
       <use xlink:href="#ArialMT-30" x="55.615234"/>
       <use xlink:href="#ArialMT-30" x="111.230469"/>
       <use xlink:href="#ArialMT-30" x="166.845703"/>
      </g>
     </g>
    </g>
    <g id="ytick_3">
     <g id="line2d_27">
      <path d="M 153 234.424915 
L 1101.6 234.424915 
" clip-path="url(#p6557ce96cb)" style="fill: none; stroke: #ffffff; stroke-linecap: round"/>
     </g>
     <g id="text_28">
      <!-- 4000 -->
      <g style="fill: #262626" transform="translate(119.031875 238.361712) scale(0.11 -0.11)">
       <use xlink:href="#ArialMT-34"/>
       <use xlink:href="#ArialMT-30" x="55.615234"/>
       <use xlink:href="#ArialMT-30" x="111.230469"/>
       <use xlink:href="#ArialMT-30" x="166.845703"/>
      </g>
     </g>
    </g>
    <g id="ytick_4">
     <g id="line2d_28">
      <path d="M 153 200.002918 
L 1101.6 200.002918 
" clip-path="url(#p6557ce96cb)" style="fill: none; stroke: #ffffff; stroke-linecap: round"/>
     </g>
     <g id="text_29">
      <!-- 5000 -->
      <g style="fill: #262626" transform="translate(119.031875 203.939715) scale(0.11 -0.11)">
       <use xlink:href="#ArialMT-35"/>
       <use xlink:href="#ArialMT-30" x="55.615234"/>
       <use xlink:href="#ArialMT-30" x="111.230469"/>
       <use xlink:href="#ArialMT-30" x="166.845703"/>
      </g>
     </g>
    </g>
    <g id="ytick_5">
     <g id="line2d_29">
      <path d="M 153 165.58092 
L 1101.6 165.58092 
" clip-path="url(#p6557ce96cb)" style="fill: none; stroke: #ffffff; stroke-linecap: round"/>
     </g>
     <g id="text_30">
      <!-- 6000 -->
      <g style="fill: #262626" transform="translate(119.031875 169.517717) scale(0.11 -0.11)">
       <use xlink:href="#ArialMT-36"/>
       <use xlink:href="#ArialMT-30" x="55.615234"/>
       <use xlink:href="#ArialMT-30" x="111.230469"/>
       <use xlink:href="#ArialMT-30" x="166.845703"/>
      </g>
     </g>
    </g>
    <g id="ytick_6">
     <g id="line2d_30">
      <path d="M 153 131.158923 
L 1101.6 131.158923 
" clip-path="url(#p6557ce96cb)" style="fill: none; stroke: #ffffff; stroke-linecap: round"/>
     </g>
     <g id="text_31">
      <!-- 7000 -->
      <g style="fill: #262626" transform="translate(119.031875 135.09572) scale(0.11 -0.11)">
       <use xlink:href="#ArialMT-37"/>
       <use xlink:href="#ArialMT-30" x="55.615234"/>
       <use xlink:href="#ArialMT-30" x="111.230469"/>
       <use xlink:href="#ArialMT-30" x="166.845703"/>
      </g>
     </g>
    </g>
    <g id="ytick_7">
     <g id="line2d_31">
      <path d="M 153 96.736926 
L 1101.6 96.736926 
" clip-path="url(#p6557ce96cb)" style="fill: none; stroke: #ffffff; stroke-linecap: round"/>
     </g>
     <g id="text_32">
      <!-- 8000 -->
      <g style="fill: #262626" transform="translate(119.031875 100.673723) scale(0.11 -0.11)">
       <use xlink:href="#ArialMT-38"/>
       <use xlink:href="#ArialMT-30" x="55.615234"/>
       <use xlink:href="#ArialMT-30" x="111.230469"/>
       <use xlink:href="#ArialMT-30" x="166.845703"/>
      </g>
     </g>
    </g>
    <g id="text_33">
     <!-- amount of tweets -->
     <g style="fill: #262626" transform="translate(112.466406 260.364942) rotate(-90) scale(0.13 -0.13)">
      <defs>
       <path id="Arial-BoldMT-6d" d="M 394 3319 
L 1203 3319 
L 1203 2866 
Q 1638 3394 2238 3394 
Q 2556 3394 2790 3262 
Q 3025 3131 3175 2866 
Q 3394 3131 3647 3262 
Q 3900 3394 4188 3394 
Q 4553 3394 4806 3245 
Q 5059 3097 5184 2809 
Q 5275 2597 5275 2122 
L 5275 0 
L 4397 0 
L 4397 1897 
Q 4397 2391 4306 2534 
Q 4184 2722 3931 2722 
Q 3747 2722 3584 2609 
Q 3422 2497 3350 2280 
Q 3278 2063 3278 1594 
L 3278 0 
L 2400 0 
L 2400 1819 
Q 2400 2303 2353 2443 
Q 2306 2584 2207 2653 
Q 2109 2722 1941 2722 
Q 1738 2722 1575 2612 
Q 1413 2503 1342 2297 
Q 1272 2091 1272 1613 
L 1272 0 
L 394 0 
L 394 3319 
z
" transform="scale(0.015625)"/>
       <path id="Arial-BoldMT-6e" d="M 3478 0 
L 2600 0 
L 2600 1694 
Q 2600 2231 2544 2389 
Q 2488 2547 2361 2634 
Q 2234 2722 2056 2722 
Q 1828 2722 1647 2597 
Q 1466 2472 1398 2265 
Q 1331 2059 1331 1503 
L 1331 0 
L 453 0 
L 453 3319 
L 1269 3319 
L 1269 2831 
Q 1703 3394 2363 3394 
Q 2653 3394 2893 3289 
Q 3134 3184 3257 3021 
Q 3381 2859 3429 2653 
Q 3478 2447 3478 2063 
L 3478 0 
z
" transform="scale(0.015625)"/>
       <path id="Arial-BoldMT-77" d="M 1078 0 
L 28 3319 
L 881 3319 
L 1503 1144 
L 2075 3319 
L 2922 3319 
L 3475 1144 
L 4109 3319 
L 4975 3319 
L 3909 0 
L 3066 0 
L 2494 2134 
L 1931 0 
L 1078 0 
z
" transform="scale(0.015625)"/>
       <path id="Arial-BoldMT-73" d="M 150 947 
L 1031 1081 
Q 1088 825 1259 692 
Q 1431 559 1741 559 
Q 2081 559 2253 684 
Q 2369 772 2369 919 
Q 2369 1019 2306 1084 
Q 2241 1147 2013 1200 
Q 950 1434 666 1628 
Q 272 1897 272 2375 
Q 272 2806 612 3100 
Q 953 3394 1669 3394 
Q 2350 3394 2681 3172 
Q 3013 2950 3138 2516 
L 2309 2363 
Q 2256 2556 2107 2659 
Q 1959 2763 1684 2763 
Q 1338 2763 1188 2666 
Q 1088 2597 1088 2488 
Q 1088 2394 1175 2328 
Q 1294 2241 1995 2081 
Q 2697 1922 2975 1691 
Q 3250 1456 3250 1038 
Q 3250 581 2869 253 
Q 2488 -75 1741 -75 
Q 1063 -75 667 200 
Q 272 475 150 947 
z
" transform="scale(0.015625)"/>
      </defs>
      <use xlink:href="#Arial-BoldMT-61"/>
      <use xlink:href="#Arial-BoldMT-6d" x="55.615234"/>
      <use xlink:href="#Arial-BoldMT-6f" x="144.53125"/>
      <use xlink:href="#Arial-BoldMT-75" x="205.615234"/>
      <use xlink:href="#Arial-BoldMT-6e" x="266.699219"/>
      <use xlink:href="#Arial-BoldMT-74" x="327.783203"/>
      <use xlink:href="#Arial-BoldMT-20" x="361.083984"/>
      <use xlink:href="#Arial-BoldMT-6f" x="388.867188"/>
      <use xlink:href="#Arial-BoldMT-66" x="449.951172"/>
      <use xlink:href="#Arial-BoldMT-20" x="483.251953"/>
      <use xlink:href="#Arial-BoldMT-74" x="511.035156"/>
      <use xlink:href="#Arial-BoldMT-77" x="544.335938"/>
      <use xlink:href="#Arial-BoldMT-65" x="622.119141"/>
      <use xlink:href="#Arial-BoldMT-65" x="677.734375"/>
      <use xlink:href="#Arial-BoldMT-74" x="733.349609"/>
      <use xlink:href="#Arial-BoldMT-73" x="766.650391"/>
     </g>
    </g>
   </g>
   <g id="line2d_32">
    <path d="M 196.118182 122.278048 
L 233.612253 154.600303 
L 271.106324 138.353121 
L 308.600395 187.335623 
L 346.094466 196.25092 
L 383.588538 249.019842 
L 421.082609 280.584813 
L 458.57668 307.089751 
L 496.070751 309.189493 
L 533.564822 309.843511 
L 571.058893 287.675745 
L 608.552964 222.687014 
L 646.047036 186.302963 
L 683.541107 167.577396 
L 721.035178 170.813064 
L 758.529249 183.652469 
L 796.02332 168.231414 
L 833.517391 160.968373 
L 871.011462 160.727419 
L 908.505534 160.348777 
L 945.999605 161.863345 
L 983.493676 147.81917 
L 1020.987747 105.962021 
L 1058.481818 97.356522 
" clip-path="url(#p6557ce96cb)" style="fill: none; stroke: #4c72b0; stroke-width: 1.5; stroke-linecap: round"/>
   </g>
   <g id="line2d_33">
    <path d="M 196.118182 270.258214 
L 233.612253 289.982019 
L 271.106324 299.31038 
L 308.600395 316.486957 
L 346.094466 309.155071 
L 383.588538 281.376519 
L 421.082609 260.172569 
L 458.57668 220.449584 
L 496.070751 189.779584 
L 533.564822 155.736229 
L 571.058893 128.818227 
L 608.552964 138.112167 
L 646.047036 151.502323 
L 683.541107 152.294029 
L 721.035178 151.605589 
L 758.529249 133.327509 
L 796.02332 133.258665 
L 833.517391 169.02312 
L 871.011462 183.927845 
L 908.505534 182.723075 
L 945.999605 193.566004 
L 983.493676 208.436307 
L 1020.987747 249.260796 
L 1058.481818 262.513265 
" clip-path="url(#p6557ce96cb)" style="fill: none; stroke: #dd8452; stroke-width: 1.5; stroke-linecap: round"/>
   </g>
   <g id="patch_3">
    <path d="M 153 327.443478 
L 153 86.4 
" style="fill: none; stroke: #ffffff; stroke-width: 1.25; stroke-linejoin: miter; stroke-linecap: square"/>
   </g>
   <g id="patch_4">
    <path d="M 1101.6 327.443478 
L 1101.6 86.4 
" style="fill: none; stroke: #ffffff; stroke-width: 1.25; stroke-linejoin: miter; stroke-linecap: square"/>
   </g>
   <g id="patch_5">
    <path d="M 153 327.443478 
L 1101.6 327.443478 
" style="fill: none; stroke: #ffffff; stroke-width: 1.25; stroke-linejoin: miter; stroke-linecap: square"/>
   </g>
   <g id="patch_6">
    <path d="M 153 86.4 
L 1101.6 86.4 
" style="fill: none; stroke: #ffffff; stroke-width: 1.25; stroke-linejoin: miter; stroke-linecap: square"/>
   </g>
   <g id="text_34">
    <!-- tweets sent by airline -->
    <g style="fill: #262626" transform="translate(546.38875 80.4) scale(0.16 -0.16)">
     <defs>
      <path id="Arial-BoldMT-62" d="M 422 0 
L 422 4581 
L 1300 4581 
L 1300 2931 
Q 1706 3394 2263 3394 
Q 2869 3394 3266 2955 
Q 3663 2516 3663 1694 
Q 3663 844 3258 384 
Q 2853 -75 2275 -75 
Q 1991 -75 1714 67 
Q 1438 209 1238 488 
L 1238 0 
L 422 0 
z
M 1294 1731 
Q 1294 1216 1456 969 
Q 1684 619 2063 619 
Q 2353 619 2558 867 
Q 2763 1116 2763 1650 
Q 2763 2219 2556 2470 
Q 2350 2722 2028 2722 
Q 1713 2722 1503 2476 
Q 1294 2231 1294 1731 
z
" transform="scale(0.015625)"/>
      <path id="Arial-BoldMT-69" d="M 459 3769 
L 459 4581 
L 1338 4581 
L 1338 3769 
L 459 3769 
z
M 459 0 
L 459 3319 
L 1338 3319 
L 1338 0 
L 459 0 
z
" transform="scale(0.015625)"/>
      <path id="Arial-BoldMT-6c" d="M 459 0 
L 459 4581 
L 1338 4581 
L 1338 0 
L 459 0 
z
" transform="scale(0.015625)"/>
     </defs>
     <use xlink:href="#Arial-BoldMT-74"/>
     <use xlink:href="#Arial-BoldMT-77" x="33.300781"/>
     <use xlink:href="#Arial-BoldMT-65" x="111.083984"/>
     <use xlink:href="#Arial-BoldMT-65" x="166.699219"/>
     <use xlink:href="#Arial-BoldMT-74" x="222.314453"/>
     <use xlink:href="#Arial-BoldMT-73" x="255.615234"/>
     <use xlink:href="#Arial-BoldMT-20" x="311.230469"/>
     <use xlink:href="#Arial-BoldMT-73" x="339.013672"/>
     <use xlink:href="#Arial-BoldMT-65" x="394.628906"/>
     <use xlink:href="#Arial-BoldMT-6e" x="450.244141"/>
     <use xlink:href="#Arial-BoldMT-74" x="511.328125"/>
     <use xlink:href="#Arial-BoldMT-20" x="544.628906"/>
     <use xlink:href="#Arial-BoldMT-62" x="572.412109"/>
     <use xlink:href="#Arial-BoldMT-79" x="633.496094"/>
     <use xlink:href="#Arial-BoldMT-20" x="689.111328"/>
     <use xlink:href="#Arial-BoldMT-61" x="716.894531"/>
     <use xlink:href="#Arial-BoldMT-69" x="772.509766"/>
     <use xlink:href="#Arial-BoldMT-72" x="800.292969"/>
     <use xlink:href="#Arial-BoldMT-6c" x="839.208984"/>
     <use xlink:href="#Arial-BoldMT-69" x="866.992188"/>
     <use xlink:href="#Arial-BoldMT-6e" x="894.775391"/>
     <use xlink:href="#Arial-BoldMT-65" x="955.859375"/>
    </g>
   </g>
   <g id="legend_1">
    <g id="patch_7">
     <path d="M 913.817969 321.943478 
L 1093.9 321.943478 
Q 1096.1 321.943478 1096.1 319.743478 
L 1096.1 289.465978 
Q 1096.1 287.265978 1093.9 287.265978 
L 913.817969 287.265978 
Q 911.617969 287.265978 911.617969 289.465978 
L 911.617969 319.743478 
Q 911.617969 321.943478 913.817969 321.943478 
z
" style="fill: #eaeaf2; opacity: 0.8; stroke: #cccccc; stroke-linejoin: miter"/>
    </g>
    <g id="line2d_34">
     <path d="M 916.017969 295.689572 
L 927.017969 295.689572 
L 938.017969 295.689572 
" style="fill: none; stroke: #4c72b0; stroke-width: 1.5; stroke-linecap: round"/>
    </g>
    <g id="text_35">
     <!-- tweets sent by American Air -->
     <g style="fill: #262626" transform="translate(946.817969 299.539572) scale(0.11 -0.11)">
      <defs>
       <path id="ArialMT-74" d="M 1650 503 
L 1731 6 
Q 1494 -44 1306 -44 
Q 1000 -44 831 53 
Q 663 150 594 308 
Q 525 466 525 972 
L 525 2881 
L 113 2881 
L 113 3319 
L 525 3319 
L 525 4141 
L 1084 4478 
L 1084 3319 
L 1650 3319 
L 1650 2881 
L 1084 2881 
L 1084 941 
Q 1084 700 1114 631 
Q 1144 563 1211 522 
Q 1278 481 1403 481 
Q 1497 481 1650 503 
z
" transform="scale(0.015625)"/>
       <path id="ArialMT-77" d="M 1034 0 
L 19 3319 
L 600 3319 
L 1128 1403 
L 1325 691 
Q 1338 744 1497 1375 
L 2025 3319 
L 2603 3319 
L 3100 1394 
L 3266 759 
L 3456 1400 
L 4025 3319 
L 4572 3319 
L 3534 0 
L 2950 0 
L 2422 1988 
L 2294 2553 
L 1622 0 
L 1034 0 
z
" transform="scale(0.015625)"/>
       <path id="ArialMT-65" d="M 2694 1069 
L 3275 997 
Q 3138 488 2766 206 
Q 2394 -75 1816 -75 
Q 1088 -75 661 373 
Q 234 822 234 1631 
Q 234 2469 665 2931 
Q 1097 3394 1784 3394 
Q 2450 3394 2872 2941 
Q 3294 2488 3294 1666 
Q 3294 1616 3291 1516 
L 816 1516 
Q 847 969 1125 678 
Q 1403 388 1819 388 
Q 2128 388 2347 550 
Q 2566 713 2694 1069 
z
M 847 1978 
L 2700 1978 
Q 2663 2397 2488 2606 
Q 2219 2931 1791 2931 
Q 1403 2931 1139 2672 
Q 875 2413 847 1978 
z
" transform="scale(0.015625)"/>
       <path id="ArialMT-73" d="M 197 991 
L 753 1078 
Q 800 744 1014 566 
Q 1228 388 1613 388 
Q 2000 388 2187 545 
Q 2375 703 2375 916 
Q 2375 1106 2209 1216 
Q 2094 1291 1634 1406 
Q 1016 1563 777 1677 
Q 538 1791 414 1992 
Q 291 2194 291 2438 
Q 291 2659 392 2848 
Q 494 3038 669 3163 
Q 800 3259 1026 3326 
Q 1253 3394 1513 3394 
Q 1903 3394 2198 3281 
Q 2494 3169 2634 2976 
Q 2775 2784 2828 2463 
L 2278 2388 
Q 2241 2644 2061 2787 
Q 1881 2931 1553 2931 
Q 1166 2931 1000 2803 
Q 834 2675 834 2503 
Q 834 2394 903 2306 
Q 972 2216 1119 2156 
Q 1203 2125 1616 2013 
Q 2213 1853 2448 1751 
Q 2684 1650 2818 1456 
Q 2953 1263 2953 975 
Q 2953 694 2789 445 
Q 2625 197 2315 61 
Q 2006 -75 1616 -75 
Q 969 -75 630 194 
Q 291 463 197 991 
z
" transform="scale(0.015625)"/>
       <path id="ArialMT-20" transform="scale(0.015625)"/>
       <path id="ArialMT-6e" d="M 422 0 
L 422 3319 
L 928 3319 
L 928 2847 
Q 1294 3394 1984 3394 
Q 2284 3394 2536 3286 
Q 2788 3178 2913 3003 
Q 3038 2828 3088 2588 
Q 3119 2431 3119 2041 
L 3119 0 
L 2556 0 
L 2556 2019 
Q 2556 2363 2490 2533 
Q 2425 2703 2258 2804 
Q 2091 2906 1866 2906 
Q 1506 2906 1245 2678 
Q 984 2450 984 1813 
L 984 0 
L 422 0 
z
" transform="scale(0.015625)"/>
       <path id="ArialMT-62" d="M 941 0 
L 419 0 
L 419 4581 
L 981 4581 
L 981 2947 
Q 1338 3394 1891 3394 
Q 2197 3394 2470 3270 
Q 2744 3147 2920 2923 
Q 3097 2700 3197 2384 
Q 3297 2069 3297 1709 
Q 3297 856 2875 390 
Q 2453 -75 1863 -75 
Q 1275 -75 941 416 
L 941 0 
z
M 934 1684 
Q 934 1088 1097 822 
Q 1363 388 1816 388 
Q 2184 388 2453 708 
Q 2722 1028 2722 1663 
Q 2722 2313 2464 2622 
Q 2206 2931 1841 2931 
Q 1472 2931 1203 2611 
Q 934 2291 934 1684 
z
" transform="scale(0.015625)"/>
       <path id="ArialMT-79" d="M 397 -1278 
L 334 -750 
Q 519 -800 656 -800 
Q 844 -800 956 -737 
Q 1069 -675 1141 -563 
Q 1194 -478 1313 -144 
Q 1328 -97 1363 -6 
L 103 3319 
L 709 3319 
L 1400 1397 
Q 1534 1031 1641 628 
Q 1738 1016 1872 1384 
L 2581 3319 
L 3144 3319 
L 1881 -56 
Q 1678 -603 1566 -809 
Q 1416 -1088 1222 -1217 
Q 1028 -1347 759 -1347 
Q 597 -1347 397 -1278 
z
" transform="scale(0.015625)"/>
       <path id="ArialMT-41" d="M -9 0 
L 1750 4581 
L 2403 4581 
L 4278 0 
L 3588 0 
L 3053 1388 
L 1138 1388 
L 634 0 
L -9 0 
z
M 1313 1881 
L 2866 1881 
L 2388 3150 
Q 2169 3728 2063 4100 
Q 1975 3659 1816 3225 
L 1313 1881 
z
" transform="scale(0.015625)"/>
       <path id="ArialMT-6d" d="M 422 0 
L 422 3319 
L 925 3319 
L 925 2853 
Q 1081 3097 1340 3245 
Q 1600 3394 1931 3394 
Q 2300 3394 2536 3241 
Q 2772 3088 2869 2813 
Q 3263 3394 3894 3394 
Q 4388 3394 4653 3120 
Q 4919 2847 4919 2278 
L 4919 0 
L 4359 0 
L 4359 2091 
Q 4359 2428 4304 2576 
Q 4250 2725 4106 2815 
Q 3963 2906 3769 2906 
Q 3419 2906 3187 2673 
Q 2956 2441 2956 1928 
L 2956 0 
L 2394 0 
L 2394 2156 
Q 2394 2531 2256 2718 
Q 2119 2906 1806 2906 
Q 1569 2906 1367 2781 
Q 1166 2656 1075 2415 
Q 984 2175 984 1722 
L 984 0 
L 422 0 
z
" transform="scale(0.015625)"/>
       <path id="ArialMT-72" d="M 416 0 
L 416 3319 
L 922 3319 
L 922 2816 
Q 1116 3169 1280 3281 
Q 1444 3394 1641 3394 
Q 1925 3394 2219 3213 
L 2025 2691 
Q 1819 2813 1613 2813 
Q 1428 2813 1281 2702 
Q 1134 2591 1072 2394 
Q 978 2094 978 1738 
L 978 0 
L 416 0 
z
" transform="scale(0.015625)"/>
       <path id="ArialMT-69" d="M 425 3934 
L 425 4581 
L 988 4581 
L 988 3934 
L 425 3934 
z
M 425 0 
L 425 3319 
L 988 3319 
L 988 0 
L 425 0 
z
" transform="scale(0.015625)"/>
       <path id="ArialMT-63" d="M 2588 1216 
L 3141 1144 
Q 3050 572 2676 248 
Q 2303 -75 1759 -75 
Q 1078 -75 664 370 
Q 250 816 250 1647 
Q 250 2184 428 2587 
Q 606 2991 970 3192 
Q 1334 3394 1763 3394 
Q 2303 3394 2647 3120 
Q 2991 2847 3088 2344 
L 2541 2259 
Q 2463 2594 2264 2762 
Q 2066 2931 1784 2931 
Q 1359 2931 1093 2626 
Q 828 2322 828 1663 
Q 828 994 1084 691 
Q 1341 388 1753 388 
Q 2084 388 2306 591 
Q 2528 794 2588 1216 
z
" transform="scale(0.015625)"/>
       <path id="ArialMT-61" d="M 2588 409 
Q 2275 144 1986 34 
Q 1697 -75 1366 -75 
Q 819 -75 525 192 
Q 231 459 231 875 
Q 231 1119 342 1320 
Q 453 1522 633 1644 
Q 813 1766 1038 1828 
Q 1203 1872 1538 1913 
Q 2219 1994 2541 2106 
Q 2544 2222 2544 2253 
Q 2544 2597 2384 2738 
Q 2169 2928 1744 2928 
Q 1347 2928 1158 2789 
Q 969 2650 878 2297 
L 328 2372 
Q 403 2725 575 2942 
Q 747 3159 1072 3276 
Q 1397 3394 1825 3394 
Q 2250 3394 2515 3294 
Q 2781 3194 2906 3042 
Q 3031 2891 3081 2659 
Q 3109 2516 3109 2141 
L 3109 1391 
Q 3109 606 3145 398 
Q 3181 191 3288 0 
L 2700 0 
Q 2613 175 2588 409 
z
M 2541 1666 
Q 2234 1541 1622 1453 
Q 1275 1403 1131 1340 
Q 988 1278 909 1158 
Q 831 1038 831 891 
Q 831 666 1001 516 
Q 1172 366 1500 366 
Q 1825 366 2078 508 
Q 2331 650 2450 897 
Q 2541 1088 2541 1459 
L 2541 1666 
z
" transform="scale(0.015625)"/>
      </defs>
      <use xlink:href="#ArialMT-74"/>
      <use xlink:href="#ArialMT-77" x="27.783203"/>
      <use xlink:href="#ArialMT-65" x="100"/>
      <use xlink:href="#ArialMT-65" x="155.615234"/>
      <use xlink:href="#ArialMT-74" x="211.230469"/>
      <use xlink:href="#ArialMT-73" x="239.013672"/>
      <use xlink:href="#ArialMT-20" x="289.013672"/>
      <use xlink:href="#ArialMT-73" x="316.796875"/>
      <use xlink:href="#ArialMT-65" x="366.796875"/>
      <use xlink:href="#ArialMT-6e" x="422.412109"/>
      <use xlink:href="#ArialMT-74" x="478.027344"/>
      <use xlink:href="#ArialMT-20" x="505.810547"/>
      <use xlink:href="#ArialMT-62" x="533.59375"/>
      <use xlink:href="#ArialMT-79" x="589.208984"/>
      <use xlink:href="#ArialMT-20" x="639.208984"/>
      <use xlink:href="#ArialMT-41" x="661.492188"/>
      <use xlink:href="#ArialMT-6d" x="728.191406"/>
      <use xlink:href="#ArialMT-65" x="811.492188"/>
      <use xlink:href="#ArialMT-72" x="867.107422"/>
      <use xlink:href="#ArialMT-69" x="900.408203"/>
      <use xlink:href="#ArialMT-63" x="922.625"/>
      <use xlink:href="#ArialMT-61" x="972.625"/>
      <use xlink:href="#ArialMT-6e" x="1028.240234"/>
      <use xlink:href="#ArialMT-20" x="1083.855469"/>
      <use xlink:href="#ArialMT-41" x="1106.138672"/>
      <use xlink:href="#ArialMT-69" x="1172.837891"/>
      <use xlink:href="#ArialMT-72" x="1195.054688"/>
     </g>
    </g>
    <g id="line2d_35">
     <path d="M 916.017969 311.378322 
L 927.017969 311.378322 
L 938.017969 311.378322 
" style="fill: none; stroke: #dd8452; stroke-width: 1.5; stroke-linecap: round"/>
    </g>
    <g id="text_36">
     <!-- tweets sent by British Airways -->
     <g style="fill: #262626" transform="translate(946.817969 315.228322) scale(0.11 -0.11)">
      <defs>
       <path id="ArialMT-42" d="M 469 0 
L 469 4581 
L 2188 4581 
Q 2713 4581 3030 4442 
Q 3347 4303 3526 4014 
Q 3706 3725 3706 3409 
Q 3706 3116 3547 2856 
Q 3388 2597 3066 2438 
Q 3481 2316 3704 2022 
Q 3928 1728 3928 1328 
Q 3928 1006 3792 729 
Q 3656 453 3456 303 
Q 3256 153 2954 76 
Q 2653 0 2216 0 
L 469 0 
z
M 1075 2656 
L 2066 2656 
Q 2469 2656 2644 2709 
Q 2875 2778 2992 2937 
Q 3109 3097 3109 3338 
Q 3109 3566 3000 3739 
Q 2891 3913 2687 3977 
Q 2484 4041 1991 4041 
L 1075 4041 
L 1075 2656 
z
M 1075 541 
L 2216 541 
Q 2509 541 2628 563 
Q 2838 600 2978 687 
Q 3119 775 3209 942 
Q 3300 1109 3300 1328 
Q 3300 1584 3169 1773 
Q 3038 1963 2805 2039 
Q 2572 2116 2134 2116 
L 1075 2116 
L 1075 541 
z
" transform="scale(0.015625)"/>
       <path id="ArialMT-68" d="M 422 0 
L 422 4581 
L 984 4581 
L 984 2938 
Q 1378 3394 1978 3394 
Q 2347 3394 2619 3248 
Q 2891 3103 3008 2847 
Q 3125 2591 3125 2103 
L 3125 0 
L 2563 0 
L 2563 2103 
Q 2563 2525 2380 2717 
Q 2197 2909 1863 2909 
Q 1613 2909 1392 2779 
Q 1172 2650 1078 2428 
Q 984 2206 984 1816 
L 984 0 
L 422 0 
z
" transform="scale(0.015625)"/>
      </defs>
      <use xlink:href="#ArialMT-74"/>
      <use xlink:href="#ArialMT-77" x="27.783203"/>
      <use xlink:href="#ArialMT-65" x="100"/>
      <use xlink:href="#ArialMT-65" x="155.615234"/>
      <use xlink:href="#ArialMT-74" x="211.230469"/>
      <use xlink:href="#ArialMT-73" x="239.013672"/>
      <use xlink:href="#ArialMT-20" x="289.013672"/>
      <use xlink:href="#ArialMT-73" x="316.796875"/>
      <use xlink:href="#ArialMT-65" x="366.796875"/>
      <use xlink:href="#ArialMT-6e" x="422.412109"/>
      <use xlink:href="#ArialMT-74" x="478.027344"/>
      <use xlink:href="#ArialMT-20" x="505.810547"/>
      <use xlink:href="#ArialMT-62" x="533.59375"/>
      <use xlink:href="#ArialMT-79" x="589.208984"/>
      <use xlink:href="#ArialMT-20" x="639.208984"/>
      <use xlink:href="#ArialMT-42" x="666.992188"/>
      <use xlink:href="#ArialMT-72" x="733.691406"/>
      <use xlink:href="#ArialMT-69" x="766.992188"/>
      <use xlink:href="#ArialMT-74" x="789.208984"/>
      <use xlink:href="#ArialMT-69" x="816.992188"/>
      <use xlink:href="#ArialMT-73" x="839.208984"/>
      <use xlink:href="#ArialMT-68" x="889.208984"/>
      <use xlink:href="#ArialMT-20" x="944.824219"/>
      <use xlink:href="#ArialMT-41" x="967.107422"/>
      <use xlink:href="#ArialMT-69" x="1033.806641"/>
      <use xlink:href="#ArialMT-72" x="1056.023438"/>
      <use xlink:href="#ArialMT-77" x="1089.324219"/>
      <use xlink:href="#ArialMT-61" x="1161.541016"/>
      <use xlink:href="#ArialMT-79" x="1217.15625"/>
      <use xlink:href="#ArialMT-73" x="1267.15625"/>
     </g>
    </g>
   </g>
  </g>
  <g id="axes_2">
   <g id="patch_8">
    <path d="M 153 640.8 
L 1101.6 640.8 
L 1101.6 399.756522 
L 153 399.756522 
z
" style="fill: #eaeaf2"/>
   </g>
   <g id="matplotlib.axis_3">
    <g id="xtick_25">
     <g id="line2d_36">
      <path d="M 196.118182 640.8 
L 196.118182 399.756522 
" clip-path="url(#p89e8dee51e)" style="fill: none; stroke: #ffffff; stroke-linecap: round"/>
     </g>
     <g id="text_37">
      <!-- 0-1 -->
      <g style="fill: #262626" transform="translate(188.169822 658.173594) scale(0.11 -0.11)">
       <use xlink:href="#ArialMT-30"/>
       <use xlink:href="#ArialMT-2d" x="55.615234"/>
       <use xlink:href="#ArialMT-31" x="88.916016"/>
      </g>
     </g>
    </g>
    <g id="xtick_26">
     <g id="line2d_37">
      <path d="M 233.612253 640.8 
L 233.612253 399.756522 
" clip-path="url(#p89e8dee51e)" style="fill: none; stroke: #ffffff; stroke-linecap: round"/>
     </g>
     <g id="text_38">
      <!-- 1-2 -->
      <g style="fill: #262626" transform="translate(225.663894 658.173594) scale(0.11 -0.11)">
       <use xlink:href="#ArialMT-31"/>
       <use xlink:href="#ArialMT-2d" x="55.615234"/>
       <use xlink:href="#ArialMT-32" x="88.916016"/>
      </g>
     </g>
    </g>
    <g id="xtick_27">
     <g id="line2d_38">
      <path d="M 271.106324 640.8 
L 271.106324 399.756522 
" clip-path="url(#p89e8dee51e)" style="fill: none; stroke: #ffffff; stroke-linecap: round"/>
     </g>
     <g id="text_39">
      <!-- 2-3 -->
      <g style="fill: #262626" transform="translate(263.157965 658.173594) scale(0.11 -0.11)">
       <use xlink:href="#ArialMT-32"/>
       <use xlink:href="#ArialMT-2d" x="55.615234"/>
       <use xlink:href="#ArialMT-33" x="88.916016"/>
      </g>
     </g>
    </g>
    <g id="xtick_28">
     <g id="line2d_39">
      <path d="M 308.600395 640.8 
L 308.600395 399.756522 
" clip-path="url(#p89e8dee51e)" style="fill: none; stroke: #ffffff; stroke-linecap: round"/>
     </g>
     <g id="text_40">
      <!-- 3-4 -->
      <g style="fill: #262626" transform="translate(300.652036 658.173594) scale(0.11 -0.11)">
       <use xlink:href="#ArialMT-33"/>
       <use xlink:href="#ArialMT-2d" x="55.615234"/>
       <use xlink:href="#ArialMT-34" x="88.916016"/>
      </g>
     </g>
    </g>
    <g id="xtick_29">
     <g id="line2d_40">
      <path d="M 346.094466 640.8 
L 346.094466 399.756522 
" clip-path="url(#p89e8dee51e)" style="fill: none; stroke: #ffffff; stroke-linecap: round"/>
     </g>
     <g id="text_41">
      <!-- 4-5 -->
      <g style="fill: #262626" transform="translate(338.146107 658.173594) scale(0.11 -0.11)">
       <use xlink:href="#ArialMT-34"/>
       <use xlink:href="#ArialMT-2d" x="55.615234"/>
       <use xlink:href="#ArialMT-35" x="88.916016"/>
      </g>
     </g>
    </g>
    <g id="xtick_30">
     <g id="line2d_41">
      <path d="M 383.588538 640.8 
L 383.588538 399.756522 
" clip-path="url(#p89e8dee51e)" style="fill: none; stroke: #ffffff; stroke-linecap: round"/>
     </g>
     <g id="text_42">
      <!-- 5-6 -->
      <g style="fill: #262626" transform="translate(375.640178 658.173594) scale(0.11 -0.11)">
       <use xlink:href="#ArialMT-35"/>
       <use xlink:href="#ArialMT-2d" x="55.615234"/>
       <use xlink:href="#ArialMT-36" x="88.916016"/>
      </g>
     </g>
    </g>
    <g id="xtick_31">
     <g id="line2d_42">
      <path d="M 421.082609 640.8 
L 421.082609 399.756522 
" clip-path="url(#p89e8dee51e)" style="fill: none; stroke: #ffffff; stroke-linecap: round"/>
     </g>
     <g id="text_43">
      <!-- 6-7 -->
      <g style="fill: #262626" transform="translate(413.134249 658.173594) scale(0.11 -0.11)">
       <use xlink:href="#ArialMT-36"/>
       <use xlink:href="#ArialMT-2d" x="55.615234"/>
       <use xlink:href="#ArialMT-37" x="88.916016"/>
      </g>
     </g>
    </g>
    <g id="xtick_32">
     <g id="line2d_43">
      <path d="M 458.57668 640.8 
L 458.57668 399.756522 
" clip-path="url(#p89e8dee51e)" style="fill: none; stroke: #ffffff; stroke-linecap: round"/>
     </g>
     <g id="text_44">
      <!-- 7-8 -->
      <g style="fill: #262626" transform="translate(450.62832 658.173594) scale(0.11 -0.11)">
       <use xlink:href="#ArialMT-37"/>
       <use xlink:href="#ArialMT-2d" x="55.615234"/>
       <use xlink:href="#ArialMT-38" x="88.916016"/>
      </g>
     </g>
    </g>
    <g id="xtick_33">
     <g id="line2d_44">
      <path d="M 496.070751 640.8 
L 496.070751 399.756522 
" clip-path="url(#p89e8dee51e)" style="fill: none; stroke: #ffffff; stroke-linecap: round"/>
     </g>
     <g id="text_45">
      <!-- 8-9 -->
      <g style="fill: #262626" transform="translate(488.122392 658.173594) scale(0.11 -0.11)">
       <use xlink:href="#ArialMT-38"/>
       <use xlink:href="#ArialMT-2d" x="55.615234"/>
       <use xlink:href="#ArialMT-39" x="88.916016"/>
      </g>
     </g>
    </g>
    <g id="xtick_34">
     <g id="line2d_45">
      <path d="M 533.564822 640.8 
L 533.564822 399.756522 
" clip-path="url(#p89e8dee51e)" style="fill: none; stroke: #ffffff; stroke-linecap: round"/>
     </g>
     <g id="text_46">
      <!-- 9-10 -->
      <g style="fill: #262626" transform="translate(522.557947 658.173594) scale(0.11 -0.11)">
       <use xlink:href="#ArialMT-39"/>
       <use xlink:href="#ArialMT-2d" x="55.615234"/>
       <use xlink:href="#ArialMT-31" x="88.916016"/>
       <use xlink:href="#ArialMT-30" x="144.53125"/>
      </g>
     </g>
    </g>
    <g id="xtick_35">
     <g id="line2d_46">
      <path d="M 571.058893 640.8 
L 571.058893 399.756522 
" clip-path="url(#p89e8dee51e)" style="fill: none; stroke: #ffffff; stroke-linecap: round"/>
     </g>
     <g id="text_47">
      <!-- 10-11 -->
      <g style="fill: #262626" transform="translate(557.399128 658.173594) scale(0.11 -0.11)">
       <use xlink:href="#ArialMT-31"/>
       <use xlink:href="#ArialMT-30" x="55.615234"/>
       <use xlink:href="#ArialMT-2d" x="111.230469"/>
       <use xlink:href="#ArialMT-31" x="144.53125"/>
       <use xlink:href="#ArialMT-31" x="192.771484"/>
      </g>
     </g>
    </g>
    <g id="xtick_36">
     <g id="line2d_47">
      <path d="M 608.552964 640.8 
L 608.552964 399.756522 
" clip-path="url(#p89e8dee51e)" style="fill: none; stroke: #ffffff; stroke-linecap: round"/>
     </g>
     <g id="text_48">
      <!-- 11-12 -->
      <g style="fill: #262626" transform="translate(594.893199 658.173594) scale(0.11 -0.11)">
       <use xlink:href="#ArialMT-31"/>
       <use xlink:href="#ArialMT-31" x="48.240234"/>
       <use xlink:href="#ArialMT-2d" x="103.855469"/>
       <use xlink:href="#ArialMT-31" x="137.15625"/>
       <use xlink:href="#ArialMT-32" x="192.771484"/>
      </g>
     </g>
    </g>
    <g id="xtick_37">
     <g id="line2d_48">
      <path d="M 646.047036 640.8 
L 646.047036 399.756522 
" clip-path="url(#p89e8dee51e)" style="fill: none; stroke: #ffffff; stroke-linecap: round"/>
     </g>
     <g id="text_49">
      <!-- 12-13 -->
      <g style="fill: #262626" transform="translate(631.981645 658.173594) scale(0.11 -0.11)">
       <use xlink:href="#ArialMT-31"/>
       <use xlink:href="#ArialMT-32" x="55.615234"/>
       <use xlink:href="#ArialMT-2d" x="111.230469"/>
       <use xlink:href="#ArialMT-31" x="144.53125"/>
       <use xlink:href="#ArialMT-33" x="200.146484"/>
      </g>
     </g>
    </g>
    <g id="xtick_38">
     <g id="line2d_49">
      <path d="M 683.541107 640.8 
L 683.541107 399.756522 
" clip-path="url(#p89e8dee51e)" style="fill: none; stroke: #ffffff; stroke-linecap: round"/>
     </g>
     <g id="text_50">
      <!-- 13-14 -->
      <g style="fill: #262626" transform="translate(669.475716 658.173594) scale(0.11 -0.11)">
       <use xlink:href="#ArialMT-31"/>
       <use xlink:href="#ArialMT-33" x="55.615234"/>
       <use xlink:href="#ArialMT-2d" x="111.230469"/>
       <use xlink:href="#ArialMT-31" x="144.53125"/>
       <use xlink:href="#ArialMT-34" x="200.146484"/>
      </g>
     </g>
    </g>
    <g id="xtick_39">
     <g id="line2d_50">
      <path d="M 721.035178 640.8 
L 721.035178 399.756522 
" clip-path="url(#p89e8dee51e)" style="fill: none; stroke: #ffffff; stroke-linecap: round"/>
     </g>
     <g id="text_51">
      <!-- 14-15 -->
      <g style="fill: #262626" transform="translate(706.969787 658.173594) scale(0.11 -0.11)">
       <use xlink:href="#ArialMT-31"/>
       <use xlink:href="#ArialMT-34" x="55.615234"/>
       <use xlink:href="#ArialMT-2d" x="111.230469"/>
       <use xlink:href="#ArialMT-31" x="144.53125"/>
       <use xlink:href="#ArialMT-35" x="200.146484"/>
      </g>
     </g>
    </g>
    <g id="xtick_40">
     <g id="line2d_51">
      <path d="M 758.529249 640.8 
L 758.529249 399.756522 
" clip-path="url(#p89e8dee51e)" style="fill: none; stroke: #ffffff; stroke-linecap: round"/>
     </g>
     <g id="text_52">
      <!-- 15-16 -->
      <g style="fill: #262626" transform="translate(744.463858 658.173594) scale(0.11 -0.11)">
       <use xlink:href="#ArialMT-31"/>
       <use xlink:href="#ArialMT-35" x="55.615234"/>
       <use xlink:href="#ArialMT-2d" x="111.230469"/>
       <use xlink:href="#ArialMT-31" x="144.53125"/>
       <use xlink:href="#ArialMT-36" x="200.146484"/>
      </g>
     </g>
    </g>
    <g id="xtick_41">
     <g id="line2d_52">
      <path d="M 796.02332 640.8 
L 796.02332 399.756522 
" clip-path="url(#p89e8dee51e)" style="fill: none; stroke: #ffffff; stroke-linecap: round"/>
     </g>
     <g id="text_53">
      <!-- 16-17 -->
      <g style="fill: #262626" transform="translate(781.95793 658.173594) scale(0.11 -0.11)">
       <use xlink:href="#ArialMT-31"/>
       <use xlink:href="#ArialMT-36" x="55.615234"/>
       <use xlink:href="#ArialMT-2d" x="111.230469"/>
       <use xlink:href="#ArialMT-31" x="144.53125"/>
       <use xlink:href="#ArialMT-37" x="200.146484"/>
      </g>
     </g>
    </g>
    <g id="xtick_42">
     <g id="line2d_53">
      <path d="M 833.517391 640.8 
L 833.517391 399.756522 
" clip-path="url(#p89e8dee51e)" style="fill: none; stroke: #ffffff; stroke-linecap: round"/>
     </g>
     <g id="text_54">
      <!-- 17-18 -->
      <g style="fill: #262626" transform="translate(819.452001 658.173594) scale(0.11 -0.11)">
       <use xlink:href="#ArialMT-31"/>
       <use xlink:href="#ArialMT-37" x="55.615234"/>
       <use xlink:href="#ArialMT-2d" x="111.230469"/>
       <use xlink:href="#ArialMT-31" x="144.53125"/>
       <use xlink:href="#ArialMT-38" x="200.146484"/>
      </g>
     </g>
    </g>
    <g id="xtick_43">
     <g id="line2d_54">
      <path d="M 871.011462 640.8 
L 871.011462 399.756522 
" clip-path="url(#p89e8dee51e)" style="fill: none; stroke: #ffffff; stroke-linecap: round"/>
     </g>
     <g id="text_55">
      <!-- 18-19 -->
      <g style="fill: #262626" transform="translate(856.946072 658.173594) scale(0.11 -0.11)">
       <use xlink:href="#ArialMT-31"/>
       <use xlink:href="#ArialMT-38" x="55.615234"/>
       <use xlink:href="#ArialMT-2d" x="111.230469"/>
       <use xlink:href="#ArialMT-31" x="144.53125"/>
       <use xlink:href="#ArialMT-39" x="200.146484"/>
      </g>
     </g>
    </g>
    <g id="xtick_44">
     <g id="line2d_55">
      <path d="M 908.505534 640.8 
L 908.505534 399.756522 
" clip-path="url(#p89e8dee51e)" style="fill: none; stroke: #ffffff; stroke-linecap: round"/>
     </g>
     <g id="text_56">
      <!-- 19-20 -->
      <g style="fill: #262626" transform="translate(894.440143 658.173594) scale(0.11 -0.11)">
       <use xlink:href="#ArialMT-31"/>
       <use xlink:href="#ArialMT-39" x="55.615234"/>
       <use xlink:href="#ArialMT-2d" x="111.230469"/>
       <use xlink:href="#ArialMT-32" x="144.53125"/>
       <use xlink:href="#ArialMT-30" x="200.146484"/>
      </g>
     </g>
    </g>
    <g id="xtick_45">
     <g id="line2d_56">
      <path d="M 945.999605 640.8 
L 945.999605 399.756522 
" clip-path="url(#p89e8dee51e)" style="fill: none; stroke: #ffffff; stroke-linecap: round"/>
     </g>
     <g id="text_57">
      <!-- 20-21 -->
      <g style="fill: #262626" transform="translate(931.934214 658.173594) scale(0.11 -0.11)">
       <use xlink:href="#ArialMT-32"/>
       <use xlink:href="#ArialMT-30" x="55.615234"/>
       <use xlink:href="#ArialMT-2d" x="111.230469"/>
       <use xlink:href="#ArialMT-32" x="144.53125"/>
       <use xlink:href="#ArialMT-31" x="200.146484"/>
      </g>
     </g>
    </g>
    <g id="xtick_46">
     <g id="line2d_57">
      <path d="M 983.493676 640.8 
L 983.493676 399.756522 
" clip-path="url(#p89e8dee51e)" style="fill: none; stroke: #ffffff; stroke-linecap: round"/>
     </g>
     <g id="text_58">
      <!-- 21-22 -->
      <g style="fill: #262626" transform="translate(969.428285 658.173594) scale(0.11 -0.11)">
       <use xlink:href="#ArialMT-32"/>
       <use xlink:href="#ArialMT-31" x="55.615234"/>
       <use xlink:href="#ArialMT-2d" x="111.230469"/>
       <use xlink:href="#ArialMT-32" x="144.53125"/>
       <use xlink:href="#ArialMT-32" x="200.146484"/>
      </g>
     </g>
    </g>
    <g id="xtick_47">
     <g id="line2d_58">
      <path d="M 1020.987747 640.8 
L 1020.987747 399.756522 
" clip-path="url(#p89e8dee51e)" style="fill: none; stroke: #ffffff; stroke-linecap: round"/>
     </g>
     <g id="text_59">
      <!-- 22-23 -->
      <g style="fill: #262626" transform="translate(1006.922356 658.173594) scale(0.11 -0.11)">
       <use xlink:href="#ArialMT-32"/>
       <use xlink:href="#ArialMT-32" x="55.615234"/>
       <use xlink:href="#ArialMT-2d" x="111.230469"/>
       <use xlink:href="#ArialMT-32" x="144.53125"/>
       <use xlink:href="#ArialMT-33" x="200.146484"/>
      </g>
     </g>
    </g>
    <g id="xtick_48">
     <g id="line2d_59">
      <path d="M 1058.481818 640.8 
L 1058.481818 399.756522 
" clip-path="url(#p89e8dee51e)" style="fill: none; stroke: #ffffff; stroke-linecap: round"/>
     </g>
     <g id="text_60">
      <!-- 23-24 -->
      <g style="fill: #262626" transform="translate(1044.416428 658.173594) scale(0.11 -0.11)">
       <use xlink:href="#ArialMT-32"/>
       <use xlink:href="#ArialMT-33" x="55.615234"/>
       <use xlink:href="#ArialMT-2d" x="111.230469"/>
       <use xlink:href="#ArialMT-32" x="144.53125"/>
       <use xlink:href="#ArialMT-34" x="200.146484"/>
      </g>
     </g>
    </g>
    <g id="text_61">
     <!-- the hour of the day -->
     <g style="fill: #262626" transform="translate(568.805078 673.823437) scale(0.13 -0.13)">
      <use xlink:href="#Arial-BoldMT-74"/>
      <use xlink:href="#Arial-BoldMT-68" x="33.300781"/>
      <use xlink:href="#Arial-BoldMT-65" x="94.384766"/>
      <use xlink:href="#Arial-BoldMT-20" x="150"/>
      <use xlink:href="#Arial-BoldMT-68" x="177.783203"/>
      <use xlink:href="#Arial-BoldMT-6f" x="238.867188"/>
      <use xlink:href="#Arial-BoldMT-75" x="299.951172"/>
      <use xlink:href="#Arial-BoldMT-72" x="361.035156"/>
      <use xlink:href="#Arial-BoldMT-20" x="399.951172"/>
      <use xlink:href="#Arial-BoldMT-6f" x="427.734375"/>
      <use xlink:href="#Arial-BoldMT-66" x="488.818359"/>
      <use xlink:href="#Arial-BoldMT-20" x="522.119141"/>
      <use xlink:href="#Arial-BoldMT-74" x="549.902344"/>
      <use xlink:href="#Arial-BoldMT-68" x="583.203125"/>
      <use xlink:href="#Arial-BoldMT-65" x="644.287109"/>
      <use xlink:href="#Arial-BoldMT-20" x="699.902344"/>
      <use xlink:href="#Arial-BoldMT-64" x="727.685547"/>
      <use xlink:href="#Arial-BoldMT-61" x="788.769531"/>
      <use xlink:href="#Arial-BoldMT-79" x="844.384766"/>
     </g>
    </g>
   </g>
   <g id="matplotlib.axis_4">
    <g id="ytick_8">
     <g id="line2d_60">
      <path d="M 153 617.302015 
L 1101.6 617.302015 
" clip-path="url(#p89e8dee51e)" style="fill: none; stroke: #ffffff; stroke-linecap: round"/>
     </g>
     <g id="text_62">
      <!-- 10000 -->
      <g style="fill: #262626" transform="translate(112.914844 621.238812) scale(0.11 -0.11)">
       <use xlink:href="#ArialMT-31"/>
       <use xlink:href="#ArialMT-30" x="55.615234"/>
       <use xlink:href="#ArialMT-30" x="111.230469"/>
       <use xlink:href="#ArialMT-30" x="166.845703"/>
       <use xlink:href="#ArialMT-30" x="222.460938"/>
      </g>
     </g>
    </g>
    <g id="ytick_9">
     <g id="line2d_61">
      <path d="M 153 565.002333 
L 1101.6 565.002333 
" clip-path="url(#p89e8dee51e)" style="fill: none; stroke: #ffffff; stroke-linecap: round"/>
     </g>
     <g id="text_63">
      <!-- 20000 -->
      <g style="fill: #262626" transform="translate(112.914844 568.93913) scale(0.11 -0.11)">
       <use xlink:href="#ArialMT-32"/>
       <use xlink:href="#ArialMT-30" x="55.615234"/>
       <use xlink:href="#ArialMT-30" x="111.230469"/>
       <use xlink:href="#ArialMT-30" x="166.845703"/>
       <use xlink:href="#ArialMT-30" x="222.460938"/>
      </g>
     </g>
    </g>
    <g id="ytick_10">
     <g id="line2d_62">
      <path d="M 153 512.702652 
L 1101.6 512.702652 
" clip-path="url(#p89e8dee51e)" style="fill: none; stroke: #ffffff; stroke-linecap: round"/>
     </g>
     <g id="text_64">
      <!-- 30000 -->
      <g style="fill: #262626" transform="translate(112.914844 516.639449) scale(0.11 -0.11)">
       <use xlink:href="#ArialMT-33"/>
       <use xlink:href="#ArialMT-30" x="55.615234"/>
       <use xlink:href="#ArialMT-30" x="111.230469"/>
       <use xlink:href="#ArialMT-30" x="166.845703"/>
       <use xlink:href="#ArialMT-30" x="222.460938"/>
      </g>
     </g>
    </g>
    <g id="ytick_11">
     <g id="line2d_63">
      <path d="M 153 460.402971 
L 1101.6 460.402971 
" clip-path="url(#p89e8dee51e)" style="fill: none; stroke: #ffffff; stroke-linecap: round"/>
     </g>
     <g id="text_65">
      <!-- 40000 -->
      <g style="fill: #262626" transform="translate(112.914844 464.339768) scale(0.11 -0.11)">
       <use xlink:href="#ArialMT-34"/>
       <use xlink:href="#ArialMT-30" x="55.615234"/>
       <use xlink:href="#ArialMT-30" x="111.230469"/>
       <use xlink:href="#ArialMT-30" x="166.845703"/>
       <use xlink:href="#ArialMT-30" x="222.460938"/>
      </g>
     </g>
    </g>
    <g id="ytick_12">
     <g id="line2d_64">
      <path d="M 153 408.103289 
L 1101.6 408.103289 
" clip-path="url(#p89e8dee51e)" style="fill: none; stroke: #ffffff; stroke-linecap: round"/>
     </g>
     <g id="text_66">
      <!-- 50000 -->
      <g style="fill: #262626" transform="translate(112.914844 412.040086) scale(0.11 -0.11)">
       <use xlink:href="#ArialMT-35"/>
       <use xlink:href="#ArialMT-30" x="55.615234"/>
       <use xlink:href="#ArialMT-30" x="111.230469"/>
       <use xlink:href="#ArialMT-30" x="166.845703"/>
       <use xlink:href="#ArialMT-30" x="222.460938"/>
      </g>
     </g>
    </g>
    <g id="text_67">
     <!-- amount of tweets -->
     <g style="fill: #262626" transform="translate(106.349375 573.721464) rotate(-90) scale(0.13 -0.13)">
      <use xlink:href="#Arial-BoldMT-61"/>
      <use xlink:href="#Arial-BoldMT-6d" x="55.615234"/>
      <use xlink:href="#Arial-BoldMT-6f" x="144.53125"/>
      <use xlink:href="#Arial-BoldMT-75" x="205.615234"/>
      <use xlink:href="#Arial-BoldMT-6e" x="266.699219"/>
      <use xlink:href="#Arial-BoldMT-74" x="327.783203"/>
      <use xlink:href="#Arial-BoldMT-20" x="361.083984"/>
      <use xlink:href="#Arial-BoldMT-6f" x="388.867188"/>
      <use xlink:href="#Arial-BoldMT-66" x="449.951172"/>
      <use xlink:href="#Arial-BoldMT-20" x="483.251953"/>
      <use xlink:href="#Arial-BoldMT-74" x="511.035156"/>
      <use xlink:href="#Arial-BoldMT-77" x="544.335938"/>
      <use xlink:href="#Arial-BoldMT-65" x="622.119141"/>
      <use xlink:href="#Arial-BoldMT-65" x="677.734375"/>
      <use xlink:href="#Arial-BoldMT-74" x="733.349609"/>
      <use xlink:href="#Arial-BoldMT-73" x="766.650391"/>
     </g>
    </g>
   </g>
   <g id="line2d_65">
    <path d="M 196.118182 424.41033 
L 233.612253 432.192523 
L 271.106324 437.328351 
L 308.600395 453.96488 
L 346.094466 505.663115 
L 383.588538 546.582386 
L 421.082609 582.172319 
L 458.57668 605.194638 
L 496.070751 616.167112 
L 533.564822 611.967447 
L 571.058893 597.292157 
L 608.552964 561.126927 
L 646.047036 519.397011 
L 683.541107 488.37807 
L 721.035178 454.901044 
L 758.529249 430.241744 
L 796.02332 424.46786 
L 833.517391 430.93733 
L 871.011462 432.814889 
L 908.505534 435.581542 
L 945.999605 431.465557 
L 983.493676 425.848571 
L 1020.987747 410.713043 
L 1058.481818 412.491233 
" clip-path="url(#p89e8dee51e)" style="fill: none; stroke: #4c72b0; stroke-width: 1.5; stroke-linecap: round"/>
   </g>
   <g id="line2d_66">
    <path d="M 196.118182 612.009287 
L 233.612253 622.171115 
L 271.106324 625.816403 
L 308.600395 629.843478 
L 346.094466 627.134355 
L 383.588538 614.404612 
L 421.082609 584.635634 
L 458.57668 545.264434 
L 496.070751 520.531914 
L 533.564822 511.578209 
L 571.058893 497.504365 
L 608.552964 496.484521 
L 646.047036 494.695872 
L 683.541107 494.272244 
L 721.035178 494.439603 
L 758.529249 487.797544 
L 796.02332 488.754628 
L 833.517391 495.360078 
L 871.011462 497.839083 
L 908.505534 501.714489 
L 945.999605 508.968455 
L 983.493676 522.446083 
L 1020.987747 555.321662 
L 1058.481818 590.911595 
" clip-path="url(#p89e8dee51e)" style="fill: none; stroke: #dd8452; stroke-width: 1.5; stroke-linecap: round"/>
   </g>
   <g id="patch_9">
    <path d="M 153 640.8 
L 153 399.756522 
" style="fill: none; stroke: #ffffff; stroke-width: 1.25; stroke-linejoin: miter; stroke-linecap: square"/>
   </g>
   <g id="patch_10">
    <path d="M 1101.6 640.8 
L 1101.6 399.756522 
" style="fill: none; stroke: #ffffff; stroke-width: 1.25; stroke-linejoin: miter; stroke-linecap: square"/>
   </g>
   <g id="patch_11">
    <path d="M 153 640.8 
L 1101.6 640.8 
" style="fill: none; stroke: #ffffff; stroke-width: 1.25; stroke-linejoin: miter; stroke-linecap: square"/>
   </g>
   <g id="patch_12">
    <path d="M 153 399.756522 
L 1101.6 399.756522 
" style="fill: none; stroke: #ffffff; stroke-width: 1.25; stroke-linejoin: miter; stroke-linecap: square"/>
   </g>
   <g id="text_68">
    <!-- tweets received by airline -->
    <g style="fill: #262626" transform="translate(530.37 393.756522) scale(0.16 -0.16)">
     <defs>
      <path id="Arial-BoldMT-63" d="M 3353 2338 
L 2488 2181 
Q 2444 2441 2289 2572 
Q 2134 2703 1888 2703 
Q 1559 2703 1364 2476 
Q 1169 2250 1169 1719 
Q 1169 1128 1367 884 
Q 1566 641 1900 641 
Q 2150 641 2309 783 
Q 2469 925 2534 1272 
L 3397 1125 
Q 3263 531 2881 228 
Q 2500 -75 1859 -75 
Q 1131 -75 698 384 
Q 266 844 266 1656 
Q 266 2478 700 2936 
Q 1134 3394 1875 3394 
Q 2481 3394 2839 3133 
Q 3197 2872 3353 2338 
z
" transform="scale(0.015625)"/>
      <path id="Arial-BoldMT-76" d="M 1372 0 
L 34 3319 
L 956 3319 
L 1581 1625 
L 1763 1059 
Q 1834 1275 1853 1344 
Q 1897 1484 1947 1625 
L 2578 3319 
L 3481 3319 
L 2163 0 
L 1372 0 
z
" transform="scale(0.015625)"/>
     </defs>
     <use xlink:href="#Arial-BoldMT-74"/>
     <use xlink:href="#Arial-BoldMT-77" x="33.300781"/>
     <use xlink:href="#Arial-BoldMT-65" x="111.083984"/>
     <use xlink:href="#Arial-BoldMT-65" x="166.699219"/>
     <use xlink:href="#Arial-BoldMT-74" x="222.314453"/>
     <use xlink:href="#Arial-BoldMT-73" x="255.615234"/>
     <use xlink:href="#Arial-BoldMT-20" x="311.230469"/>
     <use xlink:href="#Arial-BoldMT-72" x="339.013672"/>
     <use xlink:href="#Arial-BoldMT-65" x="377.929688"/>
     <use xlink:href="#Arial-BoldMT-63" x="433.544922"/>
     <use xlink:href="#Arial-BoldMT-65" x="489.160156"/>
     <use xlink:href="#Arial-BoldMT-69" x="544.775391"/>
     <use xlink:href="#Arial-BoldMT-76" x="572.558594"/>
     <use xlink:href="#Arial-BoldMT-65" x="628.173828"/>
     <use xlink:href="#Arial-BoldMT-64" x="683.789062"/>
     <use xlink:href="#Arial-BoldMT-20" x="744.873047"/>
     <use xlink:href="#Arial-BoldMT-62" x="772.65625"/>
     <use xlink:href="#Arial-BoldMT-79" x="833.740234"/>
     <use xlink:href="#Arial-BoldMT-20" x="889.355469"/>
     <use xlink:href="#Arial-BoldMT-61" x="917.138672"/>
     <use xlink:href="#Arial-BoldMT-69" x="972.753906"/>
     <use xlink:href="#Arial-BoldMT-72" x="1000.537109"/>
     <use xlink:href="#Arial-BoldMT-6c" x="1039.453125"/>
     <use xlink:href="#Arial-BoldMT-69" x="1067.236328"/>
     <use xlink:href="#Arial-BoldMT-6e" x="1095.019531"/>
     <use xlink:href="#Arial-BoldMT-65" x="1156.103516"/>
    </g>
   </g>
   <g id="legend_2">
    <g id="patch_13">
     <path d="M 893.033125 635.3 
L 1093.9 635.3 
Q 1096.1 635.3 1096.1 633.1 
L 1096.1 602.8225 
Q 1096.1 600.6225 1093.9 600.6225 
L 893.033125 600.6225 
Q 890.833125 600.6225 890.833125 602.8225 
L 890.833125 633.1 
Q 890.833125 635.3 893.033125 635.3 
z
" style="fill: #eaeaf2; opacity: 0.8; stroke: #cccccc; stroke-linejoin: miter"/>
    </g>
    <g id="line2d_67">
     <path d="M 895.233125 609.046094 
L 906.233125 609.046094 
L 917.233125 609.046094 
" style="fill: none; stroke: #4c72b0; stroke-width: 1.5; stroke-linecap: round"/>
    </g>
    <g id="text_69">
     <!-- tweets received by American Air -->
     <g style="fill: #262626" transform="translate(926.033125 612.896094) scale(0.11 -0.11)">
      <defs>
       <path id="ArialMT-76" d="M 1344 0 
L 81 3319 
L 675 3319 
L 1388 1331 
Q 1503 1009 1600 663 
Q 1675 925 1809 1294 
L 2547 3319 
L 3125 3319 
L 1869 0 
L 1344 0 
z
" transform="scale(0.015625)"/>
       <path id="ArialMT-64" d="M 2575 0 
L 2575 419 
Q 2259 -75 1647 -75 
Q 1250 -75 917 144 
Q 584 363 401 755 
Q 219 1147 219 1656 
Q 219 2153 384 2558 
Q 550 2963 881 3178 
Q 1213 3394 1622 3394 
Q 1922 3394 2156 3267 
Q 2391 3141 2538 2938 
L 2538 4581 
L 3097 4581 
L 3097 0 
L 2575 0 
z
M 797 1656 
Q 797 1019 1065 703 
Q 1334 388 1700 388 
Q 2069 388 2326 689 
Q 2584 991 2584 1609 
Q 2584 2291 2321 2609 
Q 2059 2928 1675 2928 
Q 1300 2928 1048 2622 
Q 797 2316 797 1656 
z
" transform="scale(0.015625)"/>
      </defs>
      <use xlink:href="#ArialMT-74"/>
      <use xlink:href="#ArialMT-77" x="27.783203"/>
      <use xlink:href="#ArialMT-65" x="100"/>
      <use xlink:href="#ArialMT-65" x="155.615234"/>
      <use xlink:href="#ArialMT-74" x="211.230469"/>
      <use xlink:href="#ArialMT-73" x="239.013672"/>
      <use xlink:href="#ArialMT-20" x="289.013672"/>
      <use xlink:href="#ArialMT-72" x="316.796875"/>
      <use xlink:href="#ArialMT-65" x="350.097656"/>
      <use xlink:href="#ArialMT-63" x="405.712891"/>
      <use xlink:href="#ArialMT-65" x="455.712891"/>
      <use xlink:href="#ArialMT-69" x="511.328125"/>
      <use xlink:href="#ArialMT-76" x="533.544922"/>
      <use xlink:href="#ArialMT-65" x="583.544922"/>
      <use xlink:href="#ArialMT-64" x="639.160156"/>
      <use xlink:href="#ArialMT-20" x="694.775391"/>
      <use xlink:href="#ArialMT-62" x="722.558594"/>
      <use xlink:href="#ArialMT-79" x="778.173828"/>
      <use xlink:href="#ArialMT-20" x="828.173828"/>
      <use xlink:href="#ArialMT-41" x="850.457031"/>
      <use xlink:href="#ArialMT-6d" x="917.15625"/>
      <use xlink:href="#ArialMT-65" x="1000.457031"/>
      <use xlink:href="#ArialMT-72" x="1056.072266"/>
      <use xlink:href="#ArialMT-69" x="1089.373047"/>
      <use xlink:href="#ArialMT-63" x="1111.589844"/>
      <use xlink:href="#ArialMT-61" x="1161.589844"/>
      <use xlink:href="#ArialMT-6e" x="1217.205078"/>
      <use xlink:href="#ArialMT-20" x="1272.820312"/>
      <use xlink:href="#ArialMT-41" x="1295.103516"/>
      <use xlink:href="#ArialMT-69" x="1361.802734"/>
      <use xlink:href="#ArialMT-72" x="1384.019531"/>
     </g>
    </g>
    <g id="line2d_68">
     <path d="M 895.233125 624.734844 
L 906.233125 624.734844 
L 917.233125 624.734844 
" style="fill: none; stroke: #dd8452; stroke-width: 1.5; stroke-linecap: round"/>
    </g>
    <g id="text_70">
     <!-- tweets received by British Airways -->
     <g style="fill: #262626" transform="translate(926.033125 628.584844) scale(0.11 -0.11)">
      <use xlink:href="#ArialMT-74"/>
      <use xlink:href="#ArialMT-77" x="27.783203"/>
      <use xlink:href="#ArialMT-65" x="100"/>
      <use xlink:href="#ArialMT-65" x="155.615234"/>
      <use xlink:href="#ArialMT-74" x="211.230469"/>
      <use xlink:href="#ArialMT-73" x="239.013672"/>
      <use xlink:href="#ArialMT-20" x="289.013672"/>
      <use xlink:href="#ArialMT-72" x="316.796875"/>
      <use xlink:href="#ArialMT-65" x="350.097656"/>
      <use xlink:href="#ArialMT-63" x="405.712891"/>
      <use xlink:href="#ArialMT-65" x="455.712891"/>
      <use xlink:href="#ArialMT-69" x="511.328125"/>
      <use xlink:href="#ArialMT-76" x="533.544922"/>
      <use xlink:href="#ArialMT-65" x="583.544922"/>
      <use xlink:href="#ArialMT-64" x="639.160156"/>
      <use xlink:href="#ArialMT-20" x="694.775391"/>
      <use xlink:href="#ArialMT-62" x="722.558594"/>
      <use xlink:href="#ArialMT-79" x="778.173828"/>
      <use xlink:href="#ArialMT-20" x="828.173828"/>
      <use xlink:href="#ArialMT-42" x="855.957031"/>
      <use xlink:href="#ArialMT-72" x="922.65625"/>
      <use xlink:href="#ArialMT-69" x="955.957031"/>
      <use xlink:href="#ArialMT-74" x="978.173828"/>
      <use xlink:href="#ArialMT-69" x="1005.957031"/>
      <use xlink:href="#ArialMT-73" x="1028.173828"/>
      <use xlink:href="#ArialMT-68" x="1078.173828"/>
      <use xlink:href="#ArialMT-20" x="1133.789062"/>
      <use xlink:href="#ArialMT-41" x="1156.072266"/>
      <use xlink:href="#ArialMT-69" x="1222.771484"/>
      <use xlink:href="#ArialMT-72" x="1244.988281"/>
      <use xlink:href="#ArialMT-77" x="1278.289062"/>
      <use xlink:href="#ArialMT-61" x="1350.505859"/>
      <use xlink:href="#ArialMT-79" x="1406.121094"/>
      <use xlink:href="#ArialMT-73" x="1456.121094"/>
     </g>
    </g>
   </g>
  </g>
  <g id="text_71">
   <!-- comparison of hourly twitter interaction between British Airways and American Air -->
   <g style="fill: #262626" transform="translate(259.461563 27.503438) scale(0.18 -0.18)">
    <defs>
     <path id="Arial-BoldMT-70" d="M 434 3319 
L 1253 3319 
L 1253 2831 
Q 1413 3081 1684 3237 
Q 1956 3394 2288 3394 
Q 2866 3394 3269 2941 
Q 3672 2488 3672 1678 
Q 3672 847 3265 386 
Q 2859 -75 2281 -75 
Q 2006 -75 1782 34 
Q 1559 144 1313 409 
L 1313 -1263 
L 434 -1263 
L 434 3319 
z
M 1303 1716 
Q 1303 1156 1525 889 
Q 1747 622 2066 622 
Q 2372 622 2575 867 
Q 2778 1113 2778 1672 
Q 2778 2194 2568 2447 
Q 2359 2700 2050 2700 
Q 1728 2700 1515 2451 
Q 1303 2203 1303 1716 
z
" transform="scale(0.015625)"/>
     <path id="Arial-BoldMT-42" d="M 469 4581 
L 2300 4581 
Q 2844 4581 3111 4536 
Q 3378 4491 3589 4347 
Q 3800 4203 3940 3964 
Q 4081 3725 4081 3428 
Q 4081 3106 3907 2837 
Q 3734 2569 3438 2434 
Q 3856 2313 4081 2019 
Q 4306 1725 4306 1328 
Q 4306 1016 4161 720 
Q 4016 425 3764 248 
Q 3513 72 3144 31 
Q 2913 6 2028 0 
L 469 0 
L 469 4581 
z
M 1394 3819 
L 1394 2759 
L 2000 2759 
Q 2541 2759 2672 2775 
Q 2909 2803 3045 2939 
Q 3181 3075 3181 3297 
Q 3181 3509 3064 3642 
Q 2947 3775 2716 3803 
Q 2578 3819 1925 3819 
L 1394 3819 
z
M 1394 1997 
L 1394 772 
L 2250 772 
Q 2750 772 2884 800 
Q 3091 838 3220 983 
Q 3350 1128 3350 1372 
Q 3350 1578 3250 1722 
Q 3150 1866 2961 1931 
Q 2772 1997 2141 1997 
L 1394 1997 
z
" transform="scale(0.015625)"/>
     <path id="Arial-BoldMT-41" d="M 4597 0 
L 3591 0 
L 3191 1041 
L 1359 1041 
L 981 0 
L 0 0 
L 1784 4581 
L 2763 4581 
L 4597 0 
z
M 2894 1813 
L 2263 3513 
L 1644 1813 
L 2894 1813 
z
" transform="scale(0.015625)"/>
    </defs>
    <use xlink:href="#Arial-BoldMT-63"/>
    <use xlink:href="#Arial-BoldMT-6f" x="55.615234"/>
    <use xlink:href="#Arial-BoldMT-6d" x="116.699219"/>
    <use xlink:href="#Arial-BoldMT-70" x="205.615234"/>
    <use xlink:href="#Arial-BoldMT-61" x="266.699219"/>
    <use xlink:href="#Arial-BoldMT-72" x="322.314453"/>
    <use xlink:href="#Arial-BoldMT-69" x="361.230469"/>
    <use xlink:href="#Arial-BoldMT-73" x="389.013672"/>
    <use xlink:href="#Arial-BoldMT-6f" x="444.628906"/>
    <use xlink:href="#Arial-BoldMT-6e" x="505.712891"/>
    <use xlink:href="#Arial-BoldMT-20" x="566.796875"/>
    <use xlink:href="#Arial-BoldMT-6f" x="594.580078"/>
    <use xlink:href="#Arial-BoldMT-66" x="655.664062"/>
    <use xlink:href="#Arial-BoldMT-20" x="688.964844"/>
    <use xlink:href="#Arial-BoldMT-68" x="716.748047"/>
    <use xlink:href="#Arial-BoldMT-6f" x="777.832031"/>
    <use xlink:href="#Arial-BoldMT-75" x="838.916016"/>
    <use xlink:href="#Arial-BoldMT-72" x="900"/>
    <use xlink:href="#Arial-BoldMT-6c" x="938.916016"/>
    <use xlink:href="#Arial-BoldMT-79" x="966.699219"/>
    <use xlink:href="#Arial-BoldMT-20" x="1022.314453"/>
    <use xlink:href="#Arial-BoldMT-74" x="1050.097656"/>
    <use xlink:href="#Arial-BoldMT-77" x="1083.398438"/>
    <use xlink:href="#Arial-BoldMT-69" x="1161.181641"/>
    <use xlink:href="#Arial-BoldMT-74" x="1188.964844"/>
    <use xlink:href="#Arial-BoldMT-74" x="1222.265625"/>
    <use xlink:href="#Arial-BoldMT-65" x="1255.566406"/>
    <use xlink:href="#Arial-BoldMT-72" x="1311.181641"/>
    <use xlink:href="#Arial-BoldMT-20" x="1350.097656"/>
    <use xlink:href="#Arial-BoldMT-69" x="1377.880859"/>
    <use xlink:href="#Arial-BoldMT-6e" x="1405.664062"/>
    <use xlink:href="#Arial-BoldMT-74" x="1466.748047"/>
    <use xlink:href="#Arial-BoldMT-65" x="1500.048828"/>
    <use xlink:href="#Arial-BoldMT-72" x="1555.664062"/>
    <use xlink:href="#Arial-BoldMT-61" x="1594.580078"/>
    <use xlink:href="#Arial-BoldMT-63" x="1650.195312"/>
    <use xlink:href="#Arial-BoldMT-74" x="1705.810547"/>
    <use xlink:href="#Arial-BoldMT-69" x="1739.111328"/>
    <use xlink:href="#Arial-BoldMT-6f" x="1766.894531"/>
    <use xlink:href="#Arial-BoldMT-6e" x="1827.978516"/>
    <use xlink:href="#Arial-BoldMT-20" x="1889.0625"/>
    <use xlink:href="#Arial-BoldMT-62" x="1916.845703"/>
    <use xlink:href="#Arial-BoldMT-65" x="1977.929688"/>
    <use xlink:href="#Arial-BoldMT-74" x="2033.544922"/>
    <use xlink:href="#Arial-BoldMT-77" x="2066.845703"/>
    <use xlink:href="#Arial-BoldMT-65" x="2144.628906"/>
    <use xlink:href="#Arial-BoldMT-65" x="2200.244141"/>
    <use xlink:href="#Arial-BoldMT-6e" x="2255.859375"/>
    <use xlink:href="#Arial-BoldMT-20" x="2316.943359"/>
    <use xlink:href="#Arial-BoldMT-42" x="2344.726562"/>
    <use xlink:href="#Arial-BoldMT-72" x="2416.943359"/>
    <use xlink:href="#Arial-BoldMT-69" x="2455.859375"/>
    <use xlink:href="#Arial-BoldMT-74" x="2483.642578"/>
    <use xlink:href="#Arial-BoldMT-69" x="2516.943359"/>
    <use xlink:href="#Arial-BoldMT-73" x="2544.726562"/>
    <use xlink:href="#Arial-BoldMT-68" x="2600.341797"/>
    <use xlink:href="#Arial-BoldMT-20" x="2661.425781"/>
    <use xlink:href="#Arial-BoldMT-41" x="2685.458984"/>
    <use xlink:href="#Arial-BoldMT-69" x="2757.675781"/>
    <use xlink:href="#Arial-BoldMT-72" x="2785.458984"/>
    <use xlink:href="#Arial-BoldMT-77" x="2824.375"/>
    <use xlink:href="#Arial-BoldMT-61" x="2902.158203"/>
    <use xlink:href="#Arial-BoldMT-79" x="2957.773438"/>
    <use xlink:href="#Arial-BoldMT-73" x="3013.388672"/>
    <use xlink:href="#Arial-BoldMT-20" x="3069.003906"/>
    <use xlink:href="#Arial-BoldMT-61" x="3096.787109"/>
    <use xlink:href="#Arial-BoldMT-6e" x="3152.402344"/>
    <use xlink:href="#Arial-BoldMT-64" x="3213.486328"/>
    <use xlink:href="#Arial-BoldMT-20" x="3274.570312"/>
    <use xlink:href="#Arial-BoldMT-41" x="3298.603516"/>
    <use xlink:href="#Arial-BoldMT-6d" x="3370.820312"/>
    <use xlink:href="#Arial-BoldMT-65" x="3459.736328"/>
    <use xlink:href="#Arial-BoldMT-72" x="3515.351562"/>
    <use xlink:href="#Arial-BoldMT-69" x="3554.267578"/>
    <use xlink:href="#Arial-BoldMT-63" x="3582.050781"/>
    <use xlink:href="#Arial-BoldMT-61" x="3637.666016"/>
    <use xlink:href="#Arial-BoldMT-6e" x="3693.28125"/>
    <use xlink:href="#Arial-BoldMT-20" x="3754.365234"/>
    <use xlink:href="#Arial-BoldMT-41" x="3778.398438"/>
    <use xlink:href="#Arial-BoldMT-69" x="3850.615234"/>
    <use xlink:href="#Arial-BoldMT-72" x="3878.398438"/>
   </g>
  </g>
 </g>
 <defs>
  <clipPath id="p6557ce96cb">
   <rect x="153" y="86.4" width="948.6" height="241.043478"/>
  </clipPath>
  <clipPath id="p89e8dee51e">
   <rect x="153" y="399.756522" width="948.6" height="241.043478"/>
  </clipPath>
 </defs>
</svg>
