<?xml version="1.0" encoding="utf-8" standalone="no"?>
<!DOCTYPE svg PUBLIC "-//W3C//DTD SVG 1.1//EN"
  "http://www.w3.org/Graphics/SVG/1.1/DTD/svg11.dtd">
<svg xmlns:xlink="http://www.w3.org/1999/xlink" width="460.8pt" height="345.6pt" viewBox="0 0 460.8 345.6" xmlns="http://www.w3.org/2000/svg" version="1.1">
 <metadata>
  <rdf:RDF xmlns:dc="http://purl.org/dc/elements/1.1/" xmlns:cc="http://creativecommons.org/ns#" xmlns:rdf="http://www.w3.org/1999/02/22-rdf-syntax-ns#">
   <cc:Work>
    <dc:type rdf:resource="http://purl.org/dc/dcmitype/StillImage"/>
    <dc:date>2023-06-15T11:11:16.983531</dc:date>
    <dc:format>image/svg+xml</dc:format>
    <dc:creator>
     <cc:Agent>
      <dc:title>Matplotlib v3.7.1, https://matplotlib.org/</dc:title>
     </cc:Agent>
    </dc:creator>
   </cc:Work>
  </rdf:RDF>
 </metadata>
 <defs>
  <style type="text/css">*{stroke-linejoin: round; stroke-linecap: butt}</style>
 </defs>
 <g id="figure_1">
  <g id="patch_1">
   <path d="M 0 345.6 
L 460.8 345.6 
L 460.8 0 
L 0 0 
z
" style="fill: #ffffff"/>
  </g>
  <g id="axes_1">
   <g id="patch_2">
    <path d="M 62.39 313.72 
L 450 313.72 
L 450 28.32 
L 62.39 28.32 
z
" style="fill: #ffffff"/>
   </g>
   <g id="matplotlib.axis_1">
    <g id="xtick_1"/>
    <g id="text_1">
     <!-- EtihadAirways -->
     <g transform="translate(220.697344 332.318437) scale(0.1 -0.1)">
      <defs>
       <path id="DejaVuSans-45" d="M 628 4666 
L 3578 4666 
L 3578 4134 
L 1259 4134 
L 1259 2753 
L 3481 2753 
L 3481 2222 
L 1259 2222 
L 1259 531 
L 3634 531 
L 3634 0 
L 628 0 
L 628 4666 
z
" transform="scale(0.015625)"/>
       <path id="DejaVuSans-74" d="M 1172 4494 
L 1172 3500 
L 2356 3500 
L 2356 3053 
L 1172 3053 
L 1172 1153 
Q 1172 725 1289 603 
Q 1406 481 1766 481 
L 2356 481 
L 2356 0 
L 1766 0 
Q 1100 0 847 248 
Q 594 497 594 1153 
L 594 3053 
L 172 3053 
L 172 3500 
L 594 3500 
L 594 4494 
L 1172 4494 
z
" transform="scale(0.015625)"/>
       <path id="DejaVuSans-69" d="M 603 3500 
L 1178 3500 
L 1178 0 
L 603 0 
L 603 3500 
z
M 603 4863 
L 1178 4863 
L 1178 4134 
L 603 4134 
L 603 4863 
z
" transform="scale(0.015625)"/>
       <path id="DejaVuSans-68" d="M 3513 2113 
L 3513 0 
L 2938 0 
L 2938 2094 
Q 2938 2591 2744 2837 
Q 2550 3084 2163 3084 
Q 1697 3084 1428 2787 
Q 1159 2491 1159 1978 
L 1159 0 
L 581 0 
L 581 4863 
L 1159 4863 
L 1159 2956 
Q 1366 3272 1645 3428 
Q 1925 3584 2291 3584 
Q 2894 3584 3203 3211 
Q 3513 2838 3513 2113 
z
" transform="scale(0.015625)"/>
       <path id="DejaVuSans-61" d="M 2194 1759 
Q 1497 1759 1228 1600 
Q 959 1441 959 1056 
Q 959 750 1161 570 
Q 1363 391 1709 391 
Q 2188 391 2477 730 
Q 2766 1069 2766 1631 
L 2766 1759 
L 2194 1759 
z
M 3341 1997 
L 3341 0 
L 2766 0 
L 2766 531 
Q 2569 213 2275 61 
Q 1981 -91 1556 -91 
Q 1019 -91 701 211 
Q 384 513 384 1019 
Q 384 1609 779 1909 
Q 1175 2209 1959 2209 
L 2766 2209 
L 2766 2266 
Q 2766 2663 2505 2880 
Q 2244 3097 1772 3097 
Q 1472 3097 1187 3025 
Q 903 2953 641 2809 
L 641 3341 
Q 956 3463 1253 3523 
Q 1550 3584 1831 3584 
Q 2591 3584 2966 3190 
Q 3341 2797 3341 1997 
z
" transform="scale(0.015625)"/>
       <path id="DejaVuSans-64" d="M 2906 2969 
L 2906 4863 
L 3481 4863 
L 3481 0 
L 2906 0 
L 2906 525 
Q 2725 213 2448 61 
Q 2172 -91 1784 -91 
Q 1150 -91 751 415 
Q 353 922 353 1747 
Q 353 2572 751 3078 
Q 1150 3584 1784 3584 
Q 2172 3584 2448 3432 
Q 2725 3281 2906 2969 
z
M 947 1747 
Q 947 1113 1208 752 
Q 1469 391 1925 391 
Q 2381 391 2643 752 
Q 2906 1113 2906 1747 
Q 2906 2381 2643 2742 
Q 2381 3103 1925 3103 
Q 1469 3103 1208 2742 
Q 947 2381 947 1747 
z
" transform="scale(0.015625)"/>
       <path id="DejaVuSans-41" d="M 2188 4044 
L 1331 1722 
L 3047 1722 
L 2188 4044 
z
M 1831 4666 
L 2547 4666 
L 4325 0 
L 3669 0 
L 3244 1197 
L 1141 1197 
L 716 0 
L 50 0 
L 1831 4666 
z
" transform="scale(0.015625)"/>
       <path id="DejaVuSans-72" d="M 2631 2963 
Q 2534 3019 2420 3045 
Q 2306 3072 2169 3072 
Q 1681 3072 1420 2755 
Q 1159 2438 1159 1844 
L 1159 0 
L 581 0 
L 581 3500 
L 1159 3500 
L 1159 2956 
Q 1341 3275 1631 3429 
Q 1922 3584 2338 3584 
Q 2397 3584 2469 3576 
Q 2541 3569 2628 3553 
L 2631 2963 
z
" transform="scale(0.015625)"/>
       <path id="DejaVuSans-77" d="M 269 3500 
L 844 3500 
L 1563 769 
L 2278 3500 
L 2956 3500 
L 3675 769 
L 4391 3500 
L 4966 3500 
L 4050 0 
L 3372 0 
L 2619 2869 
L 1863 0 
L 1184 0 
L 269 3500 
z
" transform="scale(0.015625)"/>
       <path id="DejaVuSans-79" d="M 2059 -325 
Q 1816 -950 1584 -1140 
Q 1353 -1331 966 -1331 
L 506 -1331 
L 506 -850 
L 844 -850 
Q 1081 -850 1212 -737 
Q 1344 -625 1503 -206 
L 1606 56 
L 191 3500 
L 800 3500 
L 1894 763 
L 2988 3500 
L 3597 3500 
L 2059 -325 
z
" transform="scale(0.015625)"/>
       <path id="DejaVuSans-73" d="M 2834 3397 
L 2834 2853 
Q 2591 2978 2328 3040 
Q 2066 3103 1784 3103 
Q 1356 3103 1142 2972 
Q 928 2841 928 2578 
Q 928 2378 1081 2264 
Q 1234 2150 1697 2047 
L 1894 2003 
Q 2506 1872 2764 1633 
Q 3022 1394 3022 966 
Q 3022 478 2636 193 
Q 2250 -91 1575 -91 
Q 1294 -91 989 -36 
Q 684 19 347 128 
L 347 722 
Q 666 556 975 473 
Q 1284 391 1588 391 
Q 1994 391 2212 530 
Q 2431 669 2431 922 
Q 2431 1156 2273 1281 
Q 2116 1406 1581 1522 
L 1381 1569 
Q 847 1681 609 1914 
Q 372 2147 372 2553 
Q 372 3047 722 3315 
Q 1072 3584 1716 3584 
Q 2034 3584 2315 3537 
Q 2597 3491 2834 3397 
z
" transform="scale(0.015625)"/>
      </defs>
      <use xlink:href="#DejaVuSans-45"/>
      <use xlink:href="#DejaVuSans-74" x="63.183594"/>
      <use xlink:href="#DejaVuSans-69" x="102.392578"/>
      <use xlink:href="#DejaVuSans-68" x="130.175781"/>
      <use xlink:href="#DejaVuSans-61" x="193.554688"/>
      <use xlink:href="#DejaVuSans-64" x="254.833984"/>
      <use xlink:href="#DejaVuSans-41" x="318.310547"/>
      <use xlink:href="#DejaVuSans-69" x="386.71875"/>
      <use xlink:href="#DejaVuSans-72" x="414.501953"/>
      <use xlink:href="#DejaVuSans-77" x="455.615234"/>
      <use xlink:href="#DejaVuSans-61" x="537.402344"/>
      <use xlink:href="#DejaVuSans-79" x="598.681641"/>
      <use xlink:href="#DejaVuSans-73" x="657.861328"/>
     </g>
    </g>
   </g>
   <g id="matplotlib.axis_2">
    <g id="ytick_1">
     <g id="line2d_1">
      <defs>
       <path id="maacfae7827" d="M 0 0 
L -3.5 0 
" style="stroke: #000000; stroke-width: 0.8"/>
      </defs>
      <g>
       <use xlink:href="#maacfae7827" x="62.39" y="303.227188" style="stroke: #000000; stroke-width: 0.8"/>
      </g>
     </g>
     <g id="text_2">
      <!-- −1.00 -->
      <g transform="translate(24.744688 307.026407) scale(0.1 -0.1)">
       <defs>
        <path id="DejaVuSans-2212" d="M 678 2272 
L 4684 2272 
L 4684 1741 
L 678 1741 
L 678 2272 
z
" transform="scale(0.015625)"/>
        <path id="DejaVuSans-31" d="M 794 531 
L 1825 531 
L 1825 4091 
L 703 3866 
L 703 4441 
L 1819 4666 
L 2450 4666 
L 2450 531 
L 3481 531 
L 3481 0 
L 794 0 
L 794 531 
z
" transform="scale(0.015625)"/>
        <path id="DejaVuSans-2e" d="M 684 794 
L 1344 794 
L 1344 0 
L 684 0 
L 684 794 
z
" transform="scale(0.015625)"/>
        <path id="DejaVuSans-30" d="M 2034 4250 
Q 1547 4250 1301 3770 
Q 1056 3291 1056 2328 
Q 1056 1369 1301 889 
Q 1547 409 2034 409 
Q 2525 409 2770 889 
Q 3016 1369 3016 2328 
Q 3016 3291 2770 3770 
Q 2525 4250 2034 4250 
z
M 2034 4750 
Q 2819 4750 3233 4129 
Q 3647 3509 3647 2328 
Q 3647 1150 3233 529 
Q 2819 -91 2034 -91 
Q 1250 -91 836 529 
Q 422 1150 422 2328 
Q 422 3509 836 4129 
Q 1250 4750 2034 4750 
z
" transform="scale(0.015625)"/>
       </defs>
       <use xlink:href="#DejaVuSans-2212"/>
       <use xlink:href="#DejaVuSans-31" x="83.789062"/>
       <use xlink:href="#DejaVuSans-2e" x="147.412109"/>
       <use xlink:href="#DejaVuSans-30" x="179.199219"/>
       <use xlink:href="#DejaVuSans-30" x="242.822266"/>
      </g>
     </g>
    </g>
    <g id="ytick_2">
     <g id="line2d_2">
      <g>
       <use xlink:href="#maacfae7827" x="62.39" y="270.249591" style="stroke: #000000; stroke-width: 0.8"/>
      </g>
     </g>
     <g id="text_3">
      <!-- −0.75 -->
      <g transform="translate(24.744688 274.048809) scale(0.1 -0.1)">
       <defs>
        <path id="DejaVuSans-37" d="M 525 4666 
L 3525 4666 
L 3525 4397 
L 1831 0 
L 1172 0 
L 2766 4134 
L 525 4134 
L 525 4666 
z
" transform="scale(0.015625)"/>
        <path id="DejaVuSans-35" d="M 691 4666 
L 3169 4666 
L 3169 4134 
L 1269 4134 
L 1269 2991 
Q 1406 3038 1543 3061 
Q 1681 3084 1819 3084 
Q 2600 3084 3056 2656 
Q 3513 2228 3513 1497 
Q 3513 744 3044 326 
Q 2575 -91 1722 -91 
Q 1428 -91 1123 -41 
Q 819 9 494 109 
L 494 744 
Q 775 591 1075 516 
Q 1375 441 1709 441 
Q 2250 441 2565 725 
Q 2881 1009 2881 1497 
Q 2881 1984 2565 2268 
Q 2250 2553 1709 2553 
Q 1456 2553 1204 2497 
Q 953 2441 691 2322 
L 691 4666 
z
" transform="scale(0.015625)"/>
       </defs>
       <use xlink:href="#DejaVuSans-2212"/>
       <use xlink:href="#DejaVuSans-30" x="83.789062"/>
       <use xlink:href="#DejaVuSans-2e" x="147.412109"/>
       <use xlink:href="#DejaVuSans-37" x="179.199219"/>
       <use xlink:href="#DejaVuSans-35" x="242.822266"/>
      </g>
     </g>
    </g>
    <g id="ytick_3">
     <g id="line2d_3">
      <g>
       <use xlink:href="#maacfae7827" x="62.39" y="237.271993" style="stroke: #000000; stroke-width: 0.8"/>
      </g>
     </g>
     <g id="text_4">
      <!-- −0.50 -->
      <g transform="translate(24.744688 241.071212) scale(0.1 -0.1)">
       <use xlink:href="#DejaVuSans-2212"/>
       <use xlink:href="#DejaVuSans-30" x="83.789062"/>
       <use xlink:href="#DejaVuSans-2e" x="147.412109"/>
       <use xlink:href="#DejaVuSans-35" x="179.199219"/>
       <use xlink:href="#DejaVuSans-30" x="242.822266"/>
      </g>
     </g>
    </g>
    <g id="ytick_4">
     <g id="line2d_4">
      <g>
       <use xlink:href="#maacfae7827" x="62.39" y="204.294396" style="stroke: #000000; stroke-width: 0.8"/>
      </g>
     </g>
     <g id="text_5">
      <!-- −0.25 -->
      <g transform="translate(24.744688 208.093615) scale(0.1 -0.1)">
       <defs>
        <path id="DejaVuSans-32" d="M 1228 531 
L 3431 531 
L 3431 0 
L 469 0 
L 469 531 
Q 828 903 1448 1529 
Q 2069 2156 2228 2338 
Q 2531 2678 2651 2914 
Q 2772 3150 2772 3378 
Q 2772 3750 2511 3984 
Q 2250 4219 1831 4219 
Q 1534 4219 1204 4116 
Q 875 4013 500 3803 
L 500 4441 
Q 881 4594 1212 4672 
Q 1544 4750 1819 4750 
Q 2544 4750 2975 4387 
Q 3406 4025 3406 3419 
Q 3406 3131 3298 2873 
Q 3191 2616 2906 2266 
Q 2828 2175 2409 1742 
Q 1991 1309 1228 531 
z
" transform="scale(0.015625)"/>
       </defs>
       <use xlink:href="#DejaVuSans-2212"/>
       <use xlink:href="#DejaVuSans-30" x="83.789062"/>
       <use xlink:href="#DejaVuSans-2e" x="147.412109"/>
       <use xlink:href="#DejaVuSans-32" x="179.199219"/>
       <use xlink:href="#DejaVuSans-35" x="242.822266"/>
      </g>
     </g>
    </g>
    <g id="ytick_5">
     <g id="line2d_5">
      <g>
       <use xlink:href="#maacfae7827" x="62.39" y="171.316798" style="stroke: #000000; stroke-width: 0.8"/>
      </g>
     </g>
     <g id="text_6">
      <!-- 0.00 -->
      <g transform="translate(33.124375 175.116017) scale(0.1 -0.1)">
       <use xlink:href="#DejaVuSans-30"/>
       <use xlink:href="#DejaVuSans-2e" x="63.623047"/>
       <use xlink:href="#DejaVuSans-30" x="95.410156"/>
       <use xlink:href="#DejaVuSans-30" x="159.033203"/>
      </g>
     </g>
    </g>
    <g id="ytick_6">
     <g id="line2d_6">
      <g>
       <use xlink:href="#maacfae7827" x="62.39" y="138.339201" style="stroke: #000000; stroke-width: 0.8"/>
      </g>
     </g>
     <g id="text_7">
      <!-- 0.25 -->
      <g transform="translate(33.124375 142.13842) scale(0.1 -0.1)">
       <use xlink:href="#DejaVuSans-30"/>
       <use xlink:href="#DejaVuSans-2e" x="63.623047"/>
       <use xlink:href="#DejaVuSans-32" x="95.410156"/>
       <use xlink:href="#DejaVuSans-35" x="159.033203"/>
      </g>
     </g>
    </g>
    <g id="ytick_7">
     <g id="line2d_7">
      <g>
       <use xlink:href="#maacfae7827" x="62.39" y="105.361604" style="stroke: #000000; stroke-width: 0.8"/>
      </g>
     </g>
     <g id="text_8">
      <!-- 0.50 -->
      <g transform="translate(33.124375 109.160822) scale(0.1 -0.1)">
       <use xlink:href="#DejaVuSans-30"/>
       <use xlink:href="#DejaVuSans-2e" x="63.623047"/>
       <use xlink:href="#DejaVuSans-35" x="95.410156"/>
       <use xlink:href="#DejaVuSans-30" x="159.033203"/>
      </g>
     </g>
    </g>
    <g id="ytick_8">
     <g id="line2d_8">
      <g>
       <use xlink:href="#maacfae7827" x="62.39" y="72.384006" style="stroke: #000000; stroke-width: 0.8"/>
      </g>
     </g>
     <g id="text_9">
      <!-- 0.75 -->
      <g transform="translate(33.124375 76.183225) scale(0.1 -0.1)">
       <use xlink:href="#DejaVuSans-30"/>
       <use xlink:href="#DejaVuSans-2e" x="63.623047"/>
       <use xlink:href="#DejaVuSans-37" x="95.410156"/>
       <use xlink:href="#DejaVuSans-35" x="159.033203"/>
      </g>
     </g>
    </g>
    <g id="ytick_9">
     <g id="line2d_9">
      <g>
       <use xlink:href="#maacfae7827" x="62.39" y="39.406409" style="stroke: #000000; stroke-width: 0.8"/>
      </g>
     </g>
     <g id="text_10">
      <!-- 1.00 -->
      <g transform="translate(33.124375 43.205627) scale(0.1 -0.1)">
       <use xlink:href="#DejaVuSans-31"/>
       <use xlink:href="#DejaVuSans-2e" x="63.623047"/>
       <use xlink:href="#DejaVuSans-30" x="95.410156"/>
       <use xlink:href="#DejaVuSans-30" x="159.033203"/>
      </g>
     </g>
    </g>
    <g id="text_11">
     <!-- Sentiment -->
     <g transform="translate(18.665 196.864531) rotate(-90) scale(0.1 -0.1)">
      <defs>
       <path id="DejaVuSans-53" d="M 3425 4513 
L 3425 3897 
Q 3066 4069 2747 4153 
Q 2428 4238 2131 4238 
Q 1616 4238 1336 4038 
Q 1056 3838 1056 3469 
Q 1056 3159 1242 3001 
Q 1428 2844 1947 2747 
L 2328 2669 
Q 3034 2534 3370 2195 
Q 3706 1856 3706 1288 
Q 3706 609 3251 259 
Q 2797 -91 1919 -91 
Q 1588 -91 1214 -16 
Q 841 59 441 206 
L 441 856 
Q 825 641 1194 531 
Q 1563 422 1919 422 
Q 2459 422 2753 634 
Q 3047 847 3047 1241 
Q 3047 1584 2836 1778 
Q 2625 1972 2144 2069 
L 1759 2144 
Q 1053 2284 737 2584 
Q 422 2884 422 3419 
Q 422 4038 858 4394 
Q 1294 4750 2059 4750 
Q 2388 4750 2728 4690 
Q 3069 4631 3425 4513 
z
" transform="scale(0.015625)"/>
       <path id="DejaVuSans-65" d="M 3597 1894 
L 3597 1613 
L 953 1613 
Q 991 1019 1311 708 
Q 1631 397 2203 397 
Q 2534 397 2845 478 
Q 3156 559 3463 722 
L 3463 178 
Q 3153 47 2828 -22 
Q 2503 -91 2169 -91 
Q 1331 -91 842 396 
Q 353 884 353 1716 
Q 353 2575 817 3079 
Q 1281 3584 2069 3584 
Q 2775 3584 3186 3129 
Q 3597 2675 3597 1894 
z
M 3022 2063 
Q 3016 2534 2758 2815 
Q 2500 3097 2075 3097 
Q 1594 3097 1305 2825 
Q 1016 2553 972 2059 
L 3022 2063 
z
" transform="scale(0.015625)"/>
       <path id="DejaVuSans-6e" d="M 3513 2113 
L 3513 0 
L 2938 0 
L 2938 2094 
Q 2938 2591 2744 2837 
Q 2550 3084 2163 3084 
Q 1697 3084 1428 2787 
Q 1159 2491 1159 1978 
L 1159 0 
L 581 0 
L 581 3500 
L 1159 3500 
L 1159 2956 
Q 1366 3272 1645 3428 
Q 1925 3584 2291 3584 
Q 2894 3584 3203 3211 
Q 3513 2838 3513 2113 
z
" transform="scale(0.015625)"/>
       <path id="DejaVuSans-6d" d="M 3328 2828 
Q 3544 3216 3844 3400 
Q 4144 3584 4550 3584 
Q 5097 3584 5394 3201 
Q 5691 2819 5691 2113 
L 5691 0 
L 5113 0 
L 5113 2094 
Q 5113 2597 4934 2840 
Q 4756 3084 4391 3084 
Q 3944 3084 3684 2787 
Q 3425 2491 3425 1978 
L 3425 0 
L 2847 0 
L 2847 2094 
Q 2847 2600 2669 2842 
Q 2491 3084 2119 3084 
Q 1678 3084 1418 2786 
Q 1159 2488 1159 1978 
L 1159 0 
L 581 0 
L 581 3500 
L 1159 3500 
L 1159 2956 
Q 1356 3278 1631 3431 
Q 1906 3584 2284 3584 
Q 2666 3584 2933 3390 
Q 3200 3197 3328 2828 
z
" transform="scale(0.015625)"/>
      </defs>
      <use xlink:href="#DejaVuSans-53"/>
      <use xlink:href="#DejaVuSans-65" x="63.476562"/>
      <use xlink:href="#DejaVuSans-6e" x="125"/>
      <use xlink:href="#DejaVuSans-74" x="188.378906"/>
      <use xlink:href="#DejaVuSans-69" x="227.587891"/>
      <use xlink:href="#DejaVuSans-6d" x="255.371094"/>
      <use xlink:href="#DejaVuSans-65" x="352.783203"/>
      <use xlink:href="#DejaVuSans-6e" x="414.306641"/>
      <use xlink:href="#DejaVuSans-74" x="477.685547"/>
     </g>
    </g>
   </g>
   <g id="line2d_10">
    <path d="M 227.12425 171.316798 
L 285.26575 171.316798 
L 285.26575 95.877247 
L 227.12425 95.877247 
L 227.12425 171.316798 
" clip-path="url(#pa93c0b0f1f)" style="fill: none; stroke: #1f77b4; stroke-linecap: square"/>
   </g>
   <g id="line2d_11">
    <path d="M 256.195 171.316798 
L 256.195 284.45634 
" clip-path="url(#pa93c0b0f1f)" style="fill: none; stroke: #1f77b4; stroke-linecap: square"/>
   </g>
   <g id="line2d_12">
    <path d="M 256.195 95.877247 
L 256.195 41.292727 
" clip-path="url(#pa93c0b0f1f)" style="fill: none; stroke: #1f77b4; stroke-linecap: square"/>
   </g>
   <g id="line2d_13">
    <path d="M 241.659625 284.45634 
L 270.730375 284.45634 
" clip-path="url(#pa93c0b0f1f)" style="fill: none; stroke: #1f77b4; stroke-linecap: square"/>
   </g>
   <g id="line2d_14">
    <path d="M 241.659625 41.292727 
L 270.730375 41.292727 
" clip-path="url(#pa93c0b0f1f)" style="fill: none; stroke: #1f77b4; stroke-linecap: square"/>
   </g>
   <g id="line2d_15">
    <defs>
     <path id="m489afb44b6" d="M 0 3 
C 0.795609 3 1.55874 2.683901 2.12132 2.12132 
C 2.683901 1.55874 3 0.795609 3 0 
C 3 -0.795609 2.683901 -1.55874 2.12132 -2.12132 
C 1.55874 -2.683901 0.795609 -3 0 -3 
C -0.795609 -3 -1.55874 -2.683901 -2.12132 -2.12132 
C -2.683901 -1.55874 -3 -0.795609 -3 0 
C -3 0.795609 -2.683901 1.55874 -2.12132 2.12132 
C -1.55874 2.683901 -0.795609 3 0 3 
z
" style="stroke: #000000"/>
    </defs>
    <g clip-path="url(#pa93c0b0f1f)">
     <use xlink:href="#m489afb44b6" x="256.195" y="296.64486" style="fill-opacity: 0; stroke: #000000"/>
     <use xlink:href="#m489afb44b6" x="256.195" y="285.933736" style="fill-opacity: 0; stroke: #000000"/>
     <use xlink:href="#m489afb44b6" x="256.195" y="284.865262" style="fill-opacity: 0; stroke: #000000"/>
     <use xlink:href="#m489afb44b6" x="256.195" y="284.865262" style="fill-opacity: 0; stroke: #000000"/>
     <use xlink:href="#m489afb44b6" x="256.195" y="292.885414" style="fill-opacity: 0; stroke: #000000"/>
     <use xlink:href="#m489afb44b6" x="256.195" y="289.165541" style="fill-opacity: 0; stroke: #000000"/>
     <use xlink:href="#m489afb44b6" x="256.195" y="292.4633" style="fill-opacity: 0; stroke: #000000"/>
     <use xlink:href="#m489afb44b6" x="256.195" y="284.812498" style="fill-opacity: 0; stroke: #000000"/>
     <use xlink:href="#m489afb44b6" x="256.195" y="286.026073" style="fill-opacity: 0; stroke: #000000"/>
     <use xlink:href="#m489afb44b6" x="256.195" y="293.281145" style="fill-opacity: 0; stroke: #000000"/>
     <use xlink:href="#m489afb44b6" x="256.195" y="290.576982" style="fill-opacity: 0; stroke: #000000"/>
     <use xlink:href="#m489afb44b6" x="256.195" y="292.344581" style="fill-opacity: 0; stroke: #000000"/>
     <use xlink:href="#m489afb44b6" x="256.195" y="289.600845" style="fill-opacity: 0; stroke: #000000"/>
     <use xlink:href="#m489afb44b6" x="256.195" y="287.120929" style="fill-opacity: 0; stroke: #000000"/>
     <use xlink:href="#m489afb44b6" x="256.195" y="289.904239" style="fill-opacity: 0; stroke: #000000"/>
     <use xlink:href="#m489afb44b6" x="256.195" y="285.22142" style="fill-opacity: 0; stroke: #000000"/>
     <use xlink:href="#m489afb44b6" x="256.195" y="287.450705" style="fill-opacity: 0; stroke: #000000"/>
     <use xlink:href="#m489afb44b6" x="256.195" y="286.75158" style="fill-opacity: 0; stroke: #000000"/>
     <use xlink:href="#m489afb44b6" x="256.195" y="286.316276" style="fill-opacity: 0; stroke: #000000"/>
     <use xlink:href="#m489afb44b6" x="256.195" y="285.089509" style="fill-opacity: 0; stroke: #000000"/>
     <use xlink:href="#m489afb44b6" x="256.195" y="290.93314" style="fill-opacity: 0; stroke: #000000"/>
     <use xlink:href="#m489afb44b6" x="256.195" y="288.387269" style="fill-opacity: 0; stroke: #000000"/>
     <use xlink:href="#m489afb44b6" x="256.195" y="285.366521" style="fill-opacity: 0; stroke: #000000"/>
     <use xlink:href="#m489afb44b6" x="256.195" y="285.815017" style="fill-opacity: 0; stroke: #000000"/>
     <use xlink:href="#m489afb44b6" x="256.195" y="293.083279" style="fill-opacity: 0; stroke: #000000"/>
     <use xlink:href="#m489afb44b6" x="256.195" y="296.433803" style="fill-opacity: 0; stroke: #000000"/>
     <use xlink:href="#m489afb44b6" x="256.195" y="291.104623" style="fill-opacity: 0; stroke: #000000"/>
     <use xlink:href="#m489afb44b6" x="256.195" y="288.967675" style="fill-opacity: 0; stroke: #000000"/>
     <use xlink:href="#m489afb44b6" x="256.195" y="287.094547" style="fill-opacity: 0; stroke: #000000"/>
     <use xlink:href="#m489afb44b6" x="256.195" y="285.524814" style="fill-opacity: 0; stroke: #000000"/>
     <use xlink:href="#m489afb44b6" x="256.195" y="294.072607" style="fill-opacity: 0; stroke: #000000"/>
     <use xlink:href="#m489afb44b6" x="256.195" y="295.484048" style="fill-opacity: 0; stroke: #000000"/>
     <use xlink:href="#m489afb44b6" x="256.195" y="291.83013" style="fill-opacity: 0; stroke: #000000"/>
     <use xlink:href="#m489afb44b6" x="256.195" y="291.83013" style="fill-opacity: 0; stroke: #000000"/>
     <use xlink:href="#m489afb44b6" x="256.195" y="291.83013" style="fill-opacity: 0; stroke: #000000"/>
     <use xlink:href="#m489afb44b6" x="256.195" y="291.83013" style="fill-opacity: 0; stroke: #000000"/>
     <use xlink:href="#m489afb44b6" x="256.195" y="284.561868" style="fill-opacity: 0; stroke: #000000"/>
     <use xlink:href="#m489afb44b6" x="256.195" y="291.83013" style="fill-opacity: 0; stroke: #000000"/>
     <use xlink:href="#m489afb44b6" x="256.195" y="291.83013" style="fill-opacity: 0; stroke: #000000"/>
     <use xlink:href="#m489afb44b6" x="256.195" y="286.461378" style="fill-opacity: 0; stroke: #000000"/>
     <use xlink:href="#m489afb44b6" x="256.195" y="287.107738" style="fill-opacity: 0; stroke: #000000"/>
     <use xlink:href="#m489afb44b6" x="256.195" y="291.83013" style="fill-opacity: 0; stroke: #000000"/>
     <use xlink:href="#m489afb44b6" x="256.195" y="291.473972" style="fill-opacity: 0; stroke: #000000"/>
     <use xlink:href="#m489afb44b6" x="256.195" y="291.83013" style="fill-opacity: 0; stroke: #000000"/>
     <use xlink:href="#m489afb44b6" x="256.195" y="291.83013" style="fill-opacity: 0; stroke: #000000"/>
     <use xlink:href="#m489afb44b6" x="256.195" y="291.83013" style="fill-opacity: 0; stroke: #000000"/>
     <use xlink:href="#m489afb44b6" x="256.195" y="291.83013" style="fill-opacity: 0; stroke: #000000"/>
     <use xlink:href="#m489afb44b6" x="256.195" y="291.83013" style="fill-opacity: 0; stroke: #000000"/>
     <use xlink:href="#m489afb44b6" x="256.195" y="291.83013" style="fill-opacity: 0; stroke: #000000"/>
     <use xlink:href="#m489afb44b6" x="256.195" y="291.83013" style="fill-opacity: 0; stroke: #000000"/>
     <use xlink:href="#m489afb44b6" x="256.195" y="291.83013" style="fill-opacity: 0; stroke: #000000"/>
     <use xlink:href="#m489afb44b6" x="256.195" y="291.83013" style="fill-opacity: 0; stroke: #000000"/>
     <use xlink:href="#m489afb44b6" x="256.195" y="296.895489" style="fill-opacity: 0; stroke: #000000"/>
     <use xlink:href="#m489afb44b6" x="256.195" y="291.711411" style="fill-opacity: 0; stroke: #000000"/>
     <use xlink:href="#m489afb44b6" x="256.195" y="291.83013" style="fill-opacity: 0; stroke: #000000"/>
     <use xlink:href="#m489afb44b6" x="256.195" y="285.696297" style="fill-opacity: 0; stroke: #000000"/>
     <use xlink:href="#m489afb44b6" x="256.195" y="291.83013" style="fill-opacity: 0; stroke: #000000"/>
     <use xlink:href="#m489afb44b6" x="256.195" y="297.79248" style="fill-opacity: 0; stroke: #000000"/>
     <use xlink:href="#m489afb44b6" x="256.195" y="291.104623" style="fill-opacity: 0; stroke: #000000"/>
     <use xlink:href="#m489afb44b6" x="256.195" y="298.729044" style="fill-opacity: 0; stroke: #000000"/>
     <use xlink:href="#m489afb44b6" x="256.195" y="288.40046" style="fill-opacity: 0; stroke: #000000"/>
     <use xlink:href="#m489afb44b6" x="256.195" y="290.695701" style="fill-opacity: 0; stroke: #000000"/>
     <use xlink:href="#m489afb44b6" x="256.195" y="295.048744" style="fill-opacity: 0; stroke: #000000"/>
     <use xlink:href="#m489afb44b6" x="256.195" y="295.734678" style="fill-opacity: 0; stroke: #000000"/>
     <use xlink:href="#m489afb44b6" x="256.195" y="295.075126" style="fill-opacity: 0; stroke: #000000"/>
     <use xlink:href="#m489afb44b6" x="256.195" y="288.466415" style="fill-opacity: 0; stroke: #000000"/>
     <use xlink:href="#m489afb44b6" x="256.195" y="290.234015" style="fill-opacity: 0; stroke: #000000"/>
     <use xlink:href="#m489afb44b6" x="256.195" y="289.28426" style="fill-opacity: 0; stroke: #000000"/>
     <use xlink:href="#m489afb44b6" x="256.195" y="290.590173" style="fill-opacity: 0; stroke: #000000"/>
     <use xlink:href="#m489afb44b6" x="256.195" y="287.028592" style="fill-opacity: 0; stroke: #000000"/>
     <use xlink:href="#m489afb44b6" x="256.195" y="285.841399" style="fill-opacity: 0; stroke: #000000"/>
     <use xlink:href="#m489afb44b6" x="256.195" y="285.722679" style="fill-opacity: 0; stroke: #000000"/>
     <use xlink:href="#m489afb44b6" x="256.195" y="288.835765" style="fill-opacity: 0; stroke: #000000"/>
     <use xlink:href="#m489afb44b6" x="256.195" y="286.738389" style="fill-opacity: 0; stroke: #000000"/>
     <use xlink:href="#m489afb44b6" x="256.195" y="288.664281" style="fill-opacity: 0; stroke: #000000"/>
     <use xlink:href="#m489afb44b6" x="256.195" y="289.468934" style="fill-opacity: 0; stroke: #000000"/>
     <use xlink:href="#m489afb44b6" x="256.195" y="289.060012" style="fill-opacity: 0; stroke: #000000"/>
     <use xlink:href="#m489afb44b6" x="256.195" y="287.608998" style="fill-opacity: 0; stroke: #000000"/>
     <use xlink:href="#m489afb44b6" x="256.195" y="288.90172" style="fill-opacity: 0; stroke: #000000"/>
     <use xlink:href="#m489afb44b6" x="256.195" y="285.089509" style="fill-opacity: 0; stroke: #000000"/>
     <use xlink:href="#m489afb44b6" x="256.195" y="291.473972" style="fill-opacity: 0; stroke: #000000"/>
     <use xlink:href="#m489afb44b6" x="256.195" y="288.848956" style="fill-opacity: 0; stroke: #000000"/>
     <use xlink:href="#m489afb44b6" x="256.195" y="287.094547" style="fill-opacity: 0; stroke: #000000"/>
     <use xlink:href="#m489afb44b6" x="256.195" y="287.213267" style="fill-opacity: 0; stroke: #000000"/>
     <use xlink:href="#m489afb44b6" x="256.195" y="289.139158" style="fill-opacity: 0; stroke: #000000"/>
     <use xlink:href="#m489afb44b6" x="256.195" y="285.115892" style="fill-opacity: 0; stroke: #000000"/>
     <use xlink:href="#m489afb44b6" x="256.195" y="286.962637" style="fill-opacity: 0; stroke: #000000"/>
     <use xlink:href="#m489afb44b6" x="256.195" y="287.371559" style="fill-opacity: 0; stroke: #000000"/>
     <use xlink:href="#m489afb44b6" x="256.195" y="289.759137" style="fill-opacity: 0; stroke: #000000"/>
     <use xlink:href="#m489afb44b6" x="256.195" y="291.803748" style="fill-opacity: 0; stroke: #000000"/>
     <use xlink:href="#m489afb44b6" x="256.195" y="295.193845" style="fill-opacity: 0; stroke: #000000"/>
     <use xlink:href="#m489afb44b6" x="256.195" y="288.189404" style="fill-opacity: 0; stroke: #000000"/>
     <use xlink:href="#m489afb44b6" x="256.195" y="287.688144" style="fill-opacity: 0; stroke: #000000"/>
     <use xlink:href="#m489afb44b6" x="256.195" y="298.729044" style="fill-opacity: 0; stroke: #000000"/>
     <use xlink:href="#m489afb44b6" x="256.195" y="285.933736" style="fill-opacity: 0; stroke: #000000"/>
     <use xlink:href="#m489afb44b6" x="256.195" y="285.880972" style="fill-opacity: 0; stroke: #000000"/>
     <use xlink:href="#m489afb44b6" x="256.195" y="288.440033" style="fill-opacity: 0; stroke: #000000"/>
     <use xlink:href="#m489afb44b6" x="256.195" y="286.830727" style="fill-opacity: 0; stroke: #000000"/>
     <use xlink:href="#m489afb44b6" x="256.195" y="288.848956" style="fill-opacity: 0; stroke: #000000"/>
     <use xlink:href="#m489afb44b6" x="256.195" y="285.300566" style="fill-opacity: 0; stroke: #000000"/>
     <use xlink:href="#m489afb44b6" x="256.195" y="285.524814" style="fill-opacity: 0; stroke: #000000"/>
     <use xlink:href="#m489afb44b6" x="256.195" y="293.887932" style="fill-opacity: 0; stroke: #000000"/>
     <use xlink:href="#m489afb44b6" x="256.195" y="286.408613" style="fill-opacity: 0; stroke: #000000"/>
     <use xlink:href="#m489afb44b6" x="256.195" y="284.601441" style="fill-opacity: 0; stroke: #000000"/>
     <use xlink:href="#m489afb44b6" x="256.195" y="297.317603" style="fill-opacity: 0; stroke: #000000"/>
     <use xlink:href="#m489afb44b6" x="256.195" y="291.83013" style="fill-opacity: 0; stroke: #000000"/>
     <use xlink:href="#m489afb44b6" x="256.195" y="285.907354" style="fill-opacity: 0; stroke: #000000"/>
     <use xlink:href="#m489afb44b6" x="256.195" y="285.379712" style="fill-opacity: 0; stroke: #000000"/>
     <use xlink:href="#m489afb44b6" x="256.195" y="285.379712" style="fill-opacity: 0; stroke: #000000"/>
     <use xlink:href="#m489afb44b6" x="256.195" y="288.51918" style="fill-opacity: 0; stroke: #000000"/>
     <use xlink:href="#m489afb44b6" x="256.195" y="285.485241" style="fill-opacity: 0; stroke: #000000"/>
     <use xlink:href="#m489afb44b6" x="256.195" y="289.732755" style="fill-opacity: 0; stroke: #000000"/>
     <use xlink:href="#m489afb44b6" x="256.195" y="288.189404" style="fill-opacity: 0; stroke: #000000"/>
     <use xlink:href="#m489afb44b6" x="256.195" y="298.887336" style="fill-opacity: 0; stroke: #000000"/>
     <use xlink:href="#m489afb44b6" x="256.195" y="285.379712" style="fill-opacity: 0; stroke: #000000"/>
     <use xlink:href="#m489afb44b6" x="256.195" y="294.164944" style="fill-opacity: 0; stroke: #000000"/>
     <use xlink:href="#m489afb44b6" x="256.195" y="284.495913" style="fill-opacity: 0; stroke: #000000"/>
     <use xlink:href="#m489afb44b6" x="256.195" y="289.442552" style="fill-opacity: 0; stroke: #000000"/>
     <use xlink:href="#m489afb44b6" x="256.195" y="293.887932" style="fill-opacity: 0; stroke: #000000"/>
     <use xlink:href="#m489afb44b6" x="256.195" y="291.803748" style="fill-opacity: 0; stroke: #000000"/>
     <use xlink:href="#m489afb44b6" x="256.195" y="286.289894" style="fill-opacity: 0; stroke: #000000"/>
     <use xlink:href="#m489afb44b6" x="256.195" y="290.497835" style="fill-opacity: 0; stroke: #000000"/>
     <use xlink:href="#m489afb44b6" x="256.195" y="293.769213" style="fill-opacity: 0; stroke: #000000"/>
     <use xlink:href="#m489afb44b6" x="256.195" y="291.131005" style="fill-opacity: 0; stroke: #000000"/>
     <use xlink:href="#m489afb44b6" x="256.195" y="297.119737" style="fill-opacity: 0; stroke: #000000"/>
     <use xlink:href="#m489afb44b6" x="256.195" y="284.601441" style="fill-opacity: 0; stroke: #000000"/>
     <use xlink:href="#m489afb44b6" x="256.195" y="286.936255" style="fill-opacity: 0; stroke: #000000"/>
     <use xlink:href="#m489afb44b6" x="256.195" y="287.622189" style="fill-opacity: 0; stroke: #000000"/>
     <use xlink:href="#m489afb44b6" x="256.195" y="287.424323" style="fill-opacity: 0; stroke: #000000"/>
     <use xlink:href="#m489afb44b6" x="256.195" y="293.281145" style="fill-opacity: 0; stroke: #000000"/>
     <use xlink:href="#m489afb44b6" x="256.195" y="298.293739" style="fill-opacity: 0; stroke: #000000"/>
     <use xlink:href="#m489afb44b6" x="256.195" y="290.365925" style="fill-opacity: 0; stroke: #000000"/>
     <use xlink:href="#m489afb44b6" x="256.195" y="285.524814" style="fill-opacity: 0; stroke: #000000"/>
     <use xlink:href="#m489afb44b6" x="256.195" y="289.468934" style="fill-opacity: 0; stroke: #000000"/>
     <use xlink:href="#m489afb44b6" x="256.195" y="287.292413" style="fill-opacity: 0; stroke: #000000"/>
     <use xlink:href="#m489afb44b6" x="256.195" y="296.592095" style="fill-opacity: 0; stroke: #000000"/>
     <use xlink:href="#m489afb44b6" x="256.195" y="298.583942" style="fill-opacity: 0; stroke: #000000"/>
     <use xlink:href="#m489afb44b6" x="256.195" y="285.208229" style="fill-opacity: 0; stroke: #000000"/>
     <use xlink:href="#m489afb44b6" x="256.195" y="288.624708" style="fill-opacity: 0; stroke: #000000"/>
     <use xlink:href="#m489afb44b6" x="256.195" y="290.326352" style="fill-opacity: 0; stroke: #000000"/>
     <use xlink:href="#m489afb44b6" x="256.195" y="291.262916" style="fill-opacity: 0; stroke: #000000"/>
     <use xlink:href="#m489afb44b6" x="256.195" y="293.650494" style="fill-opacity: 0; stroke: #000000"/>
     <use xlink:href="#m489afb44b6" x="256.195" y="293.650494" style="fill-opacity: 0; stroke: #000000"/>
     <use xlink:href="#m489afb44b6" x="256.195" y="285.049936" style="fill-opacity: 0; stroke: #000000"/>
     <use xlink:href="#m489afb44b6" x="256.195" y="289.759137" style="fill-opacity: 0; stroke: #000000"/>
     <use xlink:href="#m489afb44b6" x="256.195" y="289.165541" style="fill-opacity: 0; stroke: #000000"/>
     <use xlink:href="#m489afb44b6" x="256.195" y="291.104623" style="fill-opacity: 0; stroke: #000000"/>
     <use xlink:href="#m489afb44b6" x="256.195" y="295.589576" style="fill-opacity: 0; stroke: #000000"/>
     <use xlink:href="#m489afb44b6" x="256.195" y="284.641014" style="fill-opacity: 0; stroke: #000000"/>
     <use xlink:href="#m489afb44b6" x="256.195" y="285.524814" style="fill-opacity: 0; stroke: #000000"/>
     <use xlink:href="#m489afb44b6" x="256.195" y="296.842725" style="fill-opacity: 0; stroke: #000000"/>
     <use xlink:href="#m489afb44b6" x="256.195" y="291.790557" style="fill-opacity: 0; stroke: #000000"/>
     <use xlink:href="#m489afb44b6" x="256.195" y="285.590769" style="fill-opacity: 0; stroke: #000000"/>
     <use xlink:href="#m489afb44b6" x="256.195" y="292.4633" style="fill-opacity: 0; stroke: #000000"/>
     <use xlink:href="#m489afb44b6" x="256.195" y="288.848956" style="fill-opacity: 0; stroke: #000000"/>
     <use xlink:href="#m489afb44b6" x="256.195" y="288.954484" style="fill-opacity: 0; stroke: #000000"/>
     <use xlink:href="#m489afb44b6" x="256.195" y="296.52614" style="fill-opacity: 0; stroke: #000000"/>
     <use xlink:href="#m489afb44b6" x="256.195" y="285.419285" style="fill-opacity: 0; stroke: #000000"/>
     <use xlink:href="#m489afb44b6" x="256.195" y="290.141677" style="fill-opacity: 0; stroke: #000000"/>
     <use xlink:href="#m489afb44b6" x="256.195" y="285.775443" style="fill-opacity: 0; stroke: #000000"/>
     <use xlink:href="#m489afb44b6" x="256.195" y="295.958926" style="fill-opacity: 0; stroke: #000000"/>
     <use xlink:href="#m489afb44b6" x="256.195" y="291.342062" style="fill-opacity: 0; stroke: #000000"/>
     <use xlink:href="#m489afb44b6" x="256.195" y="292.859031" style="fill-opacity: 0; stroke: #000000"/>
     <use xlink:href="#m489afb44b6" x="256.195" y="289.165541" style="fill-opacity: 0; stroke: #000000"/>
     <use xlink:href="#m489afb44b6" x="256.195" y="294.323237" style="fill-opacity: 0; stroke: #000000"/>
     <use xlink:href="#m489afb44b6" x="256.195" y="288.848956" style="fill-opacity: 0; stroke: #000000"/>
     <use xlink:href="#m489afb44b6" x="256.195" y="288.848956" style="fill-opacity: 0; stroke: #000000"/>
     <use xlink:href="#m489afb44b6" x="256.195" y="294.125371" style="fill-opacity: 0; stroke: #000000"/>
     <use xlink:href="#m489afb44b6" x="256.195" y="295.853397" style="fill-opacity: 0; stroke: #000000"/>
     <use xlink:href="#m489afb44b6" x="256.195" y="290.603364" style="fill-opacity: 0; stroke: #000000"/>
     <use xlink:href="#m489afb44b6" x="256.195" y="289.139158" style="fill-opacity: 0; stroke: #000000"/>
     <use xlink:href="#m489afb44b6" x="256.195" y="296.39423" style="fill-opacity: 0; stroke: #000000"/>
     <use xlink:href="#m489afb44b6" x="256.195" y="286.342658" style="fill-opacity: 0; stroke: #000000"/>
     <use xlink:href="#m489afb44b6" x="256.195" y="294.336428" style="fill-opacity: 0; stroke: #000000"/>
     <use xlink:href="#m489afb44b6" x="256.195" y="285.933736" style="fill-opacity: 0; stroke: #000000"/>
     <use xlink:href="#m489afb44b6" x="256.195" y="300.747273" style="fill-opacity: 0; stroke: #000000"/>
     <use xlink:href="#m489afb44b6" x="256.195" y="290.326352" style="fill-opacity: 0; stroke: #000000"/>
     <use xlink:href="#m489afb44b6" x="256.195" y="285.933736" style="fill-opacity: 0; stroke: #000000"/>
     <use xlink:href="#m489afb44b6" x="256.195" y="285.933736" style="fill-opacity: 0; stroke: #000000"/>
     <use xlink:href="#m489afb44b6" x="256.195" y="292.450109" style="fill-opacity: 0; stroke: #000000"/>
     <use xlink:href="#m489afb44b6" x="256.195" y="294.639822" style="fill-opacity: 0; stroke: #000000"/>
     <use xlink:href="#m489afb44b6" x="256.195" y="293.821977" style="fill-opacity: 0; stroke: #000000"/>
     <use xlink:href="#m489afb44b6" x="256.195" y="285.458859" style="fill-opacity: 0; stroke: #000000"/>
     <use xlink:href="#m489afb44b6" x="256.195" y="294.428765" style="fill-opacity: 0; stroke: #000000"/>
     <use xlink:href="#m489afb44b6" x="256.195" y="296.948254" style="fill-opacity: 0; stroke: #000000"/>
     <use xlink:href="#m489afb44b6" x="256.195" y="284.825689" style="fill-opacity: 0; stroke: #000000"/>
     <use xlink:href="#m489afb44b6" x="256.195" y="287.331986" style="fill-opacity: 0; stroke: #000000"/>
     <use xlink:href="#m489afb44b6" x="256.195" y="288.690663" style="fill-opacity: 0; stroke: #000000"/>
     <use xlink:href="#m489afb44b6" x="256.195" y="291.83013" style="fill-opacity: 0; stroke: #000000"/>
     <use xlink:href="#m489afb44b6" x="256.195" y="296.275511" style="fill-opacity: 0; stroke: #000000"/>
     <use xlink:href="#m489afb44b6" x="256.195" y="285.815017" style="fill-opacity: 0; stroke: #000000"/>
     <use xlink:href="#m489afb44b6" x="256.195" y="285.089509" style="fill-opacity: 0; stroke: #000000"/>
     <use xlink:href="#m489afb44b6" x="256.195" y="291.104623" style="fill-opacity: 0; stroke: #000000"/>
     <use xlink:href="#m489afb44b6" x="256.195" y="286.144793" style="fill-opacity: 0; stroke: #000000"/>
     <use xlink:href="#m489afb44b6" x="256.195" y="292.436918" style="fill-opacity: 0; stroke: #000000"/>
     <use xlink:href="#m489afb44b6" x="256.195" y="284.601441" style="fill-opacity: 0; stroke: #000000"/>
     <use xlink:href="#m489afb44b6" x="256.195" y="287.463896" style="fill-opacity: 0; stroke: #000000"/>
     <use xlink:href="#m489afb44b6" x="256.195" y="290.234015" style="fill-opacity: 0; stroke: #000000"/>
     <use xlink:href="#m489afb44b6" x="256.195" y="292.265435" style="fill-opacity: 0; stroke: #000000"/>
     <use xlink:href="#m489afb44b6" x="256.195" y="285.933736" style="fill-opacity: 0; stroke: #000000"/>
     <use xlink:href="#m489afb44b6" x="256.195" y="285.933736" style="fill-opacity: 0; stroke: #000000"/>
     <use xlink:href="#m489afb44b6" x="256.195" y="285.933736" style="fill-opacity: 0; stroke: #000000"/>
     <use xlink:href="#m489afb44b6" x="256.195" y="285.933736" style="fill-opacity: 0; stroke: #000000"/>
     <use xlink:href="#m489afb44b6" x="256.195" y="285.933736" style="fill-opacity: 0; stroke: #000000"/>
     <use xlink:href="#m489afb44b6" x="256.195" y="285.089509" style="fill-opacity: 0; stroke: #000000"/>
     <use xlink:href="#m489afb44b6" x="256.195" y="290.511026" style="fill-opacity: 0; stroke: #000000"/>
     <use xlink:href="#m489afb44b6" x="256.195" y="293.940697" style="fill-opacity: 0; stroke: #000000"/>
     <use xlink:href="#m489afb44b6" x="256.195" y="285.617151" style="fill-opacity: 0; stroke: #000000"/>
     <use xlink:href="#m489afb44b6" x="256.195" y="286.250321" style="fill-opacity: 0; stroke: #000000"/>
     <use xlink:href="#m489afb44b6" x="256.195" y="287.371559" style="fill-opacity: 0; stroke: #000000"/>
     <use xlink:href="#m489afb44b6" x="256.195" y="295.589576" style="fill-opacity: 0; stroke: #000000"/>
     <use xlink:href="#m489afb44b6" x="256.195" y="295.51043" style="fill-opacity: 0; stroke: #000000"/>
     <use xlink:href="#m489afb44b6" x="256.195" y="291.592692" style="fill-opacity: 0; stroke: #000000"/>
     <use xlink:href="#m489afb44b6" x="256.195" y="289.759137" style="fill-opacity: 0; stroke: #000000"/>
     <use xlink:href="#m489afb44b6" x="256.195" y="288.51918" style="fill-opacity: 0; stroke: #000000"/>
     <use xlink:href="#m489afb44b6" x="256.195" y="292.621593" style="fill-opacity: 0; stroke: #000000"/>
     <use xlink:href="#m489afb44b6" x="256.195" y="289.468934" style="fill-opacity: 0; stroke: #000000"/>
     <use xlink:href="#m489afb44b6" x="256.195" y="287.094547" style="fill-opacity: 0; stroke: #000000"/>
     <use xlink:href="#m489afb44b6" x="256.195" y="293.927506" style="fill-opacity: 0; stroke: #000000"/>
     <use xlink:href="#m489afb44b6" x="256.195" y="287.094547" style="fill-opacity: 0; stroke: #000000"/>
     <use xlink:href="#m489afb44b6" x="256.195" y="292.265435" style="fill-opacity: 0; stroke: #000000"/>
     <use xlink:href="#m489afb44b6" x="256.195" y="291.803748" style="fill-opacity: 0; stroke: #000000"/>
     <use xlink:href="#m489afb44b6" x="256.195" y="287.490279" style="fill-opacity: 0; stroke: #000000"/>
     <use xlink:href="#m489afb44b6" x="256.195" y="285.524814" style="fill-opacity: 0; stroke: #000000"/>
     <use xlink:href="#m489afb44b6" x="256.195" y="294.164944" style="fill-opacity: 0; stroke: #000000"/>
     <use xlink:href="#m489afb44b6" x="256.195" y="289.759137" style="fill-opacity: 0; stroke: #000000"/>
     <use xlink:href="#m489afb44b6" x="256.195" y="295.286183" style="fill-opacity: 0; stroke: #000000"/>
     <use xlink:href="#m489afb44b6" x="256.195" y="294.99598" style="fill-opacity: 0; stroke: #000000"/>
     <use xlink:href="#m489afb44b6" x="256.195" y="286.250321" style="fill-opacity: 0; stroke: #000000"/>
     <use xlink:href="#m489afb44b6" x="256.195" y="292.647975" style="fill-opacity: 0; stroke: #000000"/>
     <use xlink:href="#m489afb44b6" x="256.195" y="287.727717" style="fill-opacity: 0; stroke: #000000"/>
     <use xlink:href="#m489afb44b6" x="256.195" y="287.727717" style="fill-opacity: 0; stroke: #000000"/>
     <use xlink:href="#m489afb44b6" x="256.195" y="287.727717" style="fill-opacity: 0; stroke: #000000"/>
     <use xlink:href="#m489afb44b6" x="256.195" y="291.83013" style="fill-opacity: 0; stroke: #000000"/>
     <use xlink:href="#m489afb44b6" x="256.195" y="292.727121" style="fill-opacity: 0; stroke: #000000"/>
     <use xlink:href="#m489afb44b6" x="256.195" y="295.602768" style="fill-opacity: 0; stroke: #000000"/>
     <use xlink:href="#m489afb44b6" x="256.195" y="297.423131" style="fill-opacity: 0; stroke: #000000"/>
     <use xlink:href="#m489afb44b6" x="256.195" y="293.505392" style="fill-opacity: 0; stroke: #000000"/>
     <use xlink:href="#m489afb44b6" x="256.195" y="293.505392" style="fill-opacity: 0; stroke: #000000"/>
     <use xlink:href="#m489afb44b6" x="256.195" y="293.004133" style="fill-opacity: 0; stroke: #000000"/>
     <use xlink:href="#m489afb44b6" x="256.195" y="290.853994" style="fill-opacity: 0; stroke: #000000"/>
     <use xlink:href="#m489afb44b6" x="256.195" y="292.489682" style="fill-opacity: 0; stroke: #000000"/>
     <use xlink:href="#m489afb44b6" x="256.195" y="289.732755" style="fill-opacity: 0; stroke: #000000"/>
     <use xlink:href="#m489afb44b6" x="256.195" y="291.078241" style="fill-opacity: 0; stroke: #000000"/>
     <use xlink:href="#m489afb44b6" x="256.195" y="291.592692" style="fill-opacity: 0; stroke: #000000"/>
     <use xlink:href="#m489afb44b6" x="256.195" y="297.805671" style="fill-opacity: 0; stroke: #000000"/>
     <use xlink:href="#m489afb44b6" x="256.195" y="293.465819" style="fill-opacity: 0; stroke: #000000"/>
     <use xlink:href="#m489afb44b6" x="256.195" y="293.465819" style="fill-opacity: 0; stroke: #000000"/>
     <use xlink:href="#m489afb44b6" x="256.195" y="294.402383" style="fill-opacity: 0; stroke: #000000"/>
     <use xlink:href="#m489afb44b6" x="256.195" y="292.291817" style="fill-opacity: 0; stroke: #000000"/>
     <use xlink:href="#m489afb44b6" x="256.195" y="297.858435" style="fill-opacity: 0; stroke: #000000"/>
     <use xlink:href="#m489afb44b6" x="256.195" y="288.545562" style="fill-opacity: 0; stroke: #000000"/>
     <use xlink:href="#m489afb44b6" x="256.195" y="295.207036" style="fill-opacity: 0; stroke: #000000"/>
     <use xlink:href="#m489afb44b6" x="256.195" y="297.185692" style="fill-opacity: 0; stroke: #000000"/>
     <use xlink:href="#m489afb44b6" x="256.195" y="285.933736" style="fill-opacity: 0; stroke: #000000"/>
     <use xlink:href="#m489afb44b6" x="256.195" y="286.580097" style="fill-opacity: 0; stroke: #000000"/>
     <use xlink:href="#m489afb44b6" x="256.195" y="288.717045" style="fill-opacity: 0; stroke: #000000"/>
     <use xlink:href="#m489afb44b6" x="256.195" y="286.738389" style="fill-opacity: 0; stroke: #000000"/>
     <use xlink:href="#m489afb44b6" x="256.195" y="288.717045" style="fill-opacity: 0; stroke: #000000"/>
     <use xlink:href="#m489afb44b6" x="256.195" y="288.717045" style="fill-opacity: 0; stroke: #000000"/>
     <use xlink:href="#m489afb44b6" x="256.195" y="289.745946" style="fill-opacity: 0; stroke: #000000"/>
     <use xlink:href="#m489afb44b6" x="256.195" y="284.601441" style="fill-opacity: 0; stroke: #000000"/>
     <use xlink:href="#m489afb44b6" x="256.195" y="289.165541" style="fill-opacity: 0; stroke: #000000"/>
     <use xlink:href="#m489afb44b6" x="256.195" y="290.853994" style="fill-opacity: 0; stroke: #000000"/>
     <use xlink:href="#m489afb44b6" x="256.195" y="291.988423" style="fill-opacity: 0; stroke: #000000"/>
     <use xlink:href="#m489afb44b6" x="256.195" y="285.129083" style="fill-opacity: 0; stroke: #000000"/>
     <use xlink:href="#m489afb44b6" x="256.195" y="289.402979" style="fill-opacity: 0; stroke: #000000"/>
     <use xlink:href="#m489afb44b6" x="256.195" y="289.337024" style="fill-opacity: 0; stroke: #000000"/>
     <use xlink:href="#m489afb44b6" x="256.195" y="292.344581" style="fill-opacity: 0; stroke: #000000"/>
     <use xlink:href="#m489afb44b6" x="256.195" y="288.044302" style="fill-opacity: 0; stroke: #000000"/>
     <use xlink:href="#m489afb44b6" x="256.195" y="290.29997" style="fill-opacity: 0; stroke: #000000"/>
     <use xlink:href="#m489afb44b6" x="256.195" y="288.848956" style="fill-opacity: 0; stroke: #000000"/>
     <use xlink:href="#m489afb44b6" x="256.195" y="297.040591" style="fill-opacity: 0; stroke: #000000"/>
     <use xlink:href="#m489afb44b6" x="256.195" y="291.711411" style="fill-opacity: 0; stroke: #000000"/>
     <use xlink:href="#m489afb44b6" x="256.195" y="292.753503" style="fill-opacity: 0; stroke: #000000"/>
     <use xlink:href="#m489afb44b6" x="256.195" y="298.095874" style="fill-opacity: 0; stroke: #000000"/>
     <use xlink:href="#m489afb44b6" x="256.195" y="297.858435" style="fill-opacity: 0; stroke: #000000"/>
     <use xlink:href="#m489afb44b6" x="256.195" y="287.846437" style="fill-opacity: 0; stroke: #000000"/>
     <use xlink:href="#m489afb44b6" x="256.195" y="287.094547" style="fill-opacity: 0; stroke: #000000"/>
     <use xlink:href="#m489afb44b6" x="256.195" y="286.843918" style="fill-opacity: 0; stroke: #000000"/>
     <use xlink:href="#m489afb44b6" x="256.195" y="288.848956" style="fill-opacity: 0; stroke: #000000"/>
     <use xlink:href="#m489afb44b6" x="256.195" y="288.848956" style="fill-opacity: 0; stroke: #000000"/>
     <use xlink:href="#m489afb44b6" x="256.195" y="292.120333" style="fill-opacity: 0; stroke: #000000"/>
     <use xlink:href="#m489afb44b6" x="256.195" y="288.163022" style="fill-opacity: 0; stroke: #000000"/>
     <use xlink:href="#m489afb44b6" x="256.195" y="285.023554" style="fill-opacity: 0; stroke: #000000"/>
     <use xlink:href="#m489afb44b6" x="256.195" y="287.490279" style="fill-opacity: 0; stroke: #000000"/>
     <use xlink:href="#m489afb44b6" x="256.195" y="289.442552" style="fill-opacity: 0; stroke: #000000"/>
     <use xlink:href="#m489afb44b6" x="256.195" y="291.869704" style="fill-opacity: 0; stroke: #000000"/>
     <use xlink:href="#m489afb44b6" x="256.195" y="291.803748" style="fill-opacity: 0; stroke: #000000"/>
     <use xlink:href="#m489afb44b6" x="256.195" y="291.091432" style="fill-opacity: 0; stroke: #000000"/>
     <use xlink:href="#m489afb44b6" x="256.195" y="284.891644" style="fill-opacity: 0; stroke: #000000"/>
     <use xlink:href="#m489afb44b6" x="256.195" y="287.305604" style="fill-opacity: 0; stroke: #000000"/>
     <use xlink:href="#m489afb44b6" x="256.195" y="296.64486" style="fill-opacity: 0; stroke: #000000"/>
     <use xlink:href="#m489afb44b6" x="256.195" y="292.054378" style="fill-opacity: 0; stroke: #000000"/>
     <use xlink:href="#m489afb44b6" x="256.195" y="285.524814" style="fill-opacity: 0; stroke: #000000"/>
     <use xlink:href="#m489afb44b6" x="256.195" y="288.848956" style="fill-opacity: 0; stroke: #000000"/>
     <use xlink:href="#m489afb44b6" x="256.195" y="289.6668" style="fill-opacity: 0; stroke: #000000"/>
     <use xlink:href="#m489afb44b6" x="256.195" y="286.342658" style="fill-opacity: 0; stroke: #000000"/>
     <use xlink:href="#m489afb44b6" x="256.195" y="288.51918" style="fill-opacity: 0; stroke: #000000"/>
     <use xlink:href="#m489afb44b6" x="256.195" y="287.978347" style="fill-opacity: 0; stroke: #000000"/>
     <use xlink:href="#m489afb44b6" x="256.195" y="290.537409" style="fill-opacity: 0; stroke: #000000"/>
     <use xlink:href="#m489afb44b6" x="256.195" y="294.323237" style="fill-opacity: 0; stroke: #000000"/>
     <use xlink:href="#m489afb44b6" x="256.195" y="285.933736" style="fill-opacity: 0; stroke: #000000"/>
     <use xlink:href="#m489afb44b6" x="256.195" y="296.697624" style="fill-opacity: 0; stroke: #000000"/>
     <use xlink:href="#m489afb44b6" x="256.195" y="292.120333" style="fill-opacity: 0; stroke: #000000"/>
     <use xlink:href="#m489afb44b6" x="256.195" y="285.485241" style="fill-opacity: 0; stroke: #000000"/>
     <use xlink:href="#m489afb44b6" x="256.195" y="290.04934" style="fill-opacity: 0; stroke: #000000"/>
     <use xlink:href="#m489afb44b6" x="256.195" y="291.988423" style="fill-opacity: 0; stroke: #000000"/>
     <use xlink:href="#m489afb44b6" x="256.195" y="285.524814" style="fill-opacity: 0; stroke: #000000"/>
     <use xlink:href="#m489afb44b6" x="256.195" y="285.933736" style="fill-opacity: 0; stroke: #000000"/>
     <use xlink:href="#m489afb44b6" x="256.195" y="284.944408" style="fill-opacity: 0; stroke: #000000"/>
     <use xlink:href="#m489afb44b6" x="256.195" y="290.181251" style="fill-opacity: 0; stroke: #000000"/>
     <use xlink:href="#m489afb44b6" x="256.195" y="285.590769" style="fill-opacity: 0; stroke: #000000"/>
     <use xlink:href="#m489afb44b6" x="256.195" y="284.641014" style="fill-opacity: 0; stroke: #000000"/>
     <use xlink:href="#m489afb44b6" x="256.195" y="298.346504" style="fill-opacity: 0; stroke: #000000"/>
     <use xlink:href="#m489afb44b6" x="256.195" y="294.323237" style="fill-opacity: 0; stroke: #000000"/>
     <use xlink:href="#m489afb44b6" x="256.195" y="285.775443" style="fill-opacity: 0; stroke: #000000"/>
     <use xlink:href="#m489afb44b6" x="256.195" y="291.750984" style="fill-opacity: 0; stroke: #000000"/>
     <use xlink:href="#m489afb44b6" x="256.195" y="287.846437" style="fill-opacity: 0; stroke: #000000"/>
     <use xlink:href="#m489afb44b6" x="256.195" y="292.687548" style="fill-opacity: 0; stroke: #000000"/>
     <use xlink:href="#m489afb44b6" x="256.195" y="295.286183" style="fill-opacity: 0; stroke: #000000"/>
     <use xlink:href="#m489afb44b6" x="256.195" y="292.595211" style="fill-opacity: 0; stroke: #000000"/>
     <use xlink:href="#m489afb44b6" x="256.195" y="286.738389" style="fill-opacity: 0; stroke: #000000"/>
     <use xlink:href="#m489afb44b6" x="256.195" y="285.973309" style="fill-opacity: 0; stroke: #000000"/>
     <use xlink:href="#m489afb44b6" x="256.195" y="298.003537" style="fill-opacity: 0; stroke: #000000"/>
     <use xlink:href="#m489afb44b6" x="256.195" y="288.189404" style="fill-opacity: 0; stroke: #000000"/>
     <use xlink:href="#m489afb44b6" x="256.195" y="289.759137" style="fill-opacity: 0; stroke: #000000"/>
     <use xlink:href="#m489afb44b6" x="256.195" y="285.300566" style="fill-opacity: 0; stroke: #000000"/>
     <use xlink:href="#m489afb44b6" x="256.195" y="292.33139" style="fill-opacity: 0; stroke: #000000"/>
     <use xlink:href="#m489afb44b6" x="256.195" y="284.641014" style="fill-opacity: 0; stroke: #000000"/>
     <use xlink:href="#m489afb44b6" x="256.195" y="287.054974" style="fill-opacity: 0; stroke: #000000"/>
     <use xlink:href="#m489afb44b6" x="256.195" y="285.815017" style="fill-opacity: 0; stroke: #000000"/>
     <use xlink:href="#m489afb44b6" x="256.195" y="287.727717" style="fill-opacity: 0; stroke: #000000"/>
     <use xlink:href="#m489afb44b6" x="256.195" y="296.52614" style="fill-opacity: 0; stroke: #000000"/>
     <use xlink:href="#m489afb44b6" x="256.195" y="288.492798" style="fill-opacity: 0; stroke: #000000"/>
     <use xlink:href="#m489afb44b6" x="256.195" y="288.796191" style="fill-opacity: 0; stroke: #000000"/>
     <use xlink:href="#m489afb44b6" x="256.195" y="287.701335" style="fill-opacity: 0; stroke: #000000"/>
     <use xlink:href="#m489afb44b6" x="256.195" y="295.734678" style="fill-opacity: 0; stroke: #000000"/>
     <use xlink:href="#m489afb44b6" x="256.195" y="295.919352" style="fill-opacity: 0; stroke: #000000"/>
     <use xlink:href="#m489afb44b6" x="256.195" y="287.120929" style="fill-opacity: 0; stroke: #000000"/>
     <use xlink:href="#m489afb44b6" x="256.195" y="285.524814" style="fill-opacity: 0; stroke: #000000"/>
     <use xlink:href="#m489afb44b6" x="256.195" y="295.734678" style="fill-opacity: 0; stroke: #000000"/>
     <use xlink:href="#m489afb44b6" x="256.195" y="297.040591" style="fill-opacity: 0; stroke: #000000"/>
     <use xlink:href="#m489afb44b6" x="256.195" y="289.244687" style="fill-opacity: 0; stroke: #000000"/>
     <use xlink:href="#m489afb44b6" x="256.195" y="291.962041" style="fill-opacity: 0; stroke: #000000"/>
     <use xlink:href="#m489afb44b6" x="256.195" y="299.889855" style="fill-opacity: 0; stroke: #000000"/>
     <use xlink:href="#m489afb44b6" x="256.195" y="297.040591" style="fill-opacity: 0; stroke: #000000"/>
     <use xlink:href="#m489afb44b6" x="256.195" y="292.489682" style="fill-opacity: 0; stroke: #000000"/>
     <use xlink:href="#m489afb44b6" x="256.195" y="293.650494" style="fill-opacity: 0; stroke: #000000"/>
     <use xlink:href="#m489afb44b6" x="256.195" y="295.879779" style="fill-opacity: 0; stroke: #000000"/>
     <use xlink:href="#m489afb44b6" x="256.195" y="293.122852" style="fill-opacity: 0; stroke: #000000"/>
     <use xlink:href="#m489afb44b6" x="256.195" y="286.843918" style="fill-opacity: 0; stroke: #000000"/>
     <use xlink:href="#m489afb44b6" x="256.195" y="286.712007" style="fill-opacity: 0; stroke: #000000"/>
     <use xlink:href="#m489afb44b6" x="256.195" y="286.738389" style="fill-opacity: 0; stroke: #000000"/>
     <use xlink:href="#m489afb44b6" x="256.195" y="286.078837" style="fill-opacity: 0; stroke: #000000"/>
     <use xlink:href="#m489afb44b6" x="256.195" y="286.342658" style="fill-opacity: 0; stroke: #000000"/>
     <use xlink:href="#m489afb44b6" x="256.195" y="286.342658" style="fill-opacity: 0; stroke: #000000"/>
     <use xlink:href="#m489afb44b6" x="256.195" y="286.342658" style="fill-opacity: 0; stroke: #000000"/>
     <use xlink:href="#m489afb44b6" x="256.195" y="289.165541" style="fill-opacity: 0; stroke: #000000"/>
     <use xlink:href="#m489afb44b6" x="256.195" y="288.848956" style="fill-opacity: 0; stroke: #000000"/>
     <use xlink:href="#m489afb44b6" x="256.195" y="286.342658" style="fill-opacity: 0; stroke: #000000"/>
     <use xlink:href="#m489afb44b6" x="256.195" y="298.504796" style="fill-opacity: 0; stroke: #000000"/>
     <use xlink:href="#m489afb44b6" x="256.195" y="289.28426" style="fill-opacity: 0; stroke: #000000"/>
     <use xlink:href="#m489afb44b6" x="256.195" y="294.705777" style="fill-opacity: 0; stroke: #000000"/>
     <use xlink:href="#m489afb44b6" x="256.195" y="285.867781" style="fill-opacity: 0; stroke: #000000"/>
     <use xlink:href="#m489afb44b6" x="256.195" y="295.114699" style="fill-opacity: 0; stroke: #000000"/>
     <use xlink:href="#m489afb44b6" x="256.195" y="297.396749" style="fill-opacity: 0; stroke: #000000"/>
     <use xlink:href="#m489afb44b6" x="256.195" y="296.077645" style="fill-opacity: 0; stroke: #000000"/>
     <use xlink:href="#m489afb44b6" x="256.195" y="286.61967" style="fill-opacity: 0; stroke: #000000"/>
     <use xlink:href="#m489afb44b6" x="256.195" y="294.481529" style="fill-opacity: 0; stroke: #000000"/>
     <use xlink:href="#m489afb44b6" x="256.195" y="297.726525" style="fill-opacity: 0; stroke: #000000"/>
     <use xlink:href="#m489afb44b6" x="256.195" y="287.793672" style="fill-opacity: 0; stroke: #000000"/>
     <use xlink:href="#m489afb44b6" x="256.195" y="285.749061" style="fill-opacity: 0; stroke: #000000"/>
     <use xlink:href="#m489afb44b6" x="256.195" y="287.371559" style="fill-opacity: 0; stroke: #000000"/>
     <use xlink:href="#m489afb44b6" x="256.195" y="285.300566" style="fill-opacity: 0; stroke: #000000"/>
     <use xlink:href="#m489afb44b6" x="256.195" y="291.302489" style="fill-opacity: 0; stroke: #000000"/>
     <use xlink:href="#m489afb44b6" x="256.195" y="286.474569" style="fill-opacity: 0; stroke: #000000"/>
     <use xlink:href="#m489afb44b6" x="256.195" y="285.419285" style="fill-opacity: 0; stroke: #000000"/>
     <use xlink:href="#m489afb44b6" x="256.195" y="289.442552" style="fill-opacity: 0; stroke: #000000"/>
     <use xlink:href="#m489afb44b6" x="256.195" y="294.61344" style="fill-opacity: 0; stroke: #000000"/>
     <use xlink:href="#m489afb44b6" x="256.195" y="289.442552" style="fill-opacity: 0; stroke: #000000"/>
     <use xlink:href="#m489afb44b6" x="256.195" y="285.683106" style="fill-opacity: 0; stroke: #000000"/>
     <use xlink:href="#m489afb44b6" x="256.195" y="285.115892" style="fill-opacity: 0; stroke: #000000"/>
     <use xlink:href="#m489afb44b6" x="256.195" y="286.514142" style="fill-opacity: 0; stroke: #000000"/>
     <use xlink:href="#m489afb44b6" x="256.195" y="284.944408" style="fill-opacity: 0; stroke: #000000"/>
     <use xlink:href="#m489afb44b6" x="256.195" y="285.709488" style="fill-opacity: 0; stroke: #000000"/>
     <use xlink:href="#m489afb44b6" x="256.195" y="287.397941" style="fill-opacity: 0; stroke: #000000"/>
     <use xlink:href="#m489afb44b6" x="256.195" y="286.342658" style="fill-opacity: 0; stroke: #000000"/>
     <use xlink:href="#m489afb44b6" x="256.195" y="295.985308" style="fill-opacity: 0; stroke: #000000"/>
     <use xlink:href="#m489afb44b6" x="256.195" y="292.305008" style="fill-opacity: 0; stroke: #000000"/>
     <use xlink:href="#m489afb44b6" x="256.195" y="291.473972" style="fill-opacity: 0; stroke: #000000"/>
     <use xlink:href="#m489afb44b6" x="256.195" y="289.6668" style="fill-opacity: 0; stroke: #000000"/>
     <use xlink:href="#m489afb44b6" x="256.195" y="287.661762" style="fill-opacity: 0; stroke: #000000"/>
     <use xlink:href="#m489afb44b6" x="256.195" y="285.089509" style="fill-opacity: 0; stroke: #000000"/>
     <use xlink:href="#m489afb44b6" x="256.195" y="285.946927" style="fill-opacity: 0; stroke: #000000"/>
     <use xlink:href="#m489afb44b6" x="256.195" y="294.481529" style="fill-opacity: 0; stroke: #000000"/>
     <use xlink:href="#m489afb44b6" x="256.195" y="285.815017" style="fill-opacity: 0; stroke: #000000"/>
     <use xlink:href="#m489afb44b6" x="256.195" y="284.786116" style="fill-opacity: 0; stroke: #000000"/>
     <use xlink:href="#m489afb44b6" x="256.195" y="286.738389" style="fill-opacity: 0; stroke: #000000"/>
     <use xlink:href="#m489afb44b6" x="256.195" y="297.040591" style="fill-opacity: 0; stroke: #000000"/>
     <use xlink:href="#m489afb44b6" x="256.195" y="294.573866" style="fill-opacity: 0; stroke: #000000"/>
     <use xlink:href="#m489afb44b6" x="256.195" y="290.471453" style="fill-opacity: 0; stroke: #000000"/>
     <use xlink:href="#m489afb44b6" x="256.195" y="286.962637" style="fill-opacity: 0; stroke: #000000"/>
     <use xlink:href="#m489afb44b6" x="256.195" y="297.291221" style="fill-opacity: 0; stroke: #000000"/>
     <use xlink:href="#m489afb44b6" x="256.195" y="288.163022" style="fill-opacity: 0; stroke: #000000"/>
     <use xlink:href="#m489afb44b6" x="256.195" y="291.592692" style="fill-opacity: 0; stroke: #000000"/>
     <use xlink:href="#m489afb44b6" x="256.195" y="296.249128" style="fill-opacity: 0; stroke: #000000"/>
     <use xlink:href="#m489afb44b6" x="256.195" y="296.460185" style="fill-opacity: 0; stroke: #000000"/>
     <use xlink:href="#m489afb44b6" x="256.195" y="294.336428" style="fill-opacity: 0; stroke: #000000"/>
     <use xlink:href="#m489afb44b6" x="256.195" y="288.097066" style="fill-opacity: 0; stroke: #000000"/>
     <use xlink:href="#m489afb44b6" x="256.195" y="289.191923" style="fill-opacity: 0; stroke: #000000"/>
     <use xlink:href="#m489afb44b6" x="256.195" y="299.520506" style="fill-opacity: 0; stroke: #000000"/>
     <use xlink:href="#m489afb44b6" x="256.195" y="292.041187" style="fill-opacity: 0; stroke: #000000"/>
     <use xlink:href="#m489afb44b6" x="256.195" y="286.646052" style="fill-opacity: 0; stroke: #000000"/>
     <use xlink:href="#m489afb44b6" x="256.195" y="286.553715" style="fill-opacity: 0; stroke: #000000"/>
     <use xlink:href="#m489afb44b6" x="256.195" y="286.553715" style="fill-opacity: 0; stroke: #000000"/>
     <use xlink:href="#m489afb44b6" x="256.195" y="288.51918" style="fill-opacity: 0; stroke: #000000"/>
     <use xlink:href="#m489afb44b6" x="256.195" y="288.51918" style="fill-opacity: 0; stroke: #000000"/>
     <use xlink:href="#m489afb44b6" x="256.195" y="287.371559" style="fill-opacity: 0; stroke: #000000"/>
     <use xlink:href="#m489afb44b6" x="256.195" y="287.371559" style="fill-opacity: 0; stroke: #000000"/>
     <use xlink:href="#m489afb44b6" x="256.195" y="295.642341" style="fill-opacity: 0; stroke: #000000"/>
     <use xlink:href="#m489afb44b6" x="256.195" y="296.631669" style="fill-opacity: 0; stroke: #000000"/>
     <use xlink:href="#m489afb44b6" x="256.195" y="289.983385" style="fill-opacity: 0; stroke: #000000"/>
     <use xlink:href="#m489afb44b6" x="256.195" y="287.226458" style="fill-opacity: 0; stroke: #000000"/>
     <use xlink:href="#m489afb44b6" x="256.195" y="290.484644" style="fill-opacity: 0; stroke: #000000"/>
     <use xlink:href="#m489afb44b6" x="256.195" y="286.316276" style="fill-opacity: 0; stroke: #000000"/>
     <use xlink:href="#m489afb44b6" x="256.195" y="290.774847" style="fill-opacity: 0; stroke: #000000"/>
     <use xlink:href="#m489afb44b6" x="256.195" y="287.463896" style="fill-opacity: 0; stroke: #000000"/>
     <use xlink:href="#m489afb44b6" x="256.195" y="291.539928" style="fill-opacity: 0; stroke: #000000"/>
     <use xlink:href="#m489afb44b6" x="256.195" y="289.41617" style="fill-opacity: 0; stroke: #000000"/>
     <use xlink:href="#m489afb44b6" x="256.195" y="289.086394" style="fill-opacity: 0; stroke: #000000"/>
     <use xlink:href="#m489afb44b6" x="256.195" y="294.99598" style="fill-opacity: 0; stroke: #000000"/>
     <use xlink:href="#m489afb44b6" x="256.195" y="294.151753" style="fill-opacity: 0; stroke: #000000"/>
     <use xlink:href="#m489afb44b6" x="256.195" y="290.563791" style="fill-opacity: 0; stroke: #000000"/>
     <use xlink:href="#m489afb44b6" x="256.195" y="292.977751" style="fill-opacity: 0; stroke: #000000"/>
     <use xlink:href="#m489afb44b6" x="256.195" y="285.300566" style="fill-opacity: 0; stroke: #000000"/>
     <use xlink:href="#m489afb44b6" x="256.195" y="293.162425" style="fill-opacity: 0; stroke: #000000"/>
     <use xlink:href="#m489afb44b6" x="256.195" y="288.083875" style="fill-opacity: 0; stroke: #000000"/>
     <use xlink:href="#m489afb44b6" x="256.195" y="289.943812" style="fill-opacity: 0; stroke: #000000"/>
     <use xlink:href="#m489afb44b6" x="256.195" y="284.786116" style="fill-opacity: 0; stroke: #000000"/>
     <use xlink:href="#m489afb44b6" x="256.195" y="291.196961" style="fill-opacity: 0; stroke: #000000"/>
     <use xlink:href="#m489afb44b6" x="256.195" y="286.738389" style="fill-opacity: 0; stroke: #000000"/>
     <use xlink:href="#m489afb44b6" x="256.195" y="293.281145" style="fill-opacity: 0; stroke: #000000"/>
     <use xlink:href="#m489afb44b6" x="256.195" y="291.83013" style="fill-opacity: 0; stroke: #000000"/>
     <use xlink:href="#m489afb44b6" x="256.195" y="285.920545" style="fill-opacity: 0; stroke: #000000"/>
     <use xlink:href="#m489afb44b6" x="256.195" y="293.070088" style="fill-opacity: 0; stroke: #000000"/>
     <use xlink:href="#m489afb44b6" x="256.195" y="286.342658" style="fill-opacity: 0; stroke: #000000"/>
     <use xlink:href="#m489afb44b6" x="256.195" y="284.812498" style="fill-opacity: 0; stroke: #000000"/>
     <use xlink:href="#m489afb44b6" x="256.195" y="285.880972" style="fill-opacity: 0; stroke: #000000"/>
     <use xlink:href="#m489afb44b6" x="256.195" y="284.641014" style="fill-opacity: 0; stroke: #000000"/>
     <use xlink:href="#m489afb44b6" x="256.195" y="290.603364" style="fill-opacity: 0; stroke: #000000"/>
     <use xlink:href="#m489afb44b6" x="256.195" y="285.669915" style="fill-opacity: 0; stroke: #000000"/>
     <use xlink:href="#m489afb44b6" x="256.195" y="297.475895" style="fill-opacity: 0; stroke: #000000"/>
     <use xlink:href="#m489afb44b6" x="256.195" y="289.007248" style="fill-opacity: 0; stroke: #000000"/>
     <use xlink:href="#m489afb44b6" x="256.195" y="285.867781" style="fill-opacity: 0; stroke: #000000"/>
     <use xlink:href="#m489afb44b6" x="256.195" y="291.051859" style="fill-opacity: 0; stroke: #000000"/>
     <use xlink:href="#m489afb44b6" x="256.195" y="285.155465" style="fill-opacity: 0; stroke: #000000"/>
     <use xlink:href="#m489afb44b6" x="256.195" y="290.04934" style="fill-opacity: 0; stroke: #000000"/>
     <use xlink:href="#m489afb44b6" x="256.195" y="290.04934" style="fill-opacity: 0; stroke: #000000"/>
     <use xlink:href="#m489afb44b6" x="256.195" y="295.615959" style="fill-opacity: 0; stroke: #000000"/>
     <use xlink:href="#m489afb44b6" x="256.195" y="287.345177" style="fill-opacity: 0; stroke: #000000"/>
     <use xlink:href="#m489afb44b6" x="256.195" y="294.61344" style="fill-opacity: 0; stroke: #000000"/>
     <use xlink:href="#m489afb44b6" x="256.195" y="286.342658" style="fill-opacity: 0; stroke: #000000"/>
     <use xlink:href="#m489afb44b6" x="256.195" y="288.189404" style="fill-opacity: 0; stroke: #000000"/>
     <use xlink:href="#m489afb44b6" x="256.195" y="289.139158" style="fill-opacity: 0; stroke: #000000"/>
     <use xlink:href="#m489afb44b6" x="256.195" y="289.442552" style="fill-opacity: 0; stroke: #000000"/>
     <use xlink:href="#m489afb44b6" x="256.195" y="293.690067" style="fill-opacity: 0; stroke: #000000"/>
     <use xlink:href="#m489afb44b6" x="256.195" y="291.342062" style="fill-opacity: 0; stroke: #000000"/>
     <use xlink:href="#m489afb44b6" x="256.195" y="287.608998" style="fill-opacity: 0; stroke: #000000"/>
     <use xlink:href="#m489afb44b6" x="256.195" y="292.990942" style="fill-opacity: 0; stroke: #000000"/>
     <use xlink:href="#m489afb44b6" x="256.195" y="286.210748" style="fill-opacity: 0; stroke: #000000"/>
     <use xlink:href="#m489afb44b6" x="256.195" y="287.041783" style="fill-opacity: 0; stroke: #000000"/>
     <use xlink:href="#m489afb44b6" x="256.195" y="293.043706" style="fill-opacity: 0; stroke: #000000"/>
     <use xlink:href="#m489afb44b6" x="256.195" y="284.641014" style="fill-opacity: 0; stroke: #000000"/>
     <use xlink:href="#m489afb44b6" x="256.195" y="294.270473" style="fill-opacity: 0; stroke: #000000"/>
     <use xlink:href="#m489afb44b6" x="256.195" y="293.070088" style="fill-opacity: 0; stroke: #000000"/>
     <use xlink:href="#m489afb44b6" x="256.195" y="295.470857" style="fill-opacity: 0; stroke: #000000"/>
     <use xlink:href="#m489afb44b6" x="256.195" y="299.903046" style="fill-opacity: 0; stroke: #000000"/>
     <use xlink:href="#m489afb44b6" x="256.195" y="294.204517" style="fill-opacity: 0; stroke: #000000"/>
     <use xlink:href="#m489afb44b6" x="256.195" y="294.666204" style="fill-opacity: 0; stroke: #000000"/>
     <use xlink:href="#m489afb44b6" x="256.195" y="292.212671" style="fill-opacity: 0; stroke: #000000"/>
     <use xlink:href="#m489afb44b6" x="256.195" y="294.666204" style="fill-opacity: 0; stroke: #000000"/>
     <use xlink:href="#m489afb44b6" x="256.195" y="294.666204" style="fill-opacity: 0; stroke: #000000"/>
     <use xlink:href="#m489afb44b6" x="256.195" y="292.001614" style="fill-opacity: 0; stroke: #000000"/>
     <use xlink:href="#m489afb44b6" x="256.195" y="290.326352" style="fill-opacity: 0; stroke: #000000"/>
     <use xlink:href="#m489afb44b6" x="256.195" y="286.540524" style="fill-opacity: 0; stroke: #000000"/>
    </g>
   </g>
   <g id="line2d_16">
    <path d="M 227.12425 171.316798 
L 285.26575 171.316798 
" clip-path="url(#pa93c0b0f1f)" style="fill: none; stroke: #2ca02c; stroke-linecap: square"/>
   </g>
   <g id="patch_3">
    <path d="M 62.39 313.72 
L 62.39 28.32 
" style="fill: none; stroke: #000000; stroke-width: 0.8; stroke-linejoin: miter; stroke-linecap: square"/>
   </g>
   <g id="patch_4">
    <path d="M 450 313.72 
L 450 28.32 
" style="fill: none; stroke: #000000; stroke-width: 0.8; stroke-linejoin: miter; stroke-linecap: square"/>
   </g>
   <g id="patch_5">
    <path d="M 62.39 313.72 
L 450 313.72 
" style="fill: none; stroke: #000000; stroke-width: 0.8; stroke-linejoin: miter; stroke-linecap: square"/>
   </g>
   <g id="patch_6">
    <path d="M 62.39 28.32 
L 450 28.32 
" style="fill: none; stroke: #000000; stroke-width: 0.8; stroke-linejoin: miter; stroke-linecap: square"/>
   </g>
   <g id="text_12">
    <!-- EtihadAirways sentiment distribution -->
    <g transform="translate(87.72875 22.32) scale(0.16 -0.16)">
     <defs>
      <path id="DejaVuSans-Bold-45" d="M 588 4666 
L 3834 4666 
L 3834 3756 
L 1791 3756 
L 1791 2888 
L 3713 2888 
L 3713 1978 
L 1791 1978 
L 1791 909 
L 3903 909 
L 3903 0 
L 588 0 
L 588 4666 
z
" transform="scale(0.015625)"/>
      <path id="DejaVuSans-Bold-74" d="M 1759 4494 
L 1759 3500 
L 2913 3500 
L 2913 2700 
L 1759 2700 
L 1759 1216 
Q 1759 972 1856 886 
Q 1953 800 2241 800 
L 2816 800 
L 2816 0 
L 1856 0 
Q 1194 0 917 276 
Q 641 553 641 1216 
L 641 2700 
L 84 2700 
L 84 3500 
L 641 3500 
L 641 4494 
L 1759 4494 
z
" transform="scale(0.015625)"/>
      <path id="DejaVuSans-Bold-69" d="M 538 3500 
L 1656 3500 
L 1656 0 
L 538 0 
L 538 3500 
z
M 538 4863 
L 1656 4863 
L 1656 3950 
L 538 3950 
L 538 4863 
z
" transform="scale(0.015625)"/>
      <path id="DejaVuSans-Bold-68" d="M 4056 2131 
L 4056 0 
L 2931 0 
L 2931 347 
L 2931 1625 
Q 2931 2084 2911 2256 
Q 2891 2428 2841 2509 
Q 2775 2619 2662 2680 
Q 2550 2741 2406 2741 
Q 2056 2741 1856 2470 
Q 1656 2200 1656 1722 
L 1656 0 
L 538 0 
L 538 4863 
L 1656 4863 
L 1656 2988 
Q 1909 3294 2193 3439 
Q 2478 3584 2822 3584 
Q 3428 3584 3742 3212 
Q 4056 2841 4056 2131 
z
" transform="scale(0.015625)"/>
      <path id="DejaVuSans-Bold-61" d="M 2106 1575 
Q 1756 1575 1579 1456 
Q 1403 1338 1403 1106 
Q 1403 894 1545 773 
Q 1688 653 1941 653 
Q 2256 653 2472 879 
Q 2688 1106 2688 1447 
L 2688 1575 
L 2106 1575 
z
M 3816 1997 
L 3816 0 
L 2688 0 
L 2688 519 
Q 2463 200 2181 54 
Q 1900 -91 1497 -91 
Q 953 -91 614 226 
Q 275 544 275 1050 
Q 275 1666 698 1953 
Q 1122 2241 2028 2241 
L 2688 2241 
L 2688 2328 
Q 2688 2594 2478 2717 
Q 2269 2841 1825 2841 
Q 1466 2841 1156 2769 
Q 847 2697 581 2553 
L 581 3406 
Q 941 3494 1303 3539 
Q 1666 3584 2028 3584 
Q 2975 3584 3395 3211 
Q 3816 2838 3816 1997 
z
" transform="scale(0.015625)"/>
      <path id="DejaVuSans-Bold-64" d="M 2919 2988 
L 2919 4863 
L 4044 4863 
L 4044 0 
L 2919 0 
L 2919 506 
Q 2688 197 2409 53 
Q 2131 -91 1766 -91 
Q 1119 -91 703 423 
Q 288 938 288 1747 
Q 288 2556 703 3070 
Q 1119 3584 1766 3584 
Q 2128 3584 2408 3439 
Q 2688 3294 2919 2988 
z
M 2181 722 
Q 2541 722 2730 984 
Q 2919 1247 2919 1747 
Q 2919 2247 2730 2509 
Q 2541 2772 2181 2772 
Q 1825 2772 1636 2509 
Q 1447 2247 1447 1747 
Q 1447 1247 1636 984 
Q 1825 722 2181 722 
z
" transform="scale(0.015625)"/>
      <path id="DejaVuSans-Bold-41" d="M 3419 850 
L 1538 850 
L 1241 0 
L 31 0 
L 1759 4666 
L 3194 4666 
L 4922 0 
L 3713 0 
L 3419 850 
z
M 1838 1716 
L 3116 1716 
L 2478 3572 
L 1838 1716 
z
" transform="scale(0.015625)"/>
      <path id="DejaVuSans-Bold-72" d="M 3138 2547 
Q 2991 2616 2845 2648 
Q 2700 2681 2553 2681 
Q 2122 2681 1889 2404 
Q 1656 2128 1656 1613 
L 1656 0 
L 538 0 
L 538 3500 
L 1656 3500 
L 1656 2925 
Q 1872 3269 2151 3426 
Q 2431 3584 2822 3584 
Q 2878 3584 2943 3579 
Q 3009 3575 3134 3559 
L 3138 2547 
z
" transform="scale(0.015625)"/>
      <path id="DejaVuSans-Bold-77" d="M 225 3500 
L 1313 3500 
L 1900 1088 
L 2491 3500 
L 3425 3500 
L 4013 1113 
L 4603 3500 
L 5691 3500 
L 4769 0 
L 3547 0 
L 2956 2406 
L 2369 0 
L 1147 0 
L 225 3500 
z
" transform="scale(0.015625)"/>
      <path id="DejaVuSans-Bold-79" d="M 78 3500 
L 1197 3500 
L 2138 1125 
L 2938 3500 
L 4056 3500 
L 2584 -331 
Q 2363 -916 2067 -1148 
Q 1772 -1381 1288 -1381 
L 641 -1381 
L 641 -647 
L 991 -647 
Q 1275 -647 1404 -556 
Q 1534 -466 1606 -231 
L 1638 -134 
L 78 3500 
z
" transform="scale(0.015625)"/>
      <path id="DejaVuSans-Bold-73" d="M 3272 3391 
L 3272 2541 
Q 2913 2691 2578 2766 
Q 2244 2841 1947 2841 
Q 1628 2841 1473 2761 
Q 1319 2681 1319 2516 
Q 1319 2381 1436 2309 
Q 1553 2238 1856 2203 
L 2053 2175 
Q 2913 2066 3209 1816 
Q 3506 1566 3506 1031 
Q 3506 472 3093 190 
Q 2681 -91 1863 -91 
Q 1516 -91 1145 -36 
Q 775 19 384 128 
L 384 978 
Q 719 816 1070 734 
Q 1422 653 1784 653 
Q 2113 653 2278 743 
Q 2444 834 2444 1013 
Q 2444 1163 2330 1236 
Q 2216 1309 1875 1350 
L 1678 1375 
Q 931 1469 631 1722 
Q 331 1975 331 2491 
Q 331 3047 712 3315 
Q 1094 3584 1881 3584 
Q 2191 3584 2531 3537 
Q 2872 3491 3272 3391 
z
" transform="scale(0.015625)"/>
      <path id="DejaVuSans-Bold-20" transform="scale(0.015625)"/>
      <path id="DejaVuSans-Bold-65" d="M 4031 1759 
L 4031 1441 
L 1416 1441 
Q 1456 1047 1700 850 
Q 1944 653 2381 653 
Q 2734 653 3104 758 
Q 3475 863 3866 1075 
L 3866 213 
Q 3469 63 3072 -14 
Q 2675 -91 2278 -91 
Q 1328 -91 801 392 
Q 275 875 275 1747 
Q 275 2603 792 3093 
Q 1309 3584 2216 3584 
Q 3041 3584 3536 3087 
Q 4031 2591 4031 1759 
z
M 2881 2131 
Q 2881 2450 2695 2645 
Q 2509 2841 2209 2841 
Q 1884 2841 1681 2658 
Q 1478 2475 1428 2131 
L 2881 2131 
z
" transform="scale(0.015625)"/>
      <path id="DejaVuSans-Bold-6e" d="M 4056 2131 
L 4056 0 
L 2931 0 
L 2931 347 
L 2931 1631 
Q 2931 2084 2911 2256 
Q 2891 2428 2841 2509 
Q 2775 2619 2662 2680 
Q 2550 2741 2406 2741 
Q 2056 2741 1856 2470 
Q 1656 2200 1656 1722 
L 1656 0 
L 538 0 
L 538 3500 
L 1656 3500 
L 1656 2988 
Q 1909 3294 2193 3439 
Q 2478 3584 2822 3584 
Q 3428 3584 3742 3212 
Q 4056 2841 4056 2131 
z
" transform="scale(0.015625)"/>
      <path id="DejaVuSans-Bold-6d" d="M 3781 2919 
Q 3994 3244 4286 3414 
Q 4578 3584 4928 3584 
Q 5531 3584 5847 3212 
Q 6163 2841 6163 2131 
L 6163 0 
L 5038 0 
L 5038 1825 
Q 5041 1866 5042 1909 
Q 5044 1953 5044 2034 
Q 5044 2406 4934 2573 
Q 4825 2741 4581 2741 
Q 4263 2741 4089 2478 
Q 3916 2216 3909 1719 
L 3909 0 
L 2784 0 
L 2784 1825 
Q 2784 2406 2684 2573 
Q 2584 2741 2328 2741 
Q 2006 2741 1831 2477 
Q 1656 2213 1656 1722 
L 1656 0 
L 531 0 
L 531 3500 
L 1656 3500 
L 1656 2988 
Q 1863 3284 2130 3434 
Q 2397 3584 2719 3584 
Q 3081 3584 3359 3409 
Q 3638 3234 3781 2919 
z
" transform="scale(0.015625)"/>
      <path id="DejaVuSans-Bold-62" d="M 2400 722 
Q 2759 722 2948 984 
Q 3138 1247 3138 1747 
Q 3138 2247 2948 2509 
Q 2759 2772 2400 2772 
Q 2041 2772 1848 2508 
Q 1656 2244 1656 1747 
Q 1656 1250 1848 986 
Q 2041 722 2400 722 
z
M 1656 2988 
Q 1888 3294 2169 3439 
Q 2450 3584 2816 3584 
Q 3463 3584 3878 3070 
Q 4294 2556 4294 1747 
Q 4294 938 3878 423 
Q 3463 -91 2816 -91 
Q 2450 -91 2169 54 
Q 1888 200 1656 506 
L 1656 0 
L 538 0 
L 538 4863 
L 1656 4863 
L 1656 2988 
z
" transform="scale(0.015625)"/>
      <path id="DejaVuSans-Bold-75" d="M 500 1363 
L 500 3500 
L 1625 3500 
L 1625 3150 
Q 1625 2866 1622 2436 
Q 1619 2006 1619 1863 
Q 1619 1441 1641 1255 
Q 1663 1069 1716 984 
Q 1784 875 1895 815 
Q 2006 756 2150 756 
Q 2500 756 2700 1025 
Q 2900 1294 2900 1772 
L 2900 3500 
L 4019 3500 
L 4019 0 
L 2900 0 
L 2900 506 
Q 2647 200 2364 54 
Q 2081 -91 1741 -91 
Q 1134 -91 817 281 
Q 500 653 500 1363 
z
" transform="scale(0.015625)"/>
      <path id="DejaVuSans-Bold-6f" d="M 2203 2784 
Q 1831 2784 1636 2517 
Q 1441 2250 1441 1747 
Q 1441 1244 1636 976 
Q 1831 709 2203 709 
Q 2569 709 2762 976 
Q 2956 1244 2956 1747 
Q 2956 2250 2762 2517 
Q 2569 2784 2203 2784 
z
M 2203 3584 
Q 3106 3584 3614 3096 
Q 4122 2609 4122 1747 
Q 4122 884 3614 396 
Q 3106 -91 2203 -91 
Q 1297 -91 786 396 
Q 275 884 275 1747 
Q 275 2609 786 3096 
Q 1297 3584 2203 3584 
z
" transform="scale(0.015625)"/>
     </defs>
     <use xlink:href="#DejaVuSans-Bold-45"/>
     <use xlink:href="#DejaVuSans-Bold-74" x="68.310547"/>
     <use xlink:href="#DejaVuSans-Bold-69" x="116.113281"/>
     <use xlink:href="#DejaVuSans-Bold-68" x="150.390625"/>
     <use xlink:href="#DejaVuSans-Bold-61" x="221.582031"/>
     <use xlink:href="#DejaVuSans-Bold-64" x="289.0625"/>
     <use xlink:href="#DejaVuSans-Bold-41" x="360.644531"/>
     <use xlink:href="#DejaVuSans-Bold-69" x="438.037109"/>
     <use xlink:href="#DejaVuSans-Bold-72" x="472.314453"/>
     <use xlink:href="#DejaVuSans-Bold-77" x="521.630859"/>
     <use xlink:href="#DejaVuSans-Bold-61" x="614.013672"/>
     <use xlink:href="#DejaVuSans-Bold-79" x="678.369141"/>
     <use xlink:href="#DejaVuSans-Bold-73" x="743.554688"/>
     <use xlink:href="#DejaVuSans-Bold-20" x="803.076172"/>
     <use xlink:href="#DejaVuSans-Bold-73" x="837.890625"/>
     <use xlink:href="#DejaVuSans-Bold-65" x="897.412109"/>
     <use xlink:href="#DejaVuSans-Bold-6e" x="965.234375"/>
     <use xlink:href="#DejaVuSans-Bold-74" x="1036.425781"/>
     <use xlink:href="#DejaVuSans-Bold-69" x="1084.228516"/>
     <use xlink:href="#DejaVuSans-Bold-6d" x="1118.505859"/>
     <use xlink:href="#DejaVuSans-Bold-65" x="1222.705078"/>
     <use xlink:href="#DejaVuSans-Bold-6e" x="1290.527344"/>
     <use xlink:href="#DejaVuSans-Bold-74" x="1361.71875"/>
     <use xlink:href="#DejaVuSans-Bold-20" x="1409.521484"/>
     <use xlink:href="#DejaVuSans-Bold-64" x="1444.335938"/>
     <use xlink:href="#DejaVuSans-Bold-69" x="1515.917969"/>
     <use xlink:href="#DejaVuSans-Bold-73" x="1550.195312"/>
     <use xlink:href="#DejaVuSans-Bold-74" x="1609.716797"/>
     <use xlink:href="#DejaVuSans-Bold-72" x="1657.519531"/>
     <use xlink:href="#DejaVuSans-Bold-69" x="1706.835938"/>
     <use xlink:href="#DejaVuSans-Bold-62" x="1741.113281"/>
     <use xlink:href="#DejaVuSans-Bold-75" x="1812.695312"/>
     <use xlink:href="#DejaVuSans-Bold-74" x="1883.886719"/>
     <use xlink:href="#DejaVuSans-Bold-69" x="1931.689453"/>
     <use xlink:href="#DejaVuSans-Bold-6f" x="1965.966797"/>
     <use xlink:href="#DejaVuSans-Bold-6e" x="2034.667969"/>
    </g>
   </g>
  </g>
 </g>
 <defs>
  <clipPath id="pa93c0b0f1f">
   <rect x="62.39" y="28.32" width="387.61" height="285.4"/>
  </clipPath>
 </defs>
</svg>
